<?xml version="1.0" encoding="utf-8" standalone="no"?>
<!DOCTYPE svg PUBLIC "-//W3C//DTD SVG 1.1//EN"
  "http://www.w3.org/Graphics/SVG/1.1/DTD/svg11.dtd">
<svg xmlns:xlink="http://www.w3.org/1999/xlink" width="460.8pt" height="345.6pt" viewBox="0 0 460.8 345.6" xmlns="http://www.w3.org/2000/svg" version="1.1">
 <metadata>
  <rdf:RDF xmlns:dc="http://purl.org/dc/elements/1.1/" xmlns:cc="http://creativecommons.org/ns#" xmlns:rdf="http://www.w3.org/1999/02/22-rdf-syntax-ns#">
   <cc:Work>
    <dc:type rdf:resource="http://purl.org/dc/dcmitype/StillImage"/>
    <dc:date>2022-08-08T15:58:04.515907</dc:date>
    <dc:format>image/svg+xml</dc:format>
    <dc:creator>
     <cc:Agent>
      <dc:title>Matplotlib v3.5.1, https://matplotlib.org/</dc:title>
     </cc:Agent>
    </dc:creator>
   </cc:Work>
  </rdf:RDF>
 </metadata>
 <defs>
  <style type="text/css">*{stroke-linejoin: round; stroke-linecap: butt}</style>
 </defs>
 <g id="figure_1">
  <g id="patch_1">
   <path d="M 0 345.6 
L 460.8 345.6 
L 460.8 0 
L 0 0 
z
" style="fill: #ffffff"/>
  </g>
  <g id="axes_1">
   <g id="patch_2">
    <path d="M 57.6 307.584 
L 414.72 307.584 
L 414.72 41.472 
L 57.6 41.472 
z
" style="fill: #ffffff"/>
   </g>
   <g id="matplotlib.axis_1">
    <g id="xtick_1">
     <g id="line2d_1">
      <defs>
       <path id="m9b1fad82c1" d="M 0 0 
L 0 3.5 
" style="stroke: #000000; stroke-width: 0.8"/>
      </defs>
      <g>
       <use xlink:href="#m9b1fad82c1" x="73.832727" y="307.584" style="stroke: #000000; stroke-width: 0.8"/>
      </g>
     </g>
     <g id="text_1">
      <!-- 0.0 -->
      <g transform="translate(65.881165 322.182437)scale(0.1 -0.1)">
       <defs>
        <path id="DejaVuSans-30" d="M 2034 4250 
Q 1547 4250 1301 3770 
Q 1056 3291 1056 2328 
Q 1056 1369 1301 889 
Q 1547 409 2034 409 
Q 2525 409 2770 889 
Q 3016 1369 3016 2328 
Q 3016 3291 2770 3770 
Q 2525 4250 2034 4250 
z
M 2034 4750 
Q 2819 4750 3233 4129 
Q 3647 3509 3647 2328 
Q 3647 1150 3233 529 
Q 2819 -91 2034 -91 
Q 1250 -91 836 529 
Q 422 1150 422 2328 
Q 422 3509 836 4129 
Q 1250 4750 2034 4750 
z
" transform="scale(0.015625)"/>
        <path id="DejaVuSans-2e" d="M 684 794 
L 1344 794 
L 1344 0 
L 684 0 
L 684 794 
z
" transform="scale(0.015625)"/>
       </defs>
       <use xlink:href="#DejaVuSans-30"/>
       <use xlink:href="#DejaVuSans-2e" x="63.623047"/>
       <use xlink:href="#DejaVuSans-30" x="95.410156"/>
      </g>
     </g>
    </g>
    <g id="xtick_2">
     <g id="line2d_2">
      <g>
       <use xlink:href="#m9b1fad82c1" x="138.828632" y="307.584" style="stroke: #000000; stroke-width: 0.8"/>
      </g>
     </g>
     <g id="text_2">
      <!-- 0.2 -->
      <g transform="translate(130.87707 322.182437)scale(0.1 -0.1)">
       <defs>
        <path id="DejaVuSans-32" d="M 1228 531 
L 3431 531 
L 3431 0 
L 469 0 
L 469 531 
Q 828 903 1448 1529 
Q 2069 2156 2228 2338 
Q 2531 2678 2651 2914 
Q 2772 3150 2772 3378 
Q 2772 3750 2511 3984 
Q 2250 4219 1831 4219 
Q 1534 4219 1204 4116 
Q 875 4013 500 3803 
L 500 4441 
Q 881 4594 1212 4672 
Q 1544 4750 1819 4750 
Q 2544 4750 2975 4387 
Q 3406 4025 3406 3419 
Q 3406 3131 3298 2873 
Q 3191 2616 2906 2266 
Q 2828 2175 2409 1742 
Q 1991 1309 1228 531 
z
" transform="scale(0.015625)"/>
       </defs>
       <use xlink:href="#DejaVuSans-30"/>
       <use xlink:href="#DejaVuSans-2e" x="63.623047"/>
       <use xlink:href="#DejaVuSans-32" x="95.410156"/>
      </g>
     </g>
    </g>
    <g id="xtick_3">
     <g id="line2d_3">
      <g>
       <use xlink:href="#m9b1fad82c1" x="203.824537" y="307.584" style="stroke: #000000; stroke-width: 0.8"/>
      </g>
     </g>
     <g id="text_3">
      <!-- 0.4 -->
      <g transform="translate(195.872975 322.182437)scale(0.1 -0.1)">
       <defs>
        <path id="DejaVuSans-34" d="M 2419 4116 
L 825 1625 
L 2419 1625 
L 2419 4116 
z
M 2253 4666 
L 3047 4666 
L 3047 1625 
L 3713 1625 
L 3713 1100 
L 3047 1100 
L 3047 0 
L 2419 0 
L 2419 1100 
L 313 1100 
L 313 1709 
L 2253 4666 
z
" transform="scale(0.015625)"/>
       </defs>
       <use xlink:href="#DejaVuSans-30"/>
       <use xlink:href="#DejaVuSans-2e" x="63.623047"/>
       <use xlink:href="#DejaVuSans-34" x="95.410156"/>
      </g>
     </g>
    </g>
    <g id="xtick_4">
     <g id="line2d_4">
      <g>
       <use xlink:href="#m9b1fad82c1" x="268.820442" y="307.584" style="stroke: #000000; stroke-width: 0.8"/>
      </g>
     </g>
     <g id="text_4">
      <!-- 0.6 -->
      <g transform="translate(260.86888 322.182437)scale(0.1 -0.1)">
       <defs>
        <path id="DejaVuSans-36" d="M 2113 2584 
Q 1688 2584 1439 2293 
Q 1191 2003 1191 1497 
Q 1191 994 1439 701 
Q 1688 409 2113 409 
Q 2538 409 2786 701 
Q 3034 994 3034 1497 
Q 3034 2003 2786 2293 
Q 2538 2584 2113 2584 
z
M 3366 4563 
L 3366 3988 
Q 3128 4100 2886 4159 
Q 2644 4219 2406 4219 
Q 1781 4219 1451 3797 
Q 1122 3375 1075 2522 
Q 1259 2794 1537 2939 
Q 1816 3084 2150 3084 
Q 2853 3084 3261 2657 
Q 3669 2231 3669 1497 
Q 3669 778 3244 343 
Q 2819 -91 2113 -91 
Q 1303 -91 875 529 
Q 447 1150 447 2328 
Q 447 3434 972 4092 
Q 1497 4750 2381 4750 
Q 2619 4750 2861 4703 
Q 3103 4656 3366 4563 
z
" transform="scale(0.015625)"/>
       </defs>
       <use xlink:href="#DejaVuSans-30"/>
       <use xlink:href="#DejaVuSans-2e" x="63.623047"/>
       <use xlink:href="#DejaVuSans-36" x="95.410156"/>
      </g>
     </g>
    </g>
    <g id="xtick_5">
     <g id="line2d_5">
      <g>
       <use xlink:href="#m9b1fad82c1" x="333.816347" y="307.584" style="stroke: #000000; stroke-width: 0.8"/>
      </g>
     </g>
     <g id="text_5">
      <!-- 0.8 -->
      <g transform="translate(325.864785 322.182437)scale(0.1 -0.1)">
       <defs>
        <path id="DejaVuSans-38" d="M 2034 2216 
Q 1584 2216 1326 1975 
Q 1069 1734 1069 1313 
Q 1069 891 1326 650 
Q 1584 409 2034 409 
Q 2484 409 2743 651 
Q 3003 894 3003 1313 
Q 3003 1734 2745 1975 
Q 2488 2216 2034 2216 
z
M 1403 2484 
Q 997 2584 770 2862 
Q 544 3141 544 3541 
Q 544 4100 942 4425 
Q 1341 4750 2034 4750 
Q 2731 4750 3128 4425 
Q 3525 4100 3525 3541 
Q 3525 3141 3298 2862 
Q 3072 2584 2669 2484 
Q 3125 2378 3379 2068 
Q 3634 1759 3634 1313 
Q 3634 634 3220 271 
Q 2806 -91 2034 -91 
Q 1263 -91 848 271 
Q 434 634 434 1313 
Q 434 1759 690 2068 
Q 947 2378 1403 2484 
z
M 1172 3481 
Q 1172 3119 1398 2916 
Q 1625 2713 2034 2713 
Q 2441 2713 2670 2916 
Q 2900 3119 2900 3481 
Q 2900 3844 2670 4047 
Q 2441 4250 2034 4250 
Q 1625 4250 1398 4047 
Q 1172 3844 1172 3481 
z
" transform="scale(0.015625)"/>
       </defs>
       <use xlink:href="#DejaVuSans-30"/>
       <use xlink:href="#DejaVuSans-2e" x="63.623047"/>
       <use xlink:href="#DejaVuSans-38" x="95.410156"/>
      </g>
     </g>
    </g>
    <g id="xtick_6">
     <g id="line2d_6">
      <g>
       <use xlink:href="#m9b1fad82c1" x="398.812252" y="307.584" style="stroke: #000000; stroke-width: 0.8"/>
      </g>
     </g>
     <g id="text_6">
      <!-- 1.0 -->
      <g transform="translate(390.86069 322.182437)scale(0.1 -0.1)">
       <defs>
        <path id="DejaVuSans-31" d="M 794 531 
L 1825 531 
L 1825 4091 
L 703 3866 
L 703 4441 
L 1819 4666 
L 2450 4666 
L 2450 531 
L 3481 531 
L 3481 0 
L 794 0 
L 794 531 
z
" transform="scale(0.015625)"/>
       </defs>
       <use xlink:href="#DejaVuSans-31"/>
       <use xlink:href="#DejaVuSans-2e" x="63.623047"/>
       <use xlink:href="#DejaVuSans-30" x="95.410156"/>
      </g>
     </g>
    </g>
    <g id="text_7">
     <!-- Time (ns) -->
     <g transform="translate(212.662344 335.860562)scale(0.1 -0.1)">
      <defs>
       <path id="DejaVuSans-54" d="M -19 4666 
L 3928 4666 
L 3928 4134 
L 2272 4134 
L 2272 0 
L 1638 0 
L 1638 4134 
L -19 4134 
L -19 4666 
z
" transform="scale(0.015625)"/>
       <path id="DejaVuSans-69" d="M 603 3500 
L 1178 3500 
L 1178 0 
L 603 0 
L 603 3500 
z
M 603 4863 
L 1178 4863 
L 1178 4134 
L 603 4134 
L 603 4863 
z
" transform="scale(0.015625)"/>
       <path id="DejaVuSans-6d" d="M 3328 2828 
Q 3544 3216 3844 3400 
Q 4144 3584 4550 3584 
Q 5097 3584 5394 3201 
Q 5691 2819 5691 2113 
L 5691 0 
L 5113 0 
L 5113 2094 
Q 5113 2597 4934 2840 
Q 4756 3084 4391 3084 
Q 3944 3084 3684 2787 
Q 3425 2491 3425 1978 
L 3425 0 
L 2847 0 
L 2847 2094 
Q 2847 2600 2669 2842 
Q 2491 3084 2119 3084 
Q 1678 3084 1418 2786 
Q 1159 2488 1159 1978 
L 1159 0 
L 581 0 
L 581 3500 
L 1159 3500 
L 1159 2956 
Q 1356 3278 1631 3431 
Q 1906 3584 2284 3584 
Q 2666 3584 2933 3390 
Q 3200 3197 3328 2828 
z
" transform="scale(0.015625)"/>
       <path id="DejaVuSans-65" d="M 3597 1894 
L 3597 1613 
L 953 1613 
Q 991 1019 1311 708 
Q 1631 397 2203 397 
Q 2534 397 2845 478 
Q 3156 559 3463 722 
L 3463 178 
Q 3153 47 2828 -22 
Q 2503 -91 2169 -91 
Q 1331 -91 842 396 
Q 353 884 353 1716 
Q 353 2575 817 3079 
Q 1281 3584 2069 3584 
Q 2775 3584 3186 3129 
Q 3597 2675 3597 1894 
z
M 3022 2063 
Q 3016 2534 2758 2815 
Q 2500 3097 2075 3097 
Q 1594 3097 1305 2825 
Q 1016 2553 972 2059 
L 3022 2063 
z
" transform="scale(0.015625)"/>
       <path id="DejaVuSans-20" transform="scale(0.015625)"/>
       <path id="DejaVuSans-28" d="M 1984 4856 
Q 1566 4138 1362 3434 
Q 1159 2731 1159 2009 
Q 1159 1288 1364 580 
Q 1569 -128 1984 -844 
L 1484 -844 
Q 1016 -109 783 600 
Q 550 1309 550 2009 
Q 550 2706 781 3412 
Q 1013 4119 1484 4856 
L 1984 4856 
z
" transform="scale(0.015625)"/>
       <path id="DejaVuSans-6e" d="M 3513 2113 
L 3513 0 
L 2938 0 
L 2938 2094 
Q 2938 2591 2744 2837 
Q 2550 3084 2163 3084 
Q 1697 3084 1428 2787 
Q 1159 2491 1159 1978 
L 1159 0 
L 581 0 
L 581 3500 
L 1159 3500 
L 1159 2956 
Q 1366 3272 1645 3428 
Q 1925 3584 2291 3584 
Q 2894 3584 3203 3211 
Q 3513 2838 3513 2113 
z
" transform="scale(0.015625)"/>
       <path id="DejaVuSans-73" d="M 2834 3397 
L 2834 2853 
Q 2591 2978 2328 3040 
Q 2066 3103 1784 3103 
Q 1356 3103 1142 2972 
Q 928 2841 928 2578 
Q 928 2378 1081 2264 
Q 1234 2150 1697 2047 
L 1894 2003 
Q 2506 1872 2764 1633 
Q 3022 1394 3022 966 
Q 3022 478 2636 193 
Q 2250 -91 1575 -91 
Q 1294 -91 989 -36 
Q 684 19 347 128 
L 347 722 
Q 666 556 975 473 
Q 1284 391 1588 391 
Q 1994 391 2212 530 
Q 2431 669 2431 922 
Q 2431 1156 2273 1281 
Q 2116 1406 1581 1522 
L 1381 1569 
Q 847 1681 609 1914 
Q 372 2147 372 2553 
Q 372 3047 722 3315 
Q 1072 3584 1716 3584 
Q 2034 3584 2315 3537 
Q 2597 3491 2834 3397 
z
" transform="scale(0.015625)"/>
       <path id="DejaVuSans-29" d="M 513 4856 
L 1013 4856 
Q 1481 4119 1714 3412 
Q 1947 2706 1947 2009 
Q 1947 1309 1714 600 
Q 1481 -109 1013 -844 
L 513 -844 
Q 928 -128 1133 580 
Q 1338 1288 1338 2009 
Q 1338 2731 1133 3434 
Q 928 4138 513 4856 
z
" transform="scale(0.015625)"/>
      </defs>
      <use xlink:href="#DejaVuSans-54"/>
      <use xlink:href="#DejaVuSans-69" x="57.958984"/>
      <use xlink:href="#DejaVuSans-6d" x="85.742188"/>
      <use xlink:href="#DejaVuSans-65" x="183.154297"/>
      <use xlink:href="#DejaVuSans-20" x="244.677734"/>
      <use xlink:href="#DejaVuSans-28" x="276.464844"/>
      <use xlink:href="#DejaVuSans-6e" x="315.478516"/>
      <use xlink:href="#DejaVuSans-73" x="378.857422"/>
      <use xlink:href="#DejaVuSans-29" x="430.957031"/>
     </g>
    </g>
    <g id="text_8">
     <!-- 1e9 -->
     <g transform="translate(395.841875 334.860562)scale(0.1 -0.1)">
      <defs>
       <path id="DejaVuSans-39" d="M 703 97 
L 703 672 
Q 941 559 1184 500 
Q 1428 441 1663 441 
Q 2288 441 2617 861 
Q 2947 1281 2994 2138 
Q 2813 1869 2534 1725 
Q 2256 1581 1919 1581 
Q 1219 1581 811 2004 
Q 403 2428 403 3163 
Q 403 3881 828 4315 
Q 1253 4750 1959 4750 
Q 2769 4750 3195 4129 
Q 3622 3509 3622 2328 
Q 3622 1225 3098 567 
Q 2575 -91 1691 -91 
Q 1453 -91 1209 -44 
Q 966 3 703 97 
z
M 1959 2075 
Q 2384 2075 2632 2365 
Q 2881 2656 2881 3163 
Q 2881 3666 2632 3958 
Q 2384 4250 1959 4250 
Q 1534 4250 1286 3958 
Q 1038 3666 1038 3163 
Q 1038 2656 1286 2365 
Q 1534 2075 1959 2075 
z
" transform="scale(0.015625)"/>
      </defs>
      <use xlink:href="#DejaVuSans-31"/>
      <use xlink:href="#DejaVuSans-65" x="63.623047"/>
      <use xlink:href="#DejaVuSans-39" x="125.146484"/>
     </g>
    </g>
   </g>
   <g id="matplotlib.axis_2">
    <g id="ytick_1">
     <g id="line2d_7">
      <defs>
       <path id="maf181e431b" d="M 0 0 
L -3.5 0 
" style="stroke: #000000; stroke-width: 0.8"/>
      </defs>
      <g>
       <use xlink:href="#maf181e431b" x="57.6" y="297.432651" style="stroke: #000000; stroke-width: 0.8"/>
      </g>
     </g>
     <g id="text_9">
      <!-- 2500 -->
      <g transform="translate(25.15 301.23187)scale(0.1 -0.1)">
       <defs>
        <path id="DejaVuSans-35" d="M 691 4666 
L 3169 4666 
L 3169 4134 
L 1269 4134 
L 1269 2991 
Q 1406 3038 1543 3061 
Q 1681 3084 1819 3084 
Q 2600 3084 3056 2656 
Q 3513 2228 3513 1497 
Q 3513 744 3044 326 
Q 2575 -91 1722 -91 
Q 1428 -91 1123 -41 
Q 819 9 494 109 
L 494 744 
Q 775 591 1075 516 
Q 1375 441 1709 441 
Q 2250 441 2565 725 
Q 2881 1009 2881 1497 
Q 2881 1984 2565 2268 
Q 2250 2553 1709 2553 
Q 1456 2553 1204 2497 
Q 953 2441 691 2322 
L 691 4666 
z
" transform="scale(0.015625)"/>
       </defs>
       <use xlink:href="#DejaVuSans-32"/>
       <use xlink:href="#DejaVuSans-35" x="63.623047"/>
       <use xlink:href="#DejaVuSans-30" x="127.246094"/>
       <use xlink:href="#DejaVuSans-30" x="190.869141"/>
      </g>
     </g>
    </g>
    <g id="ytick_2">
     <g id="line2d_8">
      <g>
       <use xlink:href="#maf181e431b" x="57.6" y="263.671347" style="stroke: #000000; stroke-width: 0.8"/>
      </g>
     </g>
     <g id="text_10">
      <!-- 5000 -->
      <g transform="translate(25.15 267.470566)scale(0.1 -0.1)">
       <use xlink:href="#DejaVuSans-35"/>
       <use xlink:href="#DejaVuSans-30" x="63.623047"/>
       <use xlink:href="#DejaVuSans-30" x="127.246094"/>
       <use xlink:href="#DejaVuSans-30" x="190.869141"/>
      </g>
     </g>
    </g>
    <g id="ytick_3">
     <g id="line2d_9">
      <g>
       <use xlink:href="#maf181e431b" x="57.6" y="229.910043" style="stroke: #000000; stroke-width: 0.8"/>
      </g>
     </g>
     <g id="text_11">
      <!-- 7500 -->
      <g transform="translate(25.15 233.709262)scale(0.1 -0.1)">
       <defs>
        <path id="DejaVuSans-37" d="M 525 4666 
L 3525 4666 
L 3525 4397 
L 1831 0 
L 1172 0 
L 2766 4134 
L 525 4134 
L 525 4666 
z
" transform="scale(0.015625)"/>
       </defs>
       <use xlink:href="#DejaVuSans-37"/>
       <use xlink:href="#DejaVuSans-35" x="63.623047"/>
       <use xlink:href="#DejaVuSans-30" x="127.246094"/>
       <use xlink:href="#DejaVuSans-30" x="190.869141"/>
      </g>
     </g>
    </g>
    <g id="ytick_4">
     <g id="line2d_10">
      <g>
       <use xlink:href="#maf181e431b" x="57.6" y="196.148739" style="stroke: #000000; stroke-width: 0.8"/>
      </g>
     </g>
     <g id="text_12">
      <!-- 10000 -->
      <g transform="translate(18.7875 199.947958)scale(0.1 -0.1)">
       <use xlink:href="#DejaVuSans-31"/>
       <use xlink:href="#DejaVuSans-30" x="63.623047"/>
       <use xlink:href="#DejaVuSans-30" x="127.246094"/>
       <use xlink:href="#DejaVuSans-30" x="190.869141"/>
       <use xlink:href="#DejaVuSans-30" x="254.492188"/>
      </g>
     </g>
    </g>
    <g id="ytick_5">
     <g id="line2d_11">
      <g>
       <use xlink:href="#maf181e431b" x="57.6" y="162.387435" style="stroke: #000000; stroke-width: 0.8"/>
      </g>
     </g>
     <g id="text_13">
      <!-- 12500 -->
      <g transform="translate(18.7875 166.186654)scale(0.1 -0.1)">
       <use xlink:href="#DejaVuSans-31"/>
       <use xlink:href="#DejaVuSans-32" x="63.623047"/>
       <use xlink:href="#DejaVuSans-35" x="127.246094"/>
       <use xlink:href="#DejaVuSans-30" x="190.869141"/>
       <use xlink:href="#DejaVuSans-30" x="254.492188"/>
      </g>
     </g>
    </g>
    <g id="ytick_6">
     <g id="line2d_12">
      <g>
       <use xlink:href="#maf181e431b" x="57.6" y="128.626131" style="stroke: #000000; stroke-width: 0.8"/>
      </g>
     </g>
     <g id="text_14">
      <!-- 15000 -->
      <g transform="translate(18.7875 132.42535)scale(0.1 -0.1)">
       <use xlink:href="#DejaVuSans-31"/>
       <use xlink:href="#DejaVuSans-35" x="63.623047"/>
       <use xlink:href="#DejaVuSans-30" x="127.246094"/>
       <use xlink:href="#DejaVuSans-30" x="190.869141"/>
       <use xlink:href="#DejaVuSans-30" x="254.492188"/>
      </g>
     </g>
    </g>
    <g id="ytick_7">
     <g id="line2d_13">
      <g>
       <use xlink:href="#maf181e431b" x="57.6" y="94.864827" style="stroke: #000000; stroke-width: 0.8"/>
      </g>
     </g>
     <g id="text_15">
      <!-- 17500 -->
      <g transform="translate(18.7875 98.664046)scale(0.1 -0.1)">
       <use xlink:href="#DejaVuSans-31"/>
       <use xlink:href="#DejaVuSans-37" x="63.623047"/>
       <use xlink:href="#DejaVuSans-35" x="127.246094"/>
       <use xlink:href="#DejaVuSans-30" x="190.869141"/>
       <use xlink:href="#DejaVuSans-30" x="254.492188"/>
      </g>
     </g>
    </g>
    <g id="ytick_8">
     <g id="line2d_14">
      <g>
       <use xlink:href="#maf181e431b" x="57.6" y="61.103523" style="stroke: #000000; stroke-width: 0.8"/>
      </g>
     </g>
     <g id="text_16">
      <!-- 20000 -->
      <g transform="translate(18.7875 64.902742)scale(0.1 -0.1)">
       <use xlink:href="#DejaVuSans-32"/>
       <use xlink:href="#DejaVuSans-30" x="63.623047"/>
       <use xlink:href="#DejaVuSans-30" x="127.246094"/>
       <use xlink:href="#DejaVuSans-30" x="190.869141"/>
       <use xlink:href="#DejaVuSans-30" x="254.492188"/>
      </g>
     </g>
    </g>
    <g id="text_17">
     <!-- Latency (ns) -->
     <g transform="translate(12.707812 205.556125)rotate(-90)scale(0.1 -0.1)">
      <defs>
       <path id="DejaVuSans-4c" d="M 628 4666 
L 1259 4666 
L 1259 531 
L 3531 531 
L 3531 0 
L 628 0 
L 628 4666 
z
" transform="scale(0.015625)"/>
       <path id="DejaVuSans-61" d="M 2194 1759 
Q 1497 1759 1228 1600 
Q 959 1441 959 1056 
Q 959 750 1161 570 
Q 1363 391 1709 391 
Q 2188 391 2477 730 
Q 2766 1069 2766 1631 
L 2766 1759 
L 2194 1759 
z
M 3341 1997 
L 3341 0 
L 2766 0 
L 2766 531 
Q 2569 213 2275 61 
Q 1981 -91 1556 -91 
Q 1019 -91 701 211 
Q 384 513 384 1019 
Q 384 1609 779 1909 
Q 1175 2209 1959 2209 
L 2766 2209 
L 2766 2266 
Q 2766 2663 2505 2880 
Q 2244 3097 1772 3097 
Q 1472 3097 1187 3025 
Q 903 2953 641 2809 
L 641 3341 
Q 956 3463 1253 3523 
Q 1550 3584 1831 3584 
Q 2591 3584 2966 3190 
Q 3341 2797 3341 1997 
z
" transform="scale(0.015625)"/>
       <path id="DejaVuSans-74" d="M 1172 4494 
L 1172 3500 
L 2356 3500 
L 2356 3053 
L 1172 3053 
L 1172 1153 
Q 1172 725 1289 603 
Q 1406 481 1766 481 
L 2356 481 
L 2356 0 
L 1766 0 
Q 1100 0 847 248 
Q 594 497 594 1153 
L 594 3053 
L 172 3053 
L 172 3500 
L 594 3500 
L 594 4494 
L 1172 4494 
z
" transform="scale(0.015625)"/>
       <path id="DejaVuSans-63" d="M 3122 3366 
L 3122 2828 
Q 2878 2963 2633 3030 
Q 2388 3097 2138 3097 
Q 1578 3097 1268 2742 
Q 959 2388 959 1747 
Q 959 1106 1268 751 
Q 1578 397 2138 397 
Q 2388 397 2633 464 
Q 2878 531 3122 666 
L 3122 134 
Q 2881 22 2623 -34 
Q 2366 -91 2075 -91 
Q 1284 -91 818 406 
Q 353 903 353 1747 
Q 353 2603 823 3093 
Q 1294 3584 2113 3584 
Q 2378 3584 2631 3529 
Q 2884 3475 3122 3366 
z
" transform="scale(0.015625)"/>
       <path id="DejaVuSans-79" d="M 2059 -325 
Q 1816 -950 1584 -1140 
Q 1353 -1331 966 -1331 
L 506 -1331 
L 506 -850 
L 844 -850 
Q 1081 -850 1212 -737 
Q 1344 -625 1503 -206 
L 1606 56 
L 191 3500 
L 800 3500 
L 1894 763 
L 2988 3500 
L 3597 3500 
L 2059 -325 
z
" transform="scale(0.015625)"/>
      </defs>
      <use xlink:href="#DejaVuSans-4c"/>
      <use xlink:href="#DejaVuSans-61" x="55.712891"/>
      <use xlink:href="#DejaVuSans-74" x="116.992188"/>
      <use xlink:href="#DejaVuSans-65" x="156.201172"/>
      <use xlink:href="#DejaVuSans-6e" x="217.724609"/>
      <use xlink:href="#DejaVuSans-63" x="281.103516"/>
      <use xlink:href="#DejaVuSans-79" x="336.083984"/>
      <use xlink:href="#DejaVuSans-20" x="395.263672"/>
      <use xlink:href="#DejaVuSans-28" x="427.050781"/>
      <use xlink:href="#DejaVuSans-6e" x="466.064453"/>
      <use xlink:href="#DejaVuSans-73" x="529.443359"/>
      <use xlink:href="#DejaVuSans-29" x="581.542969"/>
     </g>
    </g>
   </g>
   <g id="line2d_15">
    <path d="M 73.832727 53.568 
L 74.157707 274.501973 
L 74.482686 272.246718 
L 74.807666 279.795746 
L 75.132645 282.766741 
L 75.457625 280.187377 
L 75.782604 279.26907 
L 76.107584 285.251573 
L 76.432563 287.736405 
L 76.757543 286.980151 
L 77.082523 241.132301 
L 77.407502 268.81657 
L 77.732482 280.930126 
L 78.057461 279.647196 
L 78.382441 280.970639 
L 78.70742 280.389945 
L 79.0324 283.387949 
L 79.357379 282.294082 
L 79.682359 279.768737 
L 80.007338 279.377106 
L 80.332318 281.294748 
L 80.657297 280.606017 
L 80.982277 279.134024 
L 81.307256 281.713388 
L 81.632236 280.551999 
L 81.957215 282.658704 
L 82.282195 285.697222 
L 82.607174 286.764079 
L 82.932154 246.210001 
L 83.257133 272.219709 
L 83.582113 278.958466 
L 83.907093 289.613533 
L 84.232072 278.782907 
L 84.557052 281.740397 
L 84.882031 278.944961 
L 85.207011 281.821424 
L 85.53199 280.538495 
L 85.85697 281.36227 
L 86.181949 279.80925 
L 86.506929 280.714053 
L 86.831908 280.092845 
L 87.156888 281.078675 
L 87.481867 281.578343 
L 87.806847 280.727558 
L 88.131826 288.425135 
L 88.456806 287.506828 
L 88.781785 278.499312 
L 89.106765 265.751043 
L 89.756724 279.228556 
L 90.081704 277.364932 
L 90.406683 280.903117 
L 90.731663 279.917287 
L 91.056642 280.984144 
L 91.381622 280.173873 
L 91.706601 281.564838 
L 92.031581 282.3481 
L 92.35656 281.902451 
L 92.68154 280.781576 
L 93.006519 281.767406 
L 93.331499 280.714053 
L 93.656478 282.186046 
L 93.981458 286.818097 
L 94.306437 287.209728 
L 94.631417 247.141813 
L 94.956396 265.832071 
L 95.606355 278.566834 
L 95.931335 278.82342 
L 96.256314 281.416288 
L 96.581294 279.566169 
L 96.906274 281.281243 
L 97.231253 280.133359 
L 97.556233 281.875442 
L 97.881212 280.916621 
L 98.206192 279.350097 
L 98.531171 282.604686 
L 98.856151 281.321757 
L 99.18113 282.510155 
L 99.50611 281.105684 
L 99.831089 287.128701 
L 100.156069 287.992991 
L 100.481048 245.345711 
L 100.806028 269.019138 
L 101.131007 279.025988 
L 101.455987 277.243391 
L 102.105946 281.186712 
L 102.430925 280.984144 
L 102.755905 280.10635 
L 103.080885 279.620187 
L 103.405864 281.200216 
L 103.730844 281.524325 
L 104.055823 279.485142 
L 104.380803 281.524325 
L 104.705782 282.550668 
L 105.030762 280.984144 
L 105.355741 287.101692 
L 105.680721 286.075348 
L 106.0057 288.897793 
L 106.33068 250.801538 
L 106.655659 267.695695 
L 106.980639 277.337923 
L 107.305618 276.905778 
L 107.630598 277.581004 
L 107.955577 279.822755 
L 108.280557 280.160368 
L 108.605536 281.213721 
L 108.930516 280.754567 
L 109.255495 279.728223 
L 109.580475 282.07801 
L 110.230434 279.795746 
L 110.555414 282.591182 
L 110.880393 282.132028 
L 111.205373 280.835594 
L 111.530352 287.493323 
L 111.855332 287.587855 
L 112.180311 281.767406 
L 112.505291 269.032642 
L 112.83027 273.083999 
L 113.15525 278.661366 
L 113.480229 279.363601 
L 113.805209 280.67354 
L 114.130188 281.011153 
L 114.455168 279.836259 
L 114.780147 281.213721 
L 115.105127 279.728223 
L 115.430106 279.998314 
L 115.755086 281.36227 
L 116.080066 281.294748 
L 116.405045 280.443963 
L 116.730025 282.523659 
L 117.055004 281.375775 
L 117.379984 288.479153 
L 117.704963 287.749909 
L 118.029943 261.091983 
L 118.354922 266.075152 
L 118.679902 278.202212 
L 119.004881 279.471637 
L 119.329861 280.214386 
L 119.65484 281.618856 
L 119.97982 280.511486 
L 120.304799 280.808585 
L 120.629779 280.903117 
L 120.954758 279.930791 
L 121.279738 281.173207 
L 121.604717 290.963985 
L 121.929697 289.370452 
L 122.254676 288.519667 
L 122.579656 289.167884 
L 122.904636 288.519667 
L 123.229615 290.545345 
L 123.554595 276.487138 
L 123.879574 287.884954 
L 124.204554 286.46698 
L 124.529533 291.976824 
L 124.854513 292.11187 
L 125.179492 291.12604 
L 125.504472 289.194893 
L 125.829451 289.856614 
L 126.154431 290.032173 
L 126.47941 288.317099 
L 126.80439 289.383956 
L 127.129369 292.8006 
L 127.454349 292.38196 
L 127.779328 292.165888 
L 128.104308 289.978155 
L 128.429287 289.897128 
L 128.754267 290.26175 
L 129.079247 289.221902 
L 129.404226 290.869454 
L 129.729206 279.998314 
L 130.054185 286.750575 
L 130.379165 288.425135 
L 130.704144 288.425135 
L 131.029124 291.679725 
L 131.354103 291.936311 
L 131.679083 291.477157 
L 132.004062 290.4103 
L 132.329042 246.777191 
L 132.654021 290.572354 
L 132.979001 288.587189 
L 133.30398 291.031508 
L 133.62896 292.017338 
L 133.953939 291.909302 
L 134.278919 289.519001 
L 134.603898 289.586524 
L 134.928878 288.978821 
L 135.253857 289.600029 
L 135.578837 289.640542 
L 135.903817 287.601359 
L 136.228796 286.31843 
L 136.553776 286.993656 
L 136.878755 292.65205 
L 137.203735 290.437309 
L 137.853694 292.300933 
L 138.178673 291.66622 
L 138.503653 288.870784 
L 138.828632 290.396795 
L 139.153612 289.478488 
L 139.478591 290.761417 
L 139.803571 292.65205 
L 140.12855 291.24758 
L 140.778509 290.086191 
L 141.103489 288.830271 
L 141.428468 289.735074 
L 142.078428 290.55885 
L 142.403407 290.585859 
L 142.728387 284.454806 
L 143.053366 284.306256 
L 143.378346 290.990994 
L 143.703325 290.302264 
L 144.028305 291.558184 
L 144.353284 290.059182 
L 144.678264 289.451479 
L 145.003243 290.099696 
L 145.328223 289.464983 
L 145.978182 291.747248 
L 146.303161 291.39613 
L 146.628141 289.708065 
L 146.95312 289.343443 
L 147.2781 290.086191 
L 147.603079 289.57302 
L 147.928059 289.748578 
L 148.253038 287.938972 
L 148.902998 287.317764 
L 149.227977 290.882958 
L 149.552957 291.436644 
L 149.877936 290.720904 
L 150.202916 291.315103 
L 150.527895 290.639877 
L 151.502834 289.42447 
L 151.827813 290.639877 
L 152.152793 293.21924 
L 152.477772 292.030842 
L 152.802752 287.493323 
L 153.127731 290.221237 
L 153.452711 290.923472 
L 153.77769 290.26175 
L 154.10267 290.612868 
L 154.427649 288.911298 
L 154.752629 288.452144 
L 155.077609 287.587855 
L 155.402588 286.183385 
L 155.727568 291.679725 
L 156.052547 291.193562 
L 156.377527 291.855284 
L 156.702506 291.234076 
L 157.027486 288.330604 
L 157.352465 290.234741 
L 157.677445 291.153049 
L 158.002424 291.693229 
L 158.327404 292.773591 
L 158.652383 292.38196 
L 158.977363 289.57302 
L 159.302342 289.84311 
L 159.627322 288.465649 
L 159.952301 290.396795 
L 160.277281 290.82894 
L 160.60226 289.910633 
L 160.92724 286.980151 
L 161.252219 287.668882 
L 161.577199 292.557519 
L 161.902179 287.412296 
L 162.227158 290.963985 
L 162.552138 291.558184 
L 162.877117 291.450148 
L 163.202097 291.112535 
L 163.527076 290.26175 
L 163.852056 286.142871 
L 164.177035 291.66622 
L 164.502015 293.610871 
L 164.826994 291.261085 
L 165.151974 289.870119 
L 165.476953 289.897128 
L 165.801933 290.545345 
L 166.126912 289.491992 
L 166.451892 289.032839 
L 166.776871 288.978821 
L 167.101851 289.775587 
L 167.42683 287.371783 
L 167.75181 286.507493 
L 168.07679 291.720238 
L 168.401769 291.382625 
L 168.726749 291.315103 
L 169.051728 291.018003 
L 169.376708 291.355616 
L 169.701687 289.775587 
L 170.026667 288.938307 
L 170.351646 292.327942 
L 170.676626 292.098365 
L 171.001605 273.165026 
L 171.326585 292.057852 
L 171.651564 289.816101 
L 171.976544 290.423804 
L 172.301523 289.532506 
L 172.626503 289.897128 
L 172.951482 291.166553 
L 173.276462 289.532506 
L 173.601441 283.752571 
L 173.926421 292.8006 
L 174.2514 288.357613 
L 174.57638 292.922141 
L 174.90136 291.355616 
L 175.226339 292.449483 
L 175.551319 290.194228 
L 175.876298 289.383956 
L 176.201278 289.262416 
L 176.526257 288.56018 
L 176.851237 289.451479 
L 177.176216 288.681721 
L 177.501196 289.748578 
L 177.826175 290.4103 
L 178.476134 290.140209 
L 178.801114 288.897793 
L 179.451073 290.842445 
L 179.776052 284.130697 
L 180.101032 289.964651 
L 180.426011 289.343443 
L 180.750991 295.488 
L 181.40095 289.937642 
L 181.72593 289.84311 
L 182.050909 289.978155 
L 182.700868 288.654712 
L 183.350827 290.572354 
L 183.675807 289.329938 
L 184.000786 290.761417 
L 184.325766 290.909967 
L 184.650745 289.343443 
L 184.975725 289.00583 
L 185.300704 290.612868 
L 185.625684 289.789092 
L 185.950663 290.450813 
L 186.275643 289.910633 
L 186.600622 294.340116 
L 186.925602 293.016673 
L 187.250581 292.273924 
L 187.900541 292.422474 
L 188.22552 289.248911 
L 188.875479 291.409634 
L 189.200459 289.478488 
L 189.525438 288.249576 
L 189.850418 290.140209 
L 190.175397 290.329273 
L 190.500377 289.167884 
L 190.825356 290.518336 
L 191.150336 290.383291 
L 191.475315 290.018669 
L 192.125274 290.450813 
L 192.450254 289.640542 
L 192.775233 291.895797 
L 193.425192 289.897128 
L 194.075152 291.895797 
L 194.400131 290.194228 
L 194.725111 289.329938 
L 195.05009 291.072021 
L 195.37507 288.506162 
L 196.025029 290.342777 
L 196.350008 290.896463 
L 196.674988 291.09903 
L 196.999967 274.650523 
L 197.324947 280.416954 
L 197.649926 281.348766 
L 197.974906 287.034169 
L 198.299885 286.656043 
L 198.624865 245.723838 
L 198.949844 265.697025 
L 199.274824 242.806861 
L 199.599803 277.081337 
L 199.924783 278.175203 
L 200.249762 280.619522 
L 200.574742 279.512151 
L 200.899722 279.876773 
L 201.224701 279.822755 
L 201.549681 279.930791 
L 201.87466 280.173873 
L 202.19964 279.012484 
L 202.524619 280.67354 
L 202.849599 281.686379 
L 203.174578 281.119189 
L 203.499558 281.321757 
L 203.824537 286.534502 
L 204.149517 286.007826 
L 204.474496 247.330876 
L 204.799476 269.8024 
L 205.124455 277.337923 
L 205.449435 277.229887 
L 205.774414 280.146863 
L 206.099394 280.200882 
L 206.424373 278.904447 
L 206.749353 280.443963 
L 207.399312 281.848433 
L 207.724292 279.025988 
L 208.049271 280.457467 
L 208.374251 281.281243 
L 208.69923 280.295413 
L 209.349189 281.551334 
L 209.674169 287.344773 
L 209.999148 287.088188 
L 210.324128 249.869726 
L 210.649107 269.208201 
L 210.974087 277.581004 
L 211.299066 277.256896 
L 211.624046 280.011818 
L 211.949025 278.377771 
L 212.274005 280.835594 
L 212.598984 280.768071 
L 212.923964 279.498646 
L 213.248943 280.497981 
L 213.573923 279.633692 
L 213.898903 280.727558 
L 214.548862 281.564838 
L 214.873841 279.701214 
L 215.198821 279.714719 
L 215.5238 287.57435 
L 215.84878 285.373113 
L 216.173759 249.099968 
L 216.498739 269.100165 
L 216.823718 277.054328 
L 217.148698 279.147529 
L 217.473677 279.917287 
L 217.798657 285.103023 
L 218.123636 279.998314 
L 218.448616 278.850429 
L 218.773595 279.836259 
L 219.098575 281.267739 
L 219.423554 280.484476 
L 219.748534 280.038827 
L 220.073514 280.389945 
L 220.398493 281.429793 
L 220.723473 280.119854 
L 221.048452 281.699883 
L 221.373432 287.385287 
L 221.698411 285.940303 
L 222.023391 197.080551 
L 222.34837 247.64148 
L 222.67335 265.994125 
L 222.998329 277.459464 
L 223.323309 280.79508 
L 223.648288 280.862603 
L 223.973268 280.416954 
L 224.298247 278.364267 
L 224.623227 279.971305 
L 224.948206 278.931457 
L 225.273186 280.849099 
L 225.598165 281.416288 
L 225.923145 281.483811 
L 226.248124 281.686379 
L 226.573104 285.265077 
L 226.898084 286.912629 
L 227.223063 249.113473 
L 227.548043 268.181857 
L 227.873022 279.512151 
L 228.198002 276.16303 
L 228.522981 279.579674 
L 228.847961 280.187377 
L 229.17294 278.593843 
L 229.49792 279.215051 
L 229.822899 280.741062 
L 230.147879 280.67354 
L 230.472858 280.808585 
L 230.797838 279.971305 
L 231.447797 281.65937 
L 231.772776 282.253569 
L 232.097756 286.912629 
L 232.422735 285.656708 
L 232.747715 287.803927 
L 233.072695 249.167491 
L 233.722654 279.431124 
L 234.047633 279.282574 
L 234.372613 278.715384 
L 234.697592 280.416954 
L 235.022572 281.389279 
L 235.347551 279.755232 
L 235.672531 279.998314 
L 235.99751 280.457467 
L 236.32249 281.213721 
L 236.647469 279.363601 
L 236.972449 278.877438 
L 237.297428 281.173207 
L 237.622408 280.52499 
L 237.947387 282.618191 
L 238.272367 286.480484 
L 238.597346 286.115862 
L 238.922326 249.680663 
L 239.247305 268.897597 
L 239.572285 278.647862 
L 239.897265 277.310914 
L 240.222244 279.674205 
L 240.547224 280.241395 
L 240.872203 279.161033 
L 241.197183 279.674205 
L 241.522162 241.024264 
L 241.847142 279.174538 
L 242.172121 279.431124 
L 242.497101 279.863269 
L 242.82208 281.146198 
L 243.14706 280.930126 
L 243.472039 282.726227 
L 243.797019 281.281243 
L 244.121998 286.723565 
L 244.446978 287.142206 
L 244.771957 255.717184 
L 245.421916 277.851095 
L 245.746896 276.257561 
L 246.071876 280.2549 
L 246.396855 279.998314 
L 246.721835 280.173873 
L 247.046814 280.146863 
L 247.371794 281.281243 
L 247.696773 280.389945 
L 248.346732 281.254234 
L 248.671712 280.714053 
L 248.996691 281.699883 
L 249.321671 281.618856 
L 249.64665 286.493989 
L 249.97163 287.560846 
L 250.296609 285.292086 
L 250.621589 250.382898 
L 250.946568 268.208866 
L 251.271548 278.364267 
L 251.921507 280.011818 
L 252.571466 279.188042 
L 252.896446 280.876108 
L 253.221425 279.471637 
L 253.546405 280.362936 
L 254.196364 279.39061 
L 254.521343 280.862603 
L 254.846323 280.592513 
L 255.171302 280.660035 
L 255.496282 282.010487 
L 255.821261 286.439971 
L 256.146241 287.817432 
L 256.47122 250.342384 
L 256.7962 268.951615 
L 257.121179 279.53916 
L 257.446159 277.337923 
L 257.771138 279.566169 
L 258.096118 280.687044 
L 258.421097 281.011153 
L 258.746077 279.485142 
L 259.071057 279.296079 
L 259.396036 280.876108 
L 259.721016 280.957135 
L 260.045995 279.498646 
L 260.370975 279.849764 
L 260.695954 282.253569 
L 261.020934 280.187377 
L 261.345913 283.144867 
L 261.670893 287.263746 
L 261.995872 286.602025 
L 262.320852 246.65565 
L 262.645831 269.019138 
L 262.970811 278.877438 
L 263.29579 278.175203 
L 263.62077 280.916621 
L 263.945749 278.728889 
L 264.270729 279.012484 
L 264.595708 280.349431 
L 264.920688 279.876773 
L 265.245667 280.092845 
L 265.570647 279.485142 
L 265.895627 281.524325 
L 266.220606 280.187377 
L 266.545586 282.240064 
L 266.870565 280.308918 
L 267.195545 281.09218 
L 267.520524 286.602025 
L 267.845504 285.940303 
L 268.170483 250.544952 
L 268.495463 269.302733 
L 268.820442 279.444628 
L 269.145422 277.391941 
L 269.470401 279.350097 
L 269.795381 280.470972 
L 270.12036 279.822755 
L 270.44534 279.620187 
L 270.770319 279.161033 
L 271.095299 280.916621 
L 271.745258 279.755232 
L 272.070238 280.227891 
L 272.395217 282.240064 
L 272.720197 281.524325 
L 273.045176 282.456137 
L 273.370156 285.251573 
L 273.695135 286.858611 
L 274.020115 251.220178 
L 274.345094 269.38376 
L 274.670074 277.702545 
L 274.995053 277.486473 
L 275.320033 280.79508 
L 275.645012 280.268404 
L 275.969992 279.201547 
L 276.294971 279.458133 
L 276.619951 280.592513 
L 276.94493 278.985475 
L 277.26991 279.471637 
L 277.594889 280.227891 
L 277.919869 280.160368 
L 278.244848 280.2549 
L 278.569828 281.51082 
L 278.894808 281.983478 
L 279.219787 287.344773 
L 279.544767 286.115862 
L 279.869746 251.301205 
L 280.194726 268.978624 
L 280.519705 241.388886 
L 280.844685 265.845575 
L 281.169664 276.919283 
L 281.819623 280.025323 
L 282.144603 280.565504 
L 282.469582 280.2549 
L 282.794562 261.578146 
L 283.119541 279.255565 
L 283.444521 281.308252 
L 283.7695 280.714053 
L 284.09448 286.73707 
L 284.419459 286.412961 
L 284.744439 250.423411 
L 285.394398 287.290755 
L 285.719378 291.598698 
L 286.044357 289.086857 
L 286.694316 291.585193 
L 287.019296 291.477157 
L 287.669255 289.046343 
L 287.994234 289.519001 
L 288.319214 290.437309 
L 288.644193 289.046343 
L 288.969173 288.519667 
L 289.619132 290.747913 
L 289.944111 290.072687 
L 290.269091 289.924137 
L 290.59407 265.967116 
L 290.91905 268.39793 
L 291.244029 268.938111 
L 291.569009 274.73155 
L 291.893989 277.337923 
L 292.218968 278.863934 
L 292.543948 278.904447 
L 292.868927 279.485142 
L 293.193907 279.512151 
L 293.518886 280.781576 
L 293.843866 280.214386 
L 294.168845 280.768071 
L 294.493825 280.308918 
L 294.818804 281.132694 
L 295.143784 278.607348 
L 295.468763 280.984144 
L 295.793743 281.470307 
L 296.118722 286.210394 
L 296.443702 285.373113 
L 296.768681 246.142478 
L 297.093661 268.884092 
L 297.41864 279.242061 
L 297.74362 277.648527 
L 298.0686 281.159703 
L 298.393579 280.416954 
L 298.718559 278.998979 
L 299.043538 280.79508 
L 299.368518 279.728223 
L 299.693497 279.849764 
L 300.018477 279.620187 
L 300.343456 280.187377 
L 300.668436 281.078675 
L 300.993415 282.402119 
L 301.318395 282.3481 
L 301.643374 281.564838 
L 301.968354 285.832267 
L 302.293333 286.507493 
L 302.618313 250.274862 
L 302.943292 267.749713 
L 303.268272 278.688375 
L 303.593251 278.310249 
L 303.918231 277.729554 
L 304.24321 279.755232 
L 304.56819 279.984809 
L 304.89317 279.039493 
L 305.218149 281.375775 
L 305.543129 280.416954 
L 306.193088 280.579008 
L 306.518067 280.714053 
L 306.843047 281.119189 
L 307.168026 280.82209 
L 307.493006 281.578343 
L 307.817985 287.87145 
L 308.142965 287.398792 
L 308.467944 251.098637 
L 308.792924 267.493127 
L 309.117903 278.148194 
L 309.442883 277.729554 
L 309.767862 281.456802 
L 310.092842 280.916621 
L 310.417821 279.701214 
L 310.742801 279.498646 
L 311.067781 280.808585 
L 311.39276 280.457467 
L 311.71774 280.457467 
L 312.042719 281.281243 
L 312.367699 279.552665 
L 313.017658 283.333931 
L 313.342637 282.604686 
L 313.667617 285.643204 
L 313.992596 286.872115 
L 314.317576 247.236344 
L 314.642555 268.911101 
L 314.967535 279.282574 
L 315.292514 276.446625 
L 315.942473 280.497981 
L 316.267453 279.53916 
L 316.592432 279.201547 
L 316.917412 281.132694 
L 317.892351 279.039493 
L 318.21733 280.970639 
L 318.54231 280.37644 
L 319.192269 282.3481 
L 319.517248 285.062509 
L 319.842228 286.615529 
L 320.167207 250.504439 
L 320.492187 269.275724 
L 320.817166 277.878104 
L 321.142146 278.958466 
L 321.467125 280.727558 
L 321.792105 280.984144 
L 322.117084 279.39061 
L 322.767043 280.457467 
L 323.092023 279.134024 
L 323.417002 280.457467 
L 323.741982 280.660035 
L 324.066962 279.350097 
L 324.391941 281.416288 
L 325.0419 282.402119 
L 325.36688 286.777584 
L 325.691859 286.291421 
L 326.016839 251.301205 
L 326.341818 269.356751 
L 326.666798 277.297409 
L 326.991777 278.013149 
L 327.316757 280.187377 
L 327.641736 280.187377 
L 327.966716 278.094176 
L 328.616675 280.984144 
L 328.941654 276.325084 
L 329.591613 280.214386 
L 329.916593 279.755232 
L 330.241572 281.537829 
L 330.566552 279.593178 
L 330.891532 281.038162 
L 331.216511 286.115862 
L 331.541491 286.331934 
L 331.86647 247.07429 
L 332.19145 268.66802 
L 332.516429 278.13469 
L 332.841409 279.174538 
L 333.166388 279.12052 
L 333.491368 279.633692 
L 333.816347 280.835594 
L 334.141327 280.633026 
L 334.466306 278.620853 
L 334.791286 280.551999 
L 335.116265 278.512816 
L 335.441245 280.065836 
L 335.766224 280.579008 
L 336.091204 281.497316 
L 336.416183 280.295413 
L 336.741163 286.277916 
L 337.066143 287.263746 
L 337.391122 287.682387 
L 337.716102 248.748851 
L 338.041081 269.856418 
L 338.366061 278.242726 
L 338.69104 277.391941 
L 339.01602 280.741062 
L 339.340999 280.862603 
L 339.665979 281.105684 
L 339.990958 279.012484 
L 340.315938 280.52499 
L 340.640917 280.160368 
L 340.965897 280.187377 
L 341.290876 280.633026 
L 341.615856 278.040158 
L 341.940835 281.024657 
L 342.265815 280.619522 
L 342.590794 281.227225 
L 342.915774 287.223233 
L 343.240753 286.993656 
L 343.565733 250.004771 
L 343.890713 267.304063 
L 344.215692 278.580339 
L 344.865651 280.646531 
L 345.190631 279.025988 
L 345.51561 280.754567 
L 345.84059 280.808585 
L 346.165569 280.565504 
L 346.490549 279.579674 
L 346.815528 280.241395 
L 347.140508 279.782241 
L 347.465487 280.079341 
L 347.790467 278.998979 
L 348.115446 282.22656 
L 348.440426 281.65937 
L 348.765405 286.007826 
L 349.090385 287.074683 
L 349.415364 251.73335 
L 349.740344 269.721373 
L 350.065324 279.309583 
L 350.390303 277.635022 
L 350.715283 280.065836 
L 351.040262 279.768737 
L 351.365242 281.011153 
L 351.690221 281.267739 
L 352.015201 279.620187 
L 352.34018 280.660035 
L 352.990139 279.458133 
L 353.315119 281.119189 
L 353.640098 281.92946 
L 353.965078 280.187377 
L 354.290057 286.534502 
L 354.615037 287.385287 
L 354.940016 287.749909 
L 355.264996 248.964923 
L 355.589975 269.464787 
L 355.914955 279.215051 
L 356.239934 277.472968 
L 356.564914 281.308252 
L 356.889894 280.389945 
L 357.214873 280.227891 
L 357.539853 280.808585 
L 358.189812 278.796411 
L 358.514791 281.402784 
L 358.839771 281.335261 
L 359.16475 280.79508 
L 359.48973 281.767406 
L 359.814709 279.188042 
L 360.464668 286.845106 
L 360.789648 285.805258 
L 361.114627 250.193835 
L 361.439607 268.573488 
L 361.764586 242.037103 
L 362.089566 277.108346 
L 362.414545 276.730219 
L 362.739525 280.741062 
L 363.064505 279.984809 
L 363.389484 278.769402 
L 363.714464 281.564838 
L 364.039443 281.65937 
L 364.364423 278.998979 
L 364.689402 280.241395 
L 365.014382 279.498646 
L 365.339361 278.472303 
L 365.664341 282.604686 
L 365.98932 281.402784 
L 366.3143 286.777584 
L 366.639279 286.845106 
L 366.964259 247.709003 
L 367.289238 269.194696 
L 367.614218 279.930791 
L 367.939197 279.174538 
L 368.264177 279.444628 
L 368.589156 280.619522 
L 368.914136 281.186712 
L 369.239115 280.362936 
L 369.564095 280.538495 
L 369.889075 279.066502 
L 370.214054 281.537829 
L 370.539034 281.173207 
L 370.864013 279.876773 
L 371.188993 281.80792 
L 371.513972 281.564838 
L 371.838952 282.064506 
L 372.163931 285.886285 
L 372.488911 287.00716 
L 372.81389 250.247853 
L 373.463849 280.146863 
L 373.788829 278.715384 
L 374.113808 279.296079 
L 374.438788 280.349431 
L 375.088747 279.647196 
L 375.413726 280.241395 
L 375.738706 280.052332 
L 376.063686 279.68771 
L 376.388665 281.443298 
L 376.713645 281.483811 
L 377.038624 281.254234 
L 377.363604 280.741062 
L 377.688583 282.807254 
L 378.013563 287.412296 
L 378.338542 288.006495 
L 378.663522 249.694167 
L 378.988501 269.613337 
L 379.313481 277.689041 
L 379.63846 277.608013 
L 379.96344 280.700549 
L 380.288419 278.836925 
L 380.613399 278.620853 
L 380.938378 280.389945 
L 381.263358 279.26907 
L 381.913317 280.714053 
L 382.238296 278.904447 
L 382.563276 280.308918 
L 382.888256 282.834263 
L 383.213235 281.92946 
L 383.538215 281.740397 
L 383.863194 286.818097 
L 384.188174 285.45414 
L 384.513153 255.865734 
L 384.838133 270.680194 
L 385.163112 279.890278 
L 385.488092 279.228556 
L 385.813071 280.133359 
L 386.138051 280.443963 
L 386.46303 280.335927 
L 386.78801 279.579674 
L 387.112989 280.660035 
L 387.437969 280.52499 
L 387.762948 280.200882 
L 388.087928 281.996983 
L 388.412907 281.227225 
L 388.737887 281.996983 
L 389.062867 281.780911 
L 389.387846 280.187377 
L 389.712826 287.398792 
L 390.037805 288.182054 
L 390.362785 253.421415 
L 390.687764 269.221705 
L 391.012744 276.946292 
L 391.337723 279.876773 
L 391.662703 281.740397 
L 391.987682 280.349431 
L 392.312662 280.579008 
L 392.637641 281.146198 
L 392.962621 279.174538 
L 393.2876 281.024657 
L 393.61258 281.186712 
L 393.937559 280.038827 
L 394.262539 281.564838 
L 394.912498 281.902451 
L 395.237477 280.362936 
L 395.562457 287.884954 
L 395.887437 287.952477 
L 396.212416 252.30054 
L 396.537396 270.450617 
L 396.862375 279.525655 
L 397.187355 278.445294 
L 397.512334 280.119854 
L 397.837314 280.687044 
L 398.162293 279.147529 
L 398.487273 281.200216 
L 398.487273 281.200216 
" clip-path="url(#pa3f30c6fe5)" style="fill: none; stroke: #1f77b4; stroke-width: 1.5; stroke-linecap: square"/>
   </g>
   <g id="patch_3">
    <path d="M 57.6 307.584 
L 57.6 41.472 
" style="fill: none; stroke: #000000; stroke-width: 0.8; stroke-linejoin: miter; stroke-linecap: square"/>
   </g>
   <g id="patch_4">
    <path d="M 414.72 307.584 
L 414.72 41.472 
" style="fill: none; stroke: #000000; stroke-width: 0.8; stroke-linejoin: miter; stroke-linecap: square"/>
   </g>
   <g id="patch_5">
    <path d="M 57.6 307.584 
L 414.72 307.584 
" style="fill: none; stroke: #000000; stroke-width: 0.8; stroke-linejoin: miter; stroke-linecap: square"/>
   </g>
   <g id="patch_6">
    <path d="M 57.6 41.472 
L 414.72 41.472 
" style="fill: none; stroke: #000000; stroke-width: 0.8; stroke-linejoin: miter; stroke-linecap: square"/>
   </g>
   <g id="text_18">
    <!-- Scheduling latency vs. time for: /home/thomas/Desktop/ros2_pendulum_benchmark//2022-08-08_15:56:34/demo/3_stress/fifo/results.csv -->
    <g transform="translate(-176.30625 35.472)scale(0.12 -0.12)">
     <defs>
      <path id="DejaVuSans-53" d="M 3425 4513 
L 3425 3897 
Q 3066 4069 2747 4153 
Q 2428 4238 2131 4238 
Q 1616 4238 1336 4038 
Q 1056 3838 1056 3469 
Q 1056 3159 1242 3001 
Q 1428 2844 1947 2747 
L 2328 2669 
Q 3034 2534 3370 2195 
Q 3706 1856 3706 1288 
Q 3706 609 3251 259 
Q 2797 -91 1919 -91 
Q 1588 -91 1214 -16 
Q 841 59 441 206 
L 441 856 
Q 825 641 1194 531 
Q 1563 422 1919 422 
Q 2459 422 2753 634 
Q 3047 847 3047 1241 
Q 3047 1584 2836 1778 
Q 2625 1972 2144 2069 
L 1759 2144 
Q 1053 2284 737 2584 
Q 422 2884 422 3419 
Q 422 4038 858 4394 
Q 1294 4750 2059 4750 
Q 2388 4750 2728 4690 
Q 3069 4631 3425 4513 
z
" transform="scale(0.015625)"/>
      <path id="DejaVuSans-68" d="M 3513 2113 
L 3513 0 
L 2938 0 
L 2938 2094 
Q 2938 2591 2744 2837 
Q 2550 3084 2163 3084 
Q 1697 3084 1428 2787 
Q 1159 2491 1159 1978 
L 1159 0 
L 581 0 
L 581 4863 
L 1159 4863 
L 1159 2956 
Q 1366 3272 1645 3428 
Q 1925 3584 2291 3584 
Q 2894 3584 3203 3211 
Q 3513 2838 3513 2113 
z
" transform="scale(0.015625)"/>
      <path id="DejaVuSans-64" d="M 2906 2969 
L 2906 4863 
L 3481 4863 
L 3481 0 
L 2906 0 
L 2906 525 
Q 2725 213 2448 61 
Q 2172 -91 1784 -91 
Q 1150 -91 751 415 
Q 353 922 353 1747 
Q 353 2572 751 3078 
Q 1150 3584 1784 3584 
Q 2172 3584 2448 3432 
Q 2725 3281 2906 2969 
z
M 947 1747 
Q 947 1113 1208 752 
Q 1469 391 1925 391 
Q 2381 391 2643 752 
Q 2906 1113 2906 1747 
Q 2906 2381 2643 2742 
Q 2381 3103 1925 3103 
Q 1469 3103 1208 2742 
Q 947 2381 947 1747 
z
" transform="scale(0.015625)"/>
      <path id="DejaVuSans-75" d="M 544 1381 
L 544 3500 
L 1119 3500 
L 1119 1403 
Q 1119 906 1312 657 
Q 1506 409 1894 409 
Q 2359 409 2629 706 
Q 2900 1003 2900 1516 
L 2900 3500 
L 3475 3500 
L 3475 0 
L 2900 0 
L 2900 538 
Q 2691 219 2414 64 
Q 2138 -91 1772 -91 
Q 1169 -91 856 284 
Q 544 659 544 1381 
z
M 1991 3584 
L 1991 3584 
z
" transform="scale(0.015625)"/>
      <path id="DejaVuSans-6c" d="M 603 4863 
L 1178 4863 
L 1178 0 
L 603 0 
L 603 4863 
z
" transform="scale(0.015625)"/>
      <path id="DejaVuSans-67" d="M 2906 1791 
Q 2906 2416 2648 2759 
Q 2391 3103 1925 3103 
Q 1463 3103 1205 2759 
Q 947 2416 947 1791 
Q 947 1169 1205 825 
Q 1463 481 1925 481 
Q 2391 481 2648 825 
Q 2906 1169 2906 1791 
z
M 3481 434 
Q 3481 -459 3084 -895 
Q 2688 -1331 1869 -1331 
Q 1566 -1331 1297 -1286 
Q 1028 -1241 775 -1147 
L 775 -588 
Q 1028 -725 1275 -790 
Q 1522 -856 1778 -856 
Q 2344 -856 2625 -561 
Q 2906 -266 2906 331 
L 2906 616 
Q 2728 306 2450 153 
Q 2172 0 1784 0 
Q 1141 0 747 490 
Q 353 981 353 1791 
Q 353 2603 747 3093 
Q 1141 3584 1784 3584 
Q 2172 3584 2450 3431 
Q 2728 3278 2906 2969 
L 2906 3500 
L 3481 3500 
L 3481 434 
z
" transform="scale(0.015625)"/>
      <path id="DejaVuSans-76" d="M 191 3500 
L 800 3500 
L 1894 563 
L 2988 3500 
L 3597 3500 
L 2284 0 
L 1503 0 
L 191 3500 
z
" transform="scale(0.015625)"/>
      <path id="DejaVuSans-66" d="M 2375 4863 
L 2375 4384 
L 1825 4384 
Q 1516 4384 1395 4259 
Q 1275 4134 1275 3809 
L 1275 3500 
L 2222 3500 
L 2222 3053 
L 1275 3053 
L 1275 0 
L 697 0 
L 697 3053 
L 147 3053 
L 147 3500 
L 697 3500 
L 697 3744 
Q 697 4328 969 4595 
Q 1241 4863 1831 4863 
L 2375 4863 
z
" transform="scale(0.015625)"/>
      <path id="DejaVuSans-6f" d="M 1959 3097 
Q 1497 3097 1228 2736 
Q 959 2375 959 1747 
Q 959 1119 1226 758 
Q 1494 397 1959 397 
Q 2419 397 2687 759 
Q 2956 1122 2956 1747 
Q 2956 2369 2687 2733 
Q 2419 3097 1959 3097 
z
M 1959 3584 
Q 2709 3584 3137 3096 
Q 3566 2609 3566 1747 
Q 3566 888 3137 398 
Q 2709 -91 1959 -91 
Q 1206 -91 779 398 
Q 353 888 353 1747 
Q 353 2609 779 3096 
Q 1206 3584 1959 3584 
z
" transform="scale(0.015625)"/>
      <path id="DejaVuSans-72" d="M 2631 2963 
Q 2534 3019 2420 3045 
Q 2306 3072 2169 3072 
Q 1681 3072 1420 2755 
Q 1159 2438 1159 1844 
L 1159 0 
L 581 0 
L 581 3500 
L 1159 3500 
L 1159 2956 
Q 1341 3275 1631 3429 
Q 1922 3584 2338 3584 
Q 2397 3584 2469 3576 
Q 2541 3569 2628 3553 
L 2631 2963 
z
" transform="scale(0.015625)"/>
      <path id="DejaVuSans-3a" d="M 750 794 
L 1409 794 
L 1409 0 
L 750 0 
L 750 794 
z
M 750 3309 
L 1409 3309 
L 1409 2516 
L 750 2516 
L 750 3309 
z
" transform="scale(0.015625)"/>
      <path id="DejaVuSans-2f" d="M 1625 4666 
L 2156 4666 
L 531 -594 
L 0 -594 
L 1625 4666 
z
" transform="scale(0.015625)"/>
      <path id="DejaVuSans-44" d="M 1259 4147 
L 1259 519 
L 2022 519 
Q 2988 519 3436 956 
Q 3884 1394 3884 2338 
Q 3884 3275 3436 3711 
Q 2988 4147 2022 4147 
L 1259 4147 
z
M 628 4666 
L 1925 4666 
Q 3281 4666 3915 4102 
Q 4550 3538 4550 2338 
Q 4550 1131 3912 565 
Q 3275 0 1925 0 
L 628 0 
L 628 4666 
z
" transform="scale(0.015625)"/>
      <path id="DejaVuSans-6b" d="M 581 4863 
L 1159 4863 
L 1159 1991 
L 2875 3500 
L 3609 3500 
L 1753 1863 
L 3688 0 
L 2938 0 
L 1159 1709 
L 1159 0 
L 581 0 
L 581 4863 
z
" transform="scale(0.015625)"/>
      <path id="DejaVuSans-70" d="M 1159 525 
L 1159 -1331 
L 581 -1331 
L 581 3500 
L 1159 3500 
L 1159 2969 
Q 1341 3281 1617 3432 
Q 1894 3584 2278 3584 
Q 2916 3584 3314 3078 
Q 3713 2572 3713 1747 
Q 3713 922 3314 415 
Q 2916 -91 2278 -91 
Q 1894 -91 1617 61 
Q 1341 213 1159 525 
z
M 3116 1747 
Q 3116 2381 2855 2742 
Q 2594 3103 2138 3103 
Q 1681 3103 1420 2742 
Q 1159 2381 1159 1747 
Q 1159 1113 1420 752 
Q 1681 391 2138 391 
Q 2594 391 2855 752 
Q 3116 1113 3116 1747 
z
" transform="scale(0.015625)"/>
      <path id="DejaVuSans-5f" d="M 3263 -1063 
L 3263 -1509 
L -63 -1509 
L -63 -1063 
L 3263 -1063 
z
" transform="scale(0.015625)"/>
      <path id="DejaVuSans-62" d="M 3116 1747 
Q 3116 2381 2855 2742 
Q 2594 3103 2138 3103 
Q 1681 3103 1420 2742 
Q 1159 2381 1159 1747 
Q 1159 1113 1420 752 
Q 1681 391 2138 391 
Q 2594 391 2855 752 
Q 3116 1113 3116 1747 
z
M 1159 2969 
Q 1341 3281 1617 3432 
Q 1894 3584 2278 3584 
Q 2916 3584 3314 3078 
Q 3713 2572 3713 1747 
Q 3713 922 3314 415 
Q 2916 -91 2278 -91 
Q 1894 -91 1617 61 
Q 1341 213 1159 525 
L 1159 0 
L 581 0 
L 581 4863 
L 1159 4863 
L 1159 2969 
z
" transform="scale(0.015625)"/>
      <path id="DejaVuSans-2d" d="M 313 2009 
L 1997 2009 
L 1997 1497 
L 313 1497 
L 313 2009 
z
" transform="scale(0.015625)"/>
      <path id="DejaVuSans-33" d="M 2597 2516 
Q 3050 2419 3304 2112 
Q 3559 1806 3559 1356 
Q 3559 666 3084 287 
Q 2609 -91 1734 -91 
Q 1441 -91 1130 -33 
Q 819 25 488 141 
L 488 750 
Q 750 597 1062 519 
Q 1375 441 1716 441 
Q 2309 441 2620 675 
Q 2931 909 2931 1356 
Q 2931 1769 2642 2001 
Q 2353 2234 1838 2234 
L 1294 2234 
L 1294 2753 
L 1863 2753 
Q 2328 2753 2575 2939 
Q 2822 3125 2822 3475 
Q 2822 3834 2567 4026 
Q 2313 4219 1838 4219 
Q 1578 4219 1281 4162 
Q 984 4106 628 3988 
L 628 4550 
Q 988 4650 1302 4700 
Q 1616 4750 1894 4750 
Q 2613 4750 3031 4423 
Q 3450 4097 3450 3541 
Q 3450 3153 3228 2886 
Q 3006 2619 2597 2516 
z
" transform="scale(0.015625)"/>
     </defs>
     <use xlink:href="#DejaVuSans-53"/>
     <use xlink:href="#DejaVuSans-63" x="63.476562"/>
     <use xlink:href="#DejaVuSans-68" x="118.457031"/>
     <use xlink:href="#DejaVuSans-65" x="181.835938"/>
     <use xlink:href="#DejaVuSans-64" x="243.359375"/>
     <use xlink:href="#DejaVuSans-75" x="306.835938"/>
     <use xlink:href="#DejaVuSans-6c" x="370.214844"/>
     <use xlink:href="#DejaVuSans-69" x="397.998047"/>
     <use xlink:href="#DejaVuSans-6e" x="425.78125"/>
     <use xlink:href="#DejaVuSans-67" x="489.160156"/>
     <use xlink:href="#DejaVuSans-20" x="552.636719"/>
     <use xlink:href="#DejaVuSans-6c" x="584.423828"/>
     <use xlink:href="#DejaVuSans-61" x="612.207031"/>
     <use xlink:href="#DejaVuSans-74" x="673.486328"/>
     <use xlink:href="#DejaVuSans-65" x="712.695312"/>
     <use xlink:href="#DejaVuSans-6e" x="774.21875"/>
     <use xlink:href="#DejaVuSans-63" x="837.597656"/>
     <use xlink:href="#DejaVuSans-79" x="892.578125"/>
     <use xlink:href="#DejaVuSans-20" x="951.757812"/>
     <use xlink:href="#DejaVuSans-76" x="983.544922"/>
     <use xlink:href="#DejaVuSans-73" x="1042.724609"/>
     <use xlink:href="#DejaVuSans-2e" x="1094.824219"/>
     <use xlink:href="#DejaVuSans-20" x="1126.611328"/>
     <use xlink:href="#DejaVuSans-74" x="1158.398438"/>
     <use xlink:href="#DejaVuSans-69" x="1197.607422"/>
     <use xlink:href="#DejaVuSans-6d" x="1225.390625"/>
     <use xlink:href="#DejaVuSans-65" x="1322.802734"/>
     <use xlink:href="#DejaVuSans-20" x="1384.326172"/>
     <use xlink:href="#DejaVuSans-66" x="1416.113281"/>
     <use xlink:href="#DejaVuSans-6f" x="1451.318359"/>
     <use xlink:href="#DejaVuSans-72" x="1512.5"/>
     <use xlink:href="#DejaVuSans-3a" x="1551.863281"/>
     <use xlink:href="#DejaVuSans-20" x="1585.554688"/>
     <use xlink:href="#DejaVuSans-2f" x="1617.341797"/>
     <use xlink:href="#DejaVuSans-68" x="1651.033203"/>
     <use xlink:href="#DejaVuSans-6f" x="1714.412109"/>
     <use xlink:href="#DejaVuSans-6d" x="1775.59375"/>
     <use xlink:href="#DejaVuSans-65" x="1873.005859"/>
     <use xlink:href="#DejaVuSans-2f" x="1934.529297"/>
     <use xlink:href="#DejaVuSans-74" x="1968.220703"/>
     <use xlink:href="#DejaVuSans-68" x="2007.429688"/>
     <use xlink:href="#DejaVuSans-6f" x="2070.808594"/>
     <use xlink:href="#DejaVuSans-6d" x="2131.990234"/>
     <use xlink:href="#DejaVuSans-61" x="2229.402344"/>
     <use xlink:href="#DejaVuSans-73" x="2290.681641"/>
     <use xlink:href="#DejaVuSans-2f" x="2342.78125"/>
     <use xlink:href="#DejaVuSans-44" x="2376.472656"/>
     <use xlink:href="#DejaVuSans-65" x="2453.474609"/>
     <use xlink:href="#DejaVuSans-73" x="2514.998047"/>
     <use xlink:href="#DejaVuSans-6b" x="2567.097656"/>
     <use xlink:href="#DejaVuSans-74" x="2625.007812"/>
     <use xlink:href="#DejaVuSans-6f" x="2664.216797"/>
     <use xlink:href="#DejaVuSans-70" x="2725.398438"/>
     <use xlink:href="#DejaVuSans-2f" x="2788.875"/>
     <use xlink:href="#DejaVuSans-72" x="2822.566406"/>
     <use xlink:href="#DejaVuSans-6f" x="2861.429688"/>
     <use xlink:href="#DejaVuSans-73" x="2922.611328"/>
     <use xlink:href="#DejaVuSans-32" x="2974.710938"/>
     <use xlink:href="#DejaVuSans-5f" x="3038.333984"/>
     <use xlink:href="#DejaVuSans-70" x="3088.333984"/>
     <use xlink:href="#DejaVuSans-65" x="3151.810547"/>
     <use xlink:href="#DejaVuSans-6e" x="3213.333984"/>
     <use xlink:href="#DejaVuSans-64" x="3276.712891"/>
     <use xlink:href="#DejaVuSans-75" x="3340.189453"/>
     <use xlink:href="#DejaVuSans-6c" x="3403.568359"/>
     <use xlink:href="#DejaVuSans-75" x="3431.351562"/>
     <use xlink:href="#DejaVuSans-6d" x="3494.730469"/>
     <use xlink:href="#DejaVuSans-5f" x="3592.142578"/>
     <use xlink:href="#DejaVuSans-62" x="3642.142578"/>
     <use xlink:href="#DejaVuSans-65" x="3705.619141"/>
     <use xlink:href="#DejaVuSans-6e" x="3767.142578"/>
     <use xlink:href="#DejaVuSans-63" x="3830.521484"/>
     <use xlink:href="#DejaVuSans-68" x="3885.501953"/>
     <use xlink:href="#DejaVuSans-6d" x="3948.880859"/>
     <use xlink:href="#DejaVuSans-61" x="4046.292969"/>
     <use xlink:href="#DejaVuSans-72" x="4107.572266"/>
     <use xlink:href="#DejaVuSans-6b" x="4148.685547"/>
     <use xlink:href="#DejaVuSans-2f" x="4206.595703"/>
     <use xlink:href="#DejaVuSans-2f" x="4240.287109"/>
     <use xlink:href="#DejaVuSans-32" x="4273.978516"/>
     <use xlink:href="#DejaVuSans-30" x="4337.601562"/>
     <use xlink:href="#DejaVuSans-32" x="4401.224609"/>
     <use xlink:href="#DejaVuSans-32" x="4464.847656"/>
     <use xlink:href="#DejaVuSans-2d" x="4528.470703"/>
     <use xlink:href="#DejaVuSans-30" x="4564.554688"/>
     <use xlink:href="#DejaVuSans-38" x="4628.177734"/>
     <use xlink:href="#DejaVuSans-2d" x="4691.800781"/>
     <use xlink:href="#DejaVuSans-30" x="4727.884766"/>
     <use xlink:href="#DejaVuSans-38" x="4791.507812"/>
     <use xlink:href="#DejaVuSans-5f" x="4855.130859"/>
     <use xlink:href="#DejaVuSans-31" x="4905.130859"/>
     <use xlink:href="#DejaVuSans-35" x="4968.753906"/>
     <use xlink:href="#DejaVuSans-3a" x="5032.376953"/>
     <use xlink:href="#DejaVuSans-35" x="5066.068359"/>
     <use xlink:href="#DejaVuSans-36" x="5129.691406"/>
     <use xlink:href="#DejaVuSans-3a" x="5193.314453"/>
     <use xlink:href="#DejaVuSans-33" x="5227.005859"/>
     <use xlink:href="#DejaVuSans-34" x="5290.628906"/>
     <use xlink:href="#DejaVuSans-2f" x="5354.251953"/>
     <use xlink:href="#DejaVuSans-64" x="5387.943359"/>
     <use xlink:href="#DejaVuSans-65" x="5451.419922"/>
     <use xlink:href="#DejaVuSans-6d" x="5512.943359"/>
     <use xlink:href="#DejaVuSans-6f" x="5610.355469"/>
     <use xlink:href="#DejaVuSans-2f" x="5671.537109"/>
     <use xlink:href="#DejaVuSans-33" x="5705.228516"/>
     <use xlink:href="#DejaVuSans-5f" x="5768.851562"/>
     <use xlink:href="#DejaVuSans-73" x="5818.851562"/>
     <use xlink:href="#DejaVuSans-74" x="5870.951172"/>
     <use xlink:href="#DejaVuSans-72" x="5910.160156"/>
     <use xlink:href="#DejaVuSans-65" x="5949.023438"/>
     <use xlink:href="#DejaVuSans-73" x="6010.546875"/>
     <use xlink:href="#DejaVuSans-73" x="6062.646484"/>
     <use xlink:href="#DejaVuSans-2f" x="6114.746094"/>
     <use xlink:href="#DejaVuSans-66" x="6148.4375"/>
     <use xlink:href="#DejaVuSans-69" x="6183.642578"/>
     <use xlink:href="#DejaVuSans-66" x="6211.425781"/>
     <use xlink:href="#DejaVuSans-6f" x="6246.630859"/>
     <use xlink:href="#DejaVuSans-2f" x="6307.8125"/>
     <use xlink:href="#DejaVuSans-72" x="6341.503906"/>
     <use xlink:href="#DejaVuSans-65" x="6380.367188"/>
     <use xlink:href="#DejaVuSans-73" x="6441.890625"/>
     <use xlink:href="#DejaVuSans-75" x="6493.990234"/>
     <use xlink:href="#DejaVuSans-6c" x="6557.369141"/>
     <use xlink:href="#DejaVuSans-74" x="6585.152344"/>
     <use xlink:href="#DejaVuSans-73" x="6624.361328"/>
     <use xlink:href="#DejaVuSans-2e" x="6676.460938"/>
     <use xlink:href="#DejaVuSans-63" x="6708.248047"/>
     <use xlink:href="#DejaVuSans-73" x="6763.228516"/>
     <use xlink:href="#DejaVuSans-76" x="6815.328125"/>
    </g>
   </g>
  </g>
 </g>
 <defs>
  <clipPath id="pa3f30c6fe5">
   <rect x="57.6" y="41.472" width="357.12" height="266.112"/>
  </clipPath>
 </defs>
</svg>
