<?xml version="1.0" encoding="utf-8" standalone="no"?>
<!DOCTYPE svg PUBLIC "-//W3C//DTD SVG 1.1//EN"
  "http://www.w3.org/Graphics/SVG/1.1/DTD/svg11.dtd">
<svg xmlns:xlink="http://www.w3.org/1999/xlink" width="460.8pt" height="345.6pt" viewBox="0 0 460.8 345.6" xmlns="http://www.w3.org/2000/svg" version="1.1">
 <metadata>
  <rdf:RDF xmlns:dc="http://purl.org/dc/elements/1.1/" xmlns:cc="http://creativecommons.org/ns#" xmlns:rdf="http://www.w3.org/1999/02/22-rdf-syntax-ns#">
   <cc:Work>
    <dc:type rdf:resource="http://purl.org/dc/dcmitype/StillImage"/>
    <dc:date>2022-08-08T16:39:32.694996</dc:date>
    <dc:format>image/svg+xml</dc:format>
    <dc:creator>
     <cc:Agent>
      <dc:title>Matplotlib v3.5.1, https://matplotlib.org/</dc:title>
     </cc:Agent>
    </dc:creator>
   </cc:Work>
  </rdf:RDF>
 </metadata>
 <defs>
  <style type="text/css">*{stroke-linejoin: round; stroke-linecap: butt}</style>
 </defs>
 <g id="figure_1">
  <g id="patch_1">
   <path d="M 0 345.6 
L 460.8 345.6 
L 460.8 0 
L 0 0 
z
" style="fill: #ffffff"/>
  </g>
  <g id="axes_1">
   <g id="patch_2">
    <path d="M 57.6 307.584 
L 414.72 307.584 
L 414.72 41.472 
L 57.6 41.472 
z
" style="fill: #ffffff"/>
   </g>
   <g id="patch_3">
    <path d="M 73.832727 91676.297929 
L 77.079273 91676.297929 
L 77.079273 54.83952 
L 73.832727 54.83952 
z
" clip-path="url(#p3e41c9cb73)" style="fill: #1f77b4"/>
   </g>
   <g id="patch_4">
    <path d="M 77.079273 91676.297929 
L 80.325818 91676.297929 
L 80.325818 53.568 
L 77.079273 53.568 
z
" clip-path="url(#p3e41c9cb73)" style="fill: #1f77b4"/>
   </g>
   <g id="patch_5">
    <path d="M 80.325818 91676.297929 
L 83.572364 91676.297929 
L 83.572364 109.67209 
L 80.325818 109.67209 
z
" clip-path="url(#p3e41c9cb73)" style="fill: #1f77b4"/>
   </g>
   <g id="patch_6">
    <path d="M 83.572364 91676.297929 
L 86.818909 91676.297929 
L 86.818909 193.694954 
L 83.572364 193.694954 
z
" clip-path="url(#p3e41c9cb73)" style="fill: #1f77b4"/>
   </g>
   <g id="patch_7">
    <path d="M 86.818909 91676.297929 
L 90.065455 91676.297929 
L 90.065455 267.979635 
L 86.818909 267.979635 
z
" clip-path="url(#p3e41c9cb73)" style="fill: #1f77b4"/>
   </g>
   <g id="patch_8">
    <path d="M 90.065455 91676.297929 
L 93.312 91676.297929 
L 93.312 91676.297929 
L 90.065455 91676.297929 
z
" clip-path="url(#p3e41c9cb73)" style="fill: #1f77b4"/>
   </g>
   <g id="patch_9">
    <path d="M 93.312 91676.297929 
L 96.558545 91676.297929 
L 96.558545 91676.297929 
L 93.312 91676.297929 
z
" clip-path="url(#p3e41c9cb73)" style="fill: #1f77b4"/>
   </g>
   <g id="patch_10">
    <path d="M 96.558545 91676.297929 
L 99.805091 91676.297929 
L 99.805091 295.488 
L 96.558545 295.488 
z
" clip-path="url(#p3e41c9cb73)" style="fill: #1f77b4"/>
   </g>
   <g id="patch_11">
    <path d="M 99.805091 91676.297929 
L 103.051636 91676.297929 
L 103.051636 91676.297929 
L 99.805091 91676.297929 
z
" clip-path="url(#p3e41c9cb73)" style="fill: #1f77b4"/>
   </g>
   <g id="patch_12">
    <path d="M 103.051636 91676.297929 
L 106.298182 91676.297929 
L 106.298182 295.488 
L 103.051636 295.488 
z
" clip-path="url(#p3e41c9cb73)" style="fill: #1f77b4"/>
   </g>
   <g id="patch_13">
    <path d="M 106.298182 91676.297929 
L 109.544727 91676.297929 
L 109.544727 91676.297929 
L 106.298182 91676.297929 
z
" clip-path="url(#p3e41c9cb73)" style="fill: #1f77b4"/>
   </g>
   <g id="patch_14">
    <path d="M 109.544727 91676.297929 
L 112.791273 91676.297929 
L 112.791273 91676.297929 
L 109.544727 91676.297929 
z
" clip-path="url(#p3e41c9cb73)" style="fill: #1f77b4"/>
   </g>
   <g id="patch_15">
    <path d="M 112.791273 91676.297929 
L 116.037818 91676.297929 
L 116.037818 91676.297929 
L 112.791273 91676.297929 
z
" clip-path="url(#p3e41c9cb73)" style="fill: #1f77b4"/>
   </g>
   <g id="patch_16">
    <path d="M 116.037818 91676.297929 
L 119.284364 91676.297929 
L 119.284364 91676.297929 
L 116.037818 91676.297929 
z
" clip-path="url(#p3e41c9cb73)" style="fill: #1f77b4"/>
   </g>
   <g id="patch_17">
    <path d="M 119.284364 91676.297929 
L 122.530909 91676.297929 
L 122.530909 91676.297929 
L 119.284364 91676.297929 
z
" clip-path="url(#p3e41c9cb73)" style="fill: #1f77b4"/>
   </g>
   <g id="patch_18">
    <path d="M 122.530909 91676.297929 
L 125.777455 91676.297929 
L 125.777455 91676.297929 
L 122.530909 91676.297929 
z
" clip-path="url(#p3e41c9cb73)" style="fill: #1f77b4"/>
   </g>
   <g id="patch_19">
    <path d="M 125.777455 91676.297929 
L 129.024 91676.297929 
L 129.024 91676.297929 
L 125.777455 91676.297929 
z
" clip-path="url(#p3e41c9cb73)" style="fill: #1f77b4"/>
   </g>
   <g id="patch_20">
    <path d="M 129.024 91676.297929 
L 132.270545 91676.297929 
L 132.270545 91676.297929 
L 129.024 91676.297929 
z
" clip-path="url(#p3e41c9cb73)" style="fill: #1f77b4"/>
   </g>
   <g id="patch_21">
    <path d="M 132.270545 91676.297929 
L 135.517091 91676.297929 
L 135.517091 91676.297929 
L 132.270545 91676.297929 
z
" clip-path="url(#p3e41c9cb73)" style="fill: #1f77b4"/>
   </g>
   <g id="patch_22">
    <path d="M 135.517091 91676.297929 
L 138.763636 91676.297929 
L 138.763636 91676.297929 
L 135.517091 91676.297929 
z
" clip-path="url(#p3e41c9cb73)" style="fill: #1f77b4"/>
   </g>
   <g id="patch_23">
    <path d="M 138.763636 91676.297929 
L 142.010182 91676.297929 
L 142.010182 91676.297929 
L 138.763636 91676.297929 
z
" clip-path="url(#p3e41c9cb73)" style="fill: #1f77b4"/>
   </g>
   <g id="patch_24">
    <path d="M 142.010182 91676.297929 
L 145.256727 91676.297929 
L 145.256727 91676.297929 
L 142.010182 91676.297929 
z
" clip-path="url(#p3e41c9cb73)" style="fill: #1f77b4"/>
   </g>
   <g id="patch_25">
    <path d="M 145.256727 91676.297929 
L 148.503273 91676.297929 
L 148.503273 91676.297929 
L 145.256727 91676.297929 
z
" clip-path="url(#p3e41c9cb73)" style="fill: #1f77b4"/>
   </g>
   <g id="patch_26">
    <path d="M 148.503273 91676.297929 
L 151.749818 91676.297929 
L 151.749818 91676.297929 
L 148.503273 91676.297929 
z
" clip-path="url(#p3e41c9cb73)" style="fill: #1f77b4"/>
   </g>
   <g id="patch_27">
    <path d="M 151.749818 91676.297929 
L 154.996364 91676.297929 
L 154.996364 91676.297929 
L 151.749818 91676.297929 
z
" clip-path="url(#p3e41c9cb73)" style="fill: #1f77b4"/>
   </g>
   <g id="patch_28">
    <path d="M 154.996364 91676.297929 
L 158.242909 91676.297929 
L 158.242909 91676.297929 
L 154.996364 91676.297929 
z
" clip-path="url(#p3e41c9cb73)" style="fill: #1f77b4"/>
   </g>
   <g id="patch_29">
    <path d="M 158.242909 91676.297929 
L 161.489455 91676.297929 
L 161.489455 91676.297929 
L 158.242909 91676.297929 
z
" clip-path="url(#p3e41c9cb73)" style="fill: #1f77b4"/>
   </g>
   <g id="patch_30">
    <path d="M 161.489455 91676.297929 
L 164.736 91676.297929 
L 164.736 91676.297929 
L 161.489455 91676.297929 
z
" clip-path="url(#p3e41c9cb73)" style="fill: #1f77b4"/>
   </g>
   <g id="patch_31">
    <path d="M 164.736 91676.297929 
L 167.982545 91676.297929 
L 167.982545 91676.297929 
L 164.736 91676.297929 
z
" clip-path="url(#p3e41c9cb73)" style="fill: #1f77b4"/>
   </g>
   <g id="patch_32">
    <path d="M 167.982545 91676.297929 
L 171.229091 91676.297929 
L 171.229091 91676.297929 
L 167.982545 91676.297929 
z
" clip-path="url(#p3e41c9cb73)" style="fill: #1f77b4"/>
   </g>
   <g id="patch_33">
    <path d="M 171.229091 91676.297929 
L 174.475636 91676.297929 
L 174.475636 91676.297929 
L 171.229091 91676.297929 
z
" clip-path="url(#p3e41c9cb73)" style="fill: #1f77b4"/>
   </g>
   <g id="patch_34">
    <path d="M 174.475636 91676.297929 
L 177.722182 91676.297929 
L 177.722182 91676.297929 
L 174.475636 91676.297929 
z
" clip-path="url(#p3e41c9cb73)" style="fill: #1f77b4"/>
   </g>
   <g id="patch_35">
    <path d="M 177.722182 91676.297929 
L 180.968727 91676.297929 
L 180.968727 91676.297929 
L 177.722182 91676.297929 
z
" clip-path="url(#p3e41c9cb73)" style="fill: #1f77b4"/>
   </g>
   <g id="patch_36">
    <path d="M 180.968727 91676.297929 
L 184.215273 91676.297929 
L 184.215273 91676.297929 
L 180.968727 91676.297929 
z
" clip-path="url(#p3e41c9cb73)" style="fill: #1f77b4"/>
   </g>
   <g id="patch_37">
    <path d="M 184.215273 91676.297929 
L 187.461818 91676.297929 
L 187.461818 91676.297929 
L 184.215273 91676.297929 
z
" clip-path="url(#p3e41c9cb73)" style="fill: #1f77b4"/>
   </g>
   <g id="patch_38">
    <path d="M 187.461818 91676.297929 
L 190.708364 91676.297929 
L 190.708364 91676.297929 
L 187.461818 91676.297929 
z
" clip-path="url(#p3e41c9cb73)" style="fill: #1f77b4"/>
   </g>
   <g id="patch_39">
    <path d="M 190.708364 91676.297929 
L 193.954909 91676.297929 
L 193.954909 91676.297929 
L 190.708364 91676.297929 
z
" clip-path="url(#p3e41c9cb73)" style="fill: #1f77b4"/>
   </g>
   <g id="patch_40">
    <path d="M 193.954909 91676.297929 
L 197.201455 91676.297929 
L 197.201455 91676.297929 
L 193.954909 91676.297929 
z
" clip-path="url(#p3e41c9cb73)" style="fill: #1f77b4"/>
   </g>
   <g id="patch_41">
    <path d="M 197.201455 91676.297929 
L 200.448 91676.297929 
L 200.448 91676.297929 
L 197.201455 91676.297929 
z
" clip-path="url(#p3e41c9cb73)" style="fill: #1f77b4"/>
   </g>
   <g id="patch_42">
    <path d="M 200.448 91676.297929 
L 203.694545 91676.297929 
L 203.694545 91676.297929 
L 200.448 91676.297929 
z
" clip-path="url(#p3e41c9cb73)" style="fill: #1f77b4"/>
   </g>
   <g id="patch_43">
    <path d="M 203.694545 91676.297929 
L 206.941091 91676.297929 
L 206.941091 91676.297929 
L 203.694545 91676.297929 
z
" clip-path="url(#p3e41c9cb73)" style="fill: #1f77b4"/>
   </g>
   <g id="patch_44">
    <path d="M 206.941091 91676.297929 
L 210.187636 91676.297929 
L 210.187636 91676.297929 
L 206.941091 91676.297929 
z
" clip-path="url(#p3e41c9cb73)" style="fill: #1f77b4"/>
   </g>
   <g id="patch_45">
    <path d="M 210.187636 91676.297929 
L 213.434182 91676.297929 
L 213.434182 91676.297929 
L 210.187636 91676.297929 
z
" clip-path="url(#p3e41c9cb73)" style="fill: #1f77b4"/>
   </g>
   <g id="patch_46">
    <path d="M 213.434182 91676.297929 
L 216.680727 91676.297929 
L 216.680727 91676.297929 
L 213.434182 91676.297929 
z
" clip-path="url(#p3e41c9cb73)" style="fill: #1f77b4"/>
   </g>
   <g id="patch_47">
    <path d="M 216.680727 91676.297929 
L 219.927273 91676.297929 
L 219.927273 91676.297929 
L 216.680727 91676.297929 
z
" clip-path="url(#p3e41c9cb73)" style="fill: #1f77b4"/>
   </g>
   <g id="patch_48">
    <path d="M 219.927273 91676.297929 
L 223.173818 91676.297929 
L 223.173818 91676.297929 
L 219.927273 91676.297929 
z
" clip-path="url(#p3e41c9cb73)" style="fill: #1f77b4"/>
   </g>
   <g id="patch_49">
    <path d="M 223.173818 91676.297929 
L 226.420364 91676.297929 
L 226.420364 91676.297929 
L 223.173818 91676.297929 
z
" clip-path="url(#p3e41c9cb73)" style="fill: #1f77b4"/>
   </g>
   <g id="patch_50">
    <path d="M 226.420364 91676.297929 
L 229.666909 91676.297929 
L 229.666909 91676.297929 
L 226.420364 91676.297929 
z
" clip-path="url(#p3e41c9cb73)" style="fill: #1f77b4"/>
   </g>
   <g id="patch_51">
    <path d="M 229.666909 91676.297929 
L 232.913455 91676.297929 
L 232.913455 91676.297929 
L 229.666909 91676.297929 
z
" clip-path="url(#p3e41c9cb73)" style="fill: #1f77b4"/>
   </g>
   <g id="patch_52">
    <path d="M 232.913455 91676.297929 
L 236.16 91676.297929 
L 236.16 91676.297929 
L 232.913455 91676.297929 
z
" clip-path="url(#p3e41c9cb73)" style="fill: #1f77b4"/>
   </g>
   <g id="patch_53">
    <path d="M 236.16 91676.297929 
L 239.406545 91676.297929 
L 239.406545 91676.297929 
L 236.16 91676.297929 
z
" clip-path="url(#p3e41c9cb73)" style="fill: #1f77b4"/>
   </g>
   <g id="patch_54">
    <path d="M 239.406545 91676.297929 
L 242.653091 91676.297929 
L 242.653091 91676.297929 
L 239.406545 91676.297929 
z
" clip-path="url(#p3e41c9cb73)" style="fill: #1f77b4"/>
   </g>
   <g id="patch_55">
    <path d="M 242.653091 91676.297929 
L 245.899636 91676.297929 
L 245.899636 91676.297929 
L 242.653091 91676.297929 
z
" clip-path="url(#p3e41c9cb73)" style="fill: #1f77b4"/>
   </g>
   <g id="patch_56">
    <path d="M 245.899636 91676.297929 
L 249.146182 91676.297929 
L 249.146182 91676.297929 
L 245.899636 91676.297929 
z
" clip-path="url(#p3e41c9cb73)" style="fill: #1f77b4"/>
   </g>
   <g id="patch_57">
    <path d="M 249.146182 91676.297929 
L 252.392727 91676.297929 
L 252.392727 91676.297929 
L 249.146182 91676.297929 
z
" clip-path="url(#p3e41c9cb73)" style="fill: #1f77b4"/>
   </g>
   <g id="patch_58">
    <path d="M 252.392727 91676.297929 
L 255.639273 91676.297929 
L 255.639273 91676.297929 
L 252.392727 91676.297929 
z
" clip-path="url(#p3e41c9cb73)" style="fill: #1f77b4"/>
   </g>
   <g id="patch_59">
    <path d="M 255.639273 91676.297929 
L 258.885818 91676.297929 
L 258.885818 91676.297929 
L 255.639273 91676.297929 
z
" clip-path="url(#p3e41c9cb73)" style="fill: #1f77b4"/>
   </g>
   <g id="patch_60">
    <path d="M 258.885818 91676.297929 
L 262.132364 91676.297929 
L 262.132364 91676.297929 
L 258.885818 91676.297929 
z
" clip-path="url(#p3e41c9cb73)" style="fill: #1f77b4"/>
   </g>
   <g id="patch_61">
    <path d="M 262.132364 91676.297929 
L 265.378909 91676.297929 
L 265.378909 91676.297929 
L 262.132364 91676.297929 
z
" clip-path="url(#p3e41c9cb73)" style="fill: #1f77b4"/>
   </g>
   <g id="patch_62">
    <path d="M 265.378909 91676.297929 
L 268.625455 91676.297929 
L 268.625455 91676.297929 
L 265.378909 91676.297929 
z
" clip-path="url(#p3e41c9cb73)" style="fill: #1f77b4"/>
   </g>
   <g id="patch_63">
    <path d="M 268.625455 91676.297929 
L 271.872 91676.297929 
L 271.872 91676.297929 
L 268.625455 91676.297929 
z
" clip-path="url(#p3e41c9cb73)" style="fill: #1f77b4"/>
   </g>
   <g id="patch_64">
    <path d="M 271.872 91676.297929 
L 275.118545 91676.297929 
L 275.118545 91676.297929 
L 271.872 91676.297929 
z
" clip-path="url(#p3e41c9cb73)" style="fill: #1f77b4"/>
   </g>
   <g id="patch_65">
    <path d="M 275.118545 91676.297929 
L 278.365091 91676.297929 
L 278.365091 91676.297929 
L 275.118545 91676.297929 
z
" clip-path="url(#p3e41c9cb73)" style="fill: #1f77b4"/>
   </g>
   <g id="patch_66">
    <path d="M 278.365091 91676.297929 
L 281.611636 91676.297929 
L 281.611636 91676.297929 
L 278.365091 91676.297929 
z
" clip-path="url(#p3e41c9cb73)" style="fill: #1f77b4"/>
   </g>
   <g id="patch_67">
    <path d="M 281.611636 91676.297929 
L 284.858182 91676.297929 
L 284.858182 91676.297929 
L 281.611636 91676.297929 
z
" clip-path="url(#p3e41c9cb73)" style="fill: #1f77b4"/>
   </g>
   <g id="patch_68">
    <path d="M 284.858182 91676.297929 
L 288.104727 91676.297929 
L 288.104727 91676.297929 
L 284.858182 91676.297929 
z
" clip-path="url(#p3e41c9cb73)" style="fill: #1f77b4"/>
   </g>
   <g id="patch_69">
    <path d="M 288.104727 91676.297929 
L 291.351273 91676.297929 
L 291.351273 91676.297929 
L 288.104727 91676.297929 
z
" clip-path="url(#p3e41c9cb73)" style="fill: #1f77b4"/>
   </g>
   <g id="patch_70">
    <path d="M 291.351273 91676.297929 
L 294.597818 91676.297929 
L 294.597818 91676.297929 
L 291.351273 91676.297929 
z
" clip-path="url(#p3e41c9cb73)" style="fill: #1f77b4"/>
   </g>
   <g id="patch_71">
    <path d="M 294.597818 91676.297929 
L 297.844364 91676.297929 
L 297.844364 91676.297929 
L 294.597818 91676.297929 
z
" clip-path="url(#p3e41c9cb73)" style="fill: #1f77b4"/>
   </g>
   <g id="patch_72">
    <path d="M 297.844364 91676.297929 
L 301.090909 91676.297929 
L 301.090909 91676.297929 
L 297.844364 91676.297929 
z
" clip-path="url(#p3e41c9cb73)" style="fill: #1f77b4"/>
   </g>
   <g id="patch_73">
    <path d="M 301.090909 91676.297929 
L 304.337455 91676.297929 
L 304.337455 91676.297929 
L 301.090909 91676.297929 
z
" clip-path="url(#p3e41c9cb73)" style="fill: #1f77b4"/>
   </g>
   <g id="patch_74">
    <path d="M 304.337455 91676.297929 
L 307.584 91676.297929 
L 307.584 91676.297929 
L 304.337455 91676.297929 
z
" clip-path="url(#p3e41c9cb73)" style="fill: #1f77b4"/>
   </g>
   <g id="patch_75">
    <path d="M 307.584 91676.297929 
L 310.830545 91676.297929 
L 310.830545 91676.297929 
L 307.584 91676.297929 
z
" clip-path="url(#p3e41c9cb73)" style="fill: #1f77b4"/>
   </g>
   <g id="patch_76">
    <path d="M 310.830545 91676.297929 
L 314.077091 91676.297929 
L 314.077091 91676.297929 
L 310.830545 91676.297929 
z
" clip-path="url(#p3e41c9cb73)" style="fill: #1f77b4"/>
   </g>
   <g id="patch_77">
    <path d="M 314.077091 91676.297929 
L 317.323636 91676.297929 
L 317.323636 91676.297929 
L 314.077091 91676.297929 
z
" clip-path="url(#p3e41c9cb73)" style="fill: #1f77b4"/>
   </g>
   <g id="patch_78">
    <path d="M 317.323636 91676.297929 
L 320.570182 91676.297929 
L 320.570182 91676.297929 
L 317.323636 91676.297929 
z
" clip-path="url(#p3e41c9cb73)" style="fill: #1f77b4"/>
   </g>
   <g id="patch_79">
    <path d="M 320.570182 91676.297929 
L 323.816727 91676.297929 
L 323.816727 91676.297929 
L 320.570182 91676.297929 
z
" clip-path="url(#p3e41c9cb73)" style="fill: #1f77b4"/>
   </g>
   <g id="patch_80">
    <path d="M 323.816727 91676.297929 
L 327.063273 91676.297929 
L 327.063273 91676.297929 
L 323.816727 91676.297929 
z
" clip-path="url(#p3e41c9cb73)" style="fill: #1f77b4"/>
   </g>
   <g id="patch_81">
    <path d="M 327.063273 91676.297929 
L 330.309818 91676.297929 
L 330.309818 91676.297929 
L 327.063273 91676.297929 
z
" clip-path="url(#p3e41c9cb73)" style="fill: #1f77b4"/>
   </g>
   <g id="patch_82">
    <path d="M 330.309818 91676.297929 
L 333.556364 91676.297929 
L 333.556364 91676.297929 
L 330.309818 91676.297929 
z
" clip-path="url(#p3e41c9cb73)" style="fill: #1f77b4"/>
   </g>
   <g id="patch_83">
    <path d="M 333.556364 91676.297929 
L 336.802909 91676.297929 
L 336.802909 91676.297929 
L 333.556364 91676.297929 
z
" clip-path="url(#p3e41c9cb73)" style="fill: #1f77b4"/>
   </g>
   <g id="patch_84">
    <path d="M 336.802909 91676.297929 
L 340.049455 91676.297929 
L 340.049455 91676.297929 
L 336.802909 91676.297929 
z
" clip-path="url(#p3e41c9cb73)" style="fill: #1f77b4"/>
   </g>
   <g id="patch_85">
    <path d="M 340.049455 91676.297929 
L 343.296 91676.297929 
L 343.296 91676.297929 
L 340.049455 91676.297929 
z
" clip-path="url(#p3e41c9cb73)" style="fill: #1f77b4"/>
   </g>
   <g id="patch_86">
    <path d="M 343.296 91676.297929 
L 346.542545 91676.297929 
L 346.542545 91676.297929 
L 343.296 91676.297929 
z
" clip-path="url(#p3e41c9cb73)" style="fill: #1f77b4"/>
   </g>
   <g id="patch_87">
    <path d="M 346.542545 91676.297929 
L 349.789091 91676.297929 
L 349.789091 91676.297929 
L 346.542545 91676.297929 
z
" clip-path="url(#p3e41c9cb73)" style="fill: #1f77b4"/>
   </g>
   <g id="patch_88">
    <path d="M 349.789091 91676.297929 
L 353.035636 91676.297929 
L 353.035636 91676.297929 
L 349.789091 91676.297929 
z
" clip-path="url(#p3e41c9cb73)" style="fill: #1f77b4"/>
   </g>
   <g id="patch_89">
    <path d="M 353.035636 91676.297929 
L 356.282182 91676.297929 
L 356.282182 91676.297929 
L 353.035636 91676.297929 
z
" clip-path="url(#p3e41c9cb73)" style="fill: #1f77b4"/>
   </g>
   <g id="patch_90">
    <path d="M 356.282182 91676.297929 
L 359.528727 91676.297929 
L 359.528727 91676.297929 
L 356.282182 91676.297929 
z
" clip-path="url(#p3e41c9cb73)" style="fill: #1f77b4"/>
   </g>
   <g id="patch_91">
    <path d="M 359.528727 91676.297929 
L 362.775273 91676.297929 
L 362.775273 91676.297929 
L 359.528727 91676.297929 
z
" clip-path="url(#p3e41c9cb73)" style="fill: #1f77b4"/>
   </g>
   <g id="patch_92">
    <path d="M 362.775273 91676.297929 
L 366.021818 91676.297929 
L 366.021818 91676.297929 
L 362.775273 91676.297929 
z
" clip-path="url(#p3e41c9cb73)" style="fill: #1f77b4"/>
   </g>
   <g id="patch_93">
    <path d="M 366.021818 91676.297929 
L 369.268364 91676.297929 
L 369.268364 91676.297929 
L 366.021818 91676.297929 
z
" clip-path="url(#p3e41c9cb73)" style="fill: #1f77b4"/>
   </g>
   <g id="patch_94">
    <path d="M 369.268364 91676.297929 
L 372.514909 91676.297929 
L 372.514909 91676.297929 
L 369.268364 91676.297929 
z
" clip-path="url(#p3e41c9cb73)" style="fill: #1f77b4"/>
   </g>
   <g id="patch_95">
    <path d="M 372.514909 91676.297929 
L 375.761455 91676.297929 
L 375.761455 91676.297929 
L 372.514909 91676.297929 
z
" clip-path="url(#p3e41c9cb73)" style="fill: #1f77b4"/>
   </g>
   <g id="patch_96">
    <path d="M 375.761455 91676.297929 
L 379.008 91676.297929 
L 379.008 91676.297929 
L 375.761455 91676.297929 
z
" clip-path="url(#p3e41c9cb73)" style="fill: #1f77b4"/>
   </g>
   <g id="patch_97">
    <path d="M 379.008 91676.297929 
L 382.254545 91676.297929 
L 382.254545 91676.297929 
L 379.008 91676.297929 
z
" clip-path="url(#p3e41c9cb73)" style="fill: #1f77b4"/>
   </g>
   <g id="patch_98">
    <path d="M 382.254545 91676.297929 
L 385.501091 91676.297929 
L 385.501091 91676.297929 
L 382.254545 91676.297929 
z
" clip-path="url(#p3e41c9cb73)" style="fill: #1f77b4"/>
   </g>
   <g id="patch_99">
    <path d="M 385.501091 91676.297929 
L 388.747636 91676.297929 
L 388.747636 91676.297929 
L 385.501091 91676.297929 
z
" clip-path="url(#p3e41c9cb73)" style="fill: #1f77b4"/>
   </g>
   <g id="patch_100">
    <path d="M 388.747636 91676.297929 
L 391.994182 91676.297929 
L 391.994182 91676.297929 
L 388.747636 91676.297929 
z
" clip-path="url(#p3e41c9cb73)" style="fill: #1f77b4"/>
   </g>
   <g id="patch_101">
    <path d="M 391.994182 91676.297929 
L 395.240727 91676.297929 
L 395.240727 91676.297929 
L 391.994182 91676.297929 
z
" clip-path="url(#p3e41c9cb73)" style="fill: #1f77b4"/>
   </g>
   <g id="patch_102">
    <path d="M 395.240727 91676.297929 
L 398.487273 91676.297929 
L 398.487273 295.488 
L 395.240727 295.488 
z
" clip-path="url(#p3e41c9cb73)" style="fill: #1f77b4"/>
   </g>
   <g id="matplotlib.axis_1">
    <g id="xtick_1">
     <g id="line2d_1">
      <defs>
       <path id="m99a81d4e5a" d="M 0 0 
L 0 3.5 
" style="stroke: #000000; stroke-width: 0.8"/>
      </defs>
      <g>
       <use xlink:href="#m99a81d4e5a" x="76.697326" y="307.584" style="stroke: #000000; stroke-width: 0.8"/>
      </g>
     </g>
     <g id="text_1">
      <!-- 2500 -->
      <g transform="translate(63.972326 322.182437)scale(0.1 -0.1)">
       <defs>
        <path id="DejaVuSans-32" d="M 1228 531 
L 3431 531 
L 3431 0 
L 469 0 
L 469 531 
Q 828 903 1448 1529 
Q 2069 2156 2228 2338 
Q 2531 2678 2651 2914 
Q 2772 3150 2772 3378 
Q 2772 3750 2511 3984 
Q 2250 4219 1831 4219 
Q 1534 4219 1204 4116 
Q 875 4013 500 3803 
L 500 4441 
Q 881 4594 1212 4672 
Q 1544 4750 1819 4750 
Q 2544 4750 2975 4387 
Q 3406 4025 3406 3419 
Q 3406 3131 3298 2873 
Q 3191 2616 2906 2266 
Q 2828 2175 2409 1742 
Q 1991 1309 1228 531 
z
" transform="scale(0.015625)"/>
        <path id="DejaVuSans-35" d="M 691 4666 
L 3169 4666 
L 3169 4134 
L 1269 4134 
L 1269 2991 
Q 1406 3038 1543 3061 
Q 1681 3084 1819 3084 
Q 2600 3084 3056 2656 
Q 3513 2228 3513 1497 
Q 3513 744 3044 326 
Q 2575 -91 1722 -91 
Q 1428 -91 1123 -41 
Q 819 9 494 109 
L 494 744 
Q 775 591 1075 516 
Q 1375 441 1709 441 
Q 2250 441 2565 725 
Q 2881 1009 2881 1497 
Q 2881 1984 2565 2268 
Q 2250 2553 1709 2553 
Q 1456 2553 1204 2497 
Q 953 2441 691 2322 
L 691 4666 
z
" transform="scale(0.015625)"/>
        <path id="DejaVuSans-30" d="M 2034 4250 
Q 1547 4250 1301 3770 
Q 1056 3291 1056 2328 
Q 1056 1369 1301 889 
Q 1547 409 2034 409 
Q 2525 409 2770 889 
Q 3016 1369 3016 2328 
Q 3016 3291 2770 3770 
Q 2525 4250 2034 4250 
z
M 2034 4750 
Q 2819 4750 3233 4129 
Q 3647 3509 3647 2328 
Q 3647 1150 3233 529 
Q 2819 -91 2034 -91 
Q 1250 -91 836 529 
Q 422 1150 422 2328 
Q 422 3509 836 4129 
Q 1250 4750 2034 4750 
z
" transform="scale(0.015625)"/>
       </defs>
       <use xlink:href="#DejaVuSans-32"/>
       <use xlink:href="#DejaVuSans-35" x="63.623047"/>
       <use xlink:href="#DejaVuSans-30" x="127.246094"/>
       <use xlink:href="#DejaVuSans-30" x="190.869141"/>
      </g>
     </g>
    </g>
    <g id="xtick_2">
     <g id="line2d_2">
      <g>
       <use xlink:href="#m99a81d4e5a" x="119.325286" y="307.584" style="stroke: #000000; stroke-width: 0.8"/>
      </g>
     </g>
     <g id="text_2">
      <!-- 5000 -->
      <g transform="translate(106.600286 322.182437)scale(0.1 -0.1)">
       <use xlink:href="#DejaVuSans-35"/>
       <use xlink:href="#DejaVuSans-30" x="63.623047"/>
       <use xlink:href="#DejaVuSans-30" x="127.246094"/>
       <use xlink:href="#DejaVuSans-30" x="190.869141"/>
      </g>
     </g>
    </g>
    <g id="xtick_3">
     <g id="line2d_3">
      <g>
       <use xlink:href="#m99a81d4e5a" x="161.953247" y="307.584" style="stroke: #000000; stroke-width: 0.8"/>
      </g>
     </g>
     <g id="text_3">
      <!-- 7500 -->
      <g transform="translate(149.228247 322.182437)scale(0.1 -0.1)">
       <defs>
        <path id="DejaVuSans-37" d="M 525 4666 
L 3525 4666 
L 3525 4397 
L 1831 0 
L 1172 0 
L 2766 4134 
L 525 4134 
L 525 4666 
z
" transform="scale(0.015625)"/>
       </defs>
       <use xlink:href="#DejaVuSans-37"/>
       <use xlink:href="#DejaVuSans-35" x="63.623047"/>
       <use xlink:href="#DejaVuSans-30" x="127.246094"/>
       <use xlink:href="#DejaVuSans-30" x="190.869141"/>
      </g>
     </g>
    </g>
    <g id="xtick_4">
     <g id="line2d_4">
      <g>
       <use xlink:href="#m99a81d4e5a" x="204.581207" y="307.584" style="stroke: #000000; stroke-width: 0.8"/>
      </g>
     </g>
     <g id="text_4">
      <!-- 10000 -->
      <g transform="translate(188.674957 322.182437)scale(0.1 -0.1)">
       <defs>
        <path id="DejaVuSans-31" d="M 794 531 
L 1825 531 
L 1825 4091 
L 703 3866 
L 703 4441 
L 1819 4666 
L 2450 4666 
L 2450 531 
L 3481 531 
L 3481 0 
L 794 0 
L 794 531 
z
" transform="scale(0.015625)"/>
       </defs>
       <use xlink:href="#DejaVuSans-31"/>
       <use xlink:href="#DejaVuSans-30" x="63.623047"/>
       <use xlink:href="#DejaVuSans-30" x="127.246094"/>
       <use xlink:href="#DejaVuSans-30" x="190.869141"/>
       <use xlink:href="#DejaVuSans-30" x="254.492188"/>
      </g>
     </g>
    </g>
    <g id="xtick_5">
     <g id="line2d_5">
      <g>
       <use xlink:href="#m99a81d4e5a" x="247.209167" y="307.584" style="stroke: #000000; stroke-width: 0.8"/>
      </g>
     </g>
     <g id="text_5">
      <!-- 12500 -->
      <g transform="translate(231.302917 322.182437)scale(0.1 -0.1)">
       <use xlink:href="#DejaVuSans-31"/>
       <use xlink:href="#DejaVuSans-32" x="63.623047"/>
       <use xlink:href="#DejaVuSans-35" x="127.246094"/>
       <use xlink:href="#DejaVuSans-30" x="190.869141"/>
       <use xlink:href="#DejaVuSans-30" x="254.492188"/>
      </g>
     </g>
    </g>
    <g id="xtick_6">
     <g id="line2d_6">
      <g>
       <use xlink:href="#m99a81d4e5a" x="289.837128" y="307.584" style="stroke: #000000; stroke-width: 0.8"/>
      </g>
     </g>
     <g id="text_6">
      <!-- 15000 -->
      <g transform="translate(273.930878 322.182437)scale(0.1 -0.1)">
       <use xlink:href="#DejaVuSans-31"/>
       <use xlink:href="#DejaVuSans-35" x="63.623047"/>
       <use xlink:href="#DejaVuSans-30" x="127.246094"/>
       <use xlink:href="#DejaVuSans-30" x="190.869141"/>
       <use xlink:href="#DejaVuSans-30" x="254.492188"/>
      </g>
     </g>
    </g>
    <g id="xtick_7">
     <g id="line2d_7">
      <g>
       <use xlink:href="#m99a81d4e5a" x="332.465088" y="307.584" style="stroke: #000000; stroke-width: 0.8"/>
      </g>
     </g>
     <g id="text_7">
      <!-- 17500 -->
      <g transform="translate(316.558838 322.182437)scale(0.1 -0.1)">
       <use xlink:href="#DejaVuSans-31"/>
       <use xlink:href="#DejaVuSans-37" x="63.623047"/>
       <use xlink:href="#DejaVuSans-35" x="127.246094"/>
       <use xlink:href="#DejaVuSans-30" x="190.869141"/>
       <use xlink:href="#DejaVuSans-30" x="254.492188"/>
      </g>
     </g>
    </g>
    <g id="xtick_8">
     <g id="line2d_8">
      <g>
       <use xlink:href="#m99a81d4e5a" x="375.093048" y="307.584" style="stroke: #000000; stroke-width: 0.8"/>
      </g>
     </g>
     <g id="text_8">
      <!-- 20000 -->
      <g transform="translate(359.186798 322.182437)scale(0.1 -0.1)">
       <use xlink:href="#DejaVuSans-32"/>
       <use xlink:href="#DejaVuSans-30" x="63.623047"/>
       <use xlink:href="#DejaVuSans-30" x="127.246094"/>
       <use xlink:href="#DejaVuSans-30" x="190.869141"/>
       <use xlink:href="#DejaVuSans-30" x="254.492188"/>
      </g>
     </g>
    </g>
    <g id="text_9">
     <!-- Latency (ns) -->
     <g transform="translate(205.131875 335.860562)scale(0.1 -0.1)">
      <defs>
       <path id="DejaVuSans-4c" d="M 628 4666 
L 1259 4666 
L 1259 531 
L 3531 531 
L 3531 0 
L 628 0 
L 628 4666 
z
" transform="scale(0.015625)"/>
       <path id="DejaVuSans-61" d="M 2194 1759 
Q 1497 1759 1228 1600 
Q 959 1441 959 1056 
Q 959 750 1161 570 
Q 1363 391 1709 391 
Q 2188 391 2477 730 
Q 2766 1069 2766 1631 
L 2766 1759 
L 2194 1759 
z
M 3341 1997 
L 3341 0 
L 2766 0 
L 2766 531 
Q 2569 213 2275 61 
Q 1981 -91 1556 -91 
Q 1019 -91 701 211 
Q 384 513 384 1019 
Q 384 1609 779 1909 
Q 1175 2209 1959 2209 
L 2766 2209 
L 2766 2266 
Q 2766 2663 2505 2880 
Q 2244 3097 1772 3097 
Q 1472 3097 1187 3025 
Q 903 2953 641 2809 
L 641 3341 
Q 956 3463 1253 3523 
Q 1550 3584 1831 3584 
Q 2591 3584 2966 3190 
Q 3341 2797 3341 1997 
z
" transform="scale(0.015625)"/>
       <path id="DejaVuSans-74" d="M 1172 4494 
L 1172 3500 
L 2356 3500 
L 2356 3053 
L 1172 3053 
L 1172 1153 
Q 1172 725 1289 603 
Q 1406 481 1766 481 
L 2356 481 
L 2356 0 
L 1766 0 
Q 1100 0 847 248 
Q 594 497 594 1153 
L 594 3053 
L 172 3053 
L 172 3500 
L 594 3500 
L 594 4494 
L 1172 4494 
z
" transform="scale(0.015625)"/>
       <path id="DejaVuSans-65" d="M 3597 1894 
L 3597 1613 
L 953 1613 
Q 991 1019 1311 708 
Q 1631 397 2203 397 
Q 2534 397 2845 478 
Q 3156 559 3463 722 
L 3463 178 
Q 3153 47 2828 -22 
Q 2503 -91 2169 -91 
Q 1331 -91 842 396 
Q 353 884 353 1716 
Q 353 2575 817 3079 
Q 1281 3584 2069 3584 
Q 2775 3584 3186 3129 
Q 3597 2675 3597 1894 
z
M 3022 2063 
Q 3016 2534 2758 2815 
Q 2500 3097 2075 3097 
Q 1594 3097 1305 2825 
Q 1016 2553 972 2059 
L 3022 2063 
z
" transform="scale(0.015625)"/>
       <path id="DejaVuSans-6e" d="M 3513 2113 
L 3513 0 
L 2938 0 
L 2938 2094 
Q 2938 2591 2744 2837 
Q 2550 3084 2163 3084 
Q 1697 3084 1428 2787 
Q 1159 2491 1159 1978 
L 1159 0 
L 581 0 
L 581 3500 
L 1159 3500 
L 1159 2956 
Q 1366 3272 1645 3428 
Q 1925 3584 2291 3584 
Q 2894 3584 3203 3211 
Q 3513 2838 3513 2113 
z
" transform="scale(0.015625)"/>
       <path id="DejaVuSans-63" d="M 3122 3366 
L 3122 2828 
Q 2878 2963 2633 3030 
Q 2388 3097 2138 3097 
Q 1578 3097 1268 2742 
Q 959 2388 959 1747 
Q 959 1106 1268 751 
Q 1578 397 2138 397 
Q 2388 397 2633 464 
Q 2878 531 3122 666 
L 3122 134 
Q 2881 22 2623 -34 
Q 2366 -91 2075 -91 
Q 1284 -91 818 406 
Q 353 903 353 1747 
Q 353 2603 823 3093 
Q 1294 3584 2113 3584 
Q 2378 3584 2631 3529 
Q 2884 3475 3122 3366 
z
" transform="scale(0.015625)"/>
       <path id="DejaVuSans-79" d="M 2059 -325 
Q 1816 -950 1584 -1140 
Q 1353 -1331 966 -1331 
L 506 -1331 
L 506 -850 
L 844 -850 
Q 1081 -850 1212 -737 
Q 1344 -625 1503 -206 
L 1606 56 
L 191 3500 
L 800 3500 
L 1894 763 
L 2988 3500 
L 3597 3500 
L 2059 -325 
z
" transform="scale(0.015625)"/>
       <path id="DejaVuSans-20" transform="scale(0.015625)"/>
       <path id="DejaVuSans-28" d="M 1984 4856 
Q 1566 4138 1362 3434 
Q 1159 2731 1159 2009 
Q 1159 1288 1364 580 
Q 1569 -128 1984 -844 
L 1484 -844 
Q 1016 -109 783 600 
Q 550 1309 550 2009 
Q 550 2706 781 3412 
Q 1013 4119 1484 4856 
L 1984 4856 
z
" transform="scale(0.015625)"/>
       <path id="DejaVuSans-73" d="M 2834 3397 
L 2834 2853 
Q 2591 2978 2328 3040 
Q 2066 3103 1784 3103 
Q 1356 3103 1142 2972 
Q 928 2841 928 2578 
Q 928 2378 1081 2264 
Q 1234 2150 1697 2047 
L 1894 2003 
Q 2506 1872 2764 1633 
Q 3022 1394 3022 966 
Q 3022 478 2636 193 
Q 2250 -91 1575 -91 
Q 1294 -91 989 -36 
Q 684 19 347 128 
L 347 722 
Q 666 556 975 473 
Q 1284 391 1588 391 
Q 1994 391 2212 530 
Q 2431 669 2431 922 
Q 2431 1156 2273 1281 
Q 2116 1406 1581 1522 
L 1381 1569 
Q 847 1681 609 1914 
Q 372 2147 372 2553 
Q 372 3047 722 3315 
Q 1072 3584 1716 3584 
Q 2034 3584 2315 3537 
Q 2597 3491 2834 3397 
z
" transform="scale(0.015625)"/>
       <path id="DejaVuSans-29" d="M 513 4856 
L 1013 4856 
Q 1481 4119 1714 3412 
Q 1947 2706 1947 2009 
Q 1947 1309 1714 600 
Q 1481 -109 1013 -844 
L 513 -844 
Q 928 -128 1133 580 
Q 1338 1288 1338 2009 
Q 1338 2731 1133 3434 
Q 928 4138 513 4856 
z
" transform="scale(0.015625)"/>
      </defs>
      <use xlink:href="#DejaVuSans-4c"/>
      <use xlink:href="#DejaVuSans-61" x="55.712891"/>
      <use xlink:href="#DejaVuSans-74" x="116.992188"/>
      <use xlink:href="#DejaVuSans-65" x="156.201172"/>
      <use xlink:href="#DejaVuSans-6e" x="217.724609"/>
      <use xlink:href="#DejaVuSans-63" x="281.103516"/>
      <use xlink:href="#DejaVuSans-79" x="336.083984"/>
      <use xlink:href="#DejaVuSans-20" x="395.263672"/>
      <use xlink:href="#DejaVuSans-28" x="427.050781"/>
      <use xlink:href="#DejaVuSans-6e" x="466.064453"/>
      <use xlink:href="#DejaVuSans-73" x="529.443359"/>
      <use xlink:href="#DejaVuSans-29" x="581.542969"/>
     </g>
    </g>
   </g>
   <g id="matplotlib.axis_2">
    <g id="ytick_1">
     <g id="line2d_9">
      <defs>
       <path id="mb5668ac08f" d="M 0 0 
L -3.5 0 
" style="stroke: #000000; stroke-width: 0.8"/>
      </defs>
      <g>
       <use xlink:href="#mb5668ac08f" x="57.6" y="295.488" style="stroke: #000000; stroke-width: 0.8"/>
      </g>
     </g>
     <g id="text_10">
      <!-- $\mathdefault{10^{0}}$ -->
      <g transform="translate(33 299.287219)scale(0.1 -0.1)">
       <use xlink:href="#DejaVuSans-31" transform="translate(0 0.765625)"/>
       <use xlink:href="#DejaVuSans-30" transform="translate(63.623047 0.765625)"/>
       <use xlink:href="#DejaVuSans-30" transform="translate(128.203125 39.046875)scale(0.7)"/>
      </g>
     </g>
    </g>
    <g id="ytick_2">
     <g id="line2d_10">
      <g>
       <use xlink:href="#mb5668ac08f" x="57.6" y="204.10719" style="stroke: #000000; stroke-width: 0.8"/>
      </g>
     </g>
     <g id="text_11">
      <!-- $\mathdefault{10^{1}}$ -->
      <g transform="translate(33 207.906409)scale(0.1 -0.1)">
       <use xlink:href="#DejaVuSans-31" transform="translate(0 0.684375)"/>
       <use xlink:href="#DejaVuSans-30" transform="translate(63.623047 0.684375)"/>
       <use xlink:href="#DejaVuSans-31" transform="translate(128.203125 38.965625)scale(0.7)"/>
      </g>
     </g>
    </g>
    <g id="ytick_3">
     <g id="line2d_11">
      <g>
       <use xlink:href="#mb5668ac08f" x="57.6" y="112.72638" style="stroke: #000000; stroke-width: 0.8"/>
      </g>
     </g>
     <g id="text_12">
      <!-- $\mathdefault{10^{2}}$ -->
      <g transform="translate(33 116.525599)scale(0.1 -0.1)">
       <use xlink:href="#DejaVuSans-31" transform="translate(0 0.765625)"/>
       <use xlink:href="#DejaVuSans-30" transform="translate(63.623047 0.765625)"/>
       <use xlink:href="#DejaVuSans-32" transform="translate(128.203125 39.046875)scale(0.7)"/>
      </g>
     </g>
    </g>
    <g id="ytick_4">
     <g id="line2d_12">
      <defs>
       <path id="m0f1becabf6" d="M 0 0 
L -2 0 
" style="stroke: #000000; stroke-width: 0.6"/>
      </defs>
      <g>
       <use xlink:href="#m0f1becabf6" x="57.6" y="304.343715" style="stroke: #000000; stroke-width: 0.6"/>
      </g>
     </g>
    </g>
    <g id="ytick_5">
     <g id="line2d_13">
      <g>
       <use xlink:href="#m0f1becabf6" x="57.6" y="299.669357" style="stroke: #000000; stroke-width: 0.6"/>
      </g>
     </g>
    </g>
    <g id="ytick_6">
     <g id="line2d_14">
      <g>
       <use xlink:href="#m0f1becabf6" x="57.6" y="267.979635" style="stroke: #000000; stroke-width: 0.6"/>
      </g>
     </g>
    </g>
    <g id="ytick_7">
     <g id="line2d_15">
      <g>
       <use xlink:href="#m0f1becabf6" x="57.6" y="251.888273" style="stroke: #000000; stroke-width: 0.6"/>
      </g>
     </g>
    </g>
    <g id="ytick_8">
     <g id="line2d_16">
      <g>
       <use xlink:href="#m0f1becabf6" x="57.6" y="240.47127" style="stroke: #000000; stroke-width: 0.6"/>
      </g>
     </g>
    </g>
    <g id="ytick_9">
     <g id="line2d_17">
      <g>
       <use xlink:href="#m0f1becabf6" x="57.6" y="231.615555" style="stroke: #000000; stroke-width: 0.6"/>
      </g>
     </g>
    </g>
    <g id="ytick_10">
     <g id="line2d_18">
      <g>
       <use xlink:href="#m0f1becabf6" x="57.6" y="224.379908" style="stroke: #000000; stroke-width: 0.6"/>
      </g>
     </g>
    </g>
    <g id="ytick_11">
     <g id="line2d_19">
      <g>
       <use xlink:href="#m0f1becabf6" x="57.6" y="218.262257" style="stroke: #000000; stroke-width: 0.6"/>
      </g>
     </g>
    </g>
    <g id="ytick_12">
     <g id="line2d_20">
      <g>
       <use xlink:href="#m0f1becabf6" x="57.6" y="212.962906" style="stroke: #000000; stroke-width: 0.6"/>
      </g>
     </g>
    </g>
    <g id="ytick_13">
     <g id="line2d_21">
      <g>
       <use xlink:href="#m0f1becabf6" x="57.6" y="208.288547" style="stroke: #000000; stroke-width: 0.6"/>
      </g>
     </g>
    </g>
    <g id="ytick_14">
     <g id="line2d_22">
      <g>
       <use xlink:href="#m0f1becabf6" x="57.6" y="176.598825" style="stroke: #000000; stroke-width: 0.6"/>
      </g>
     </g>
    </g>
    <g id="ytick_15">
     <g id="line2d_23">
      <g>
       <use xlink:href="#m0f1becabf6" x="57.6" y="160.507463" style="stroke: #000000; stroke-width: 0.6"/>
      </g>
     </g>
    </g>
    <g id="ytick_16">
     <g id="line2d_24">
      <g>
       <use xlink:href="#m0f1becabf6" x="57.6" y="149.09046" style="stroke: #000000; stroke-width: 0.6"/>
      </g>
     </g>
    </g>
    <g id="ytick_17">
     <g id="line2d_25">
      <g>
       <use xlink:href="#m0f1becabf6" x="57.6" y="140.234745" style="stroke: #000000; stroke-width: 0.6"/>
      </g>
     </g>
    </g>
    <g id="ytick_18">
     <g id="line2d_26">
      <g>
       <use xlink:href="#m0f1becabf6" x="57.6" y="132.999099" style="stroke: #000000; stroke-width: 0.6"/>
      </g>
     </g>
    </g>
    <g id="ytick_19">
     <g id="line2d_27">
      <g>
       <use xlink:href="#m0f1becabf6" x="57.6" y="126.881447" style="stroke: #000000; stroke-width: 0.6"/>
      </g>
     </g>
    </g>
    <g id="ytick_20">
     <g id="line2d_28">
      <g>
       <use xlink:href="#m0f1becabf6" x="57.6" y="121.582096" style="stroke: #000000; stroke-width: 0.6"/>
      </g>
     </g>
    </g>
    <g id="ytick_21">
     <g id="line2d_29">
      <g>
       <use xlink:href="#m0f1becabf6" x="57.6" y="116.907737" style="stroke: #000000; stroke-width: 0.6"/>
      </g>
     </g>
    </g>
    <g id="ytick_22">
     <g id="line2d_30">
      <g>
       <use xlink:href="#m0f1becabf6" x="57.6" y="85.218015" style="stroke: #000000; stroke-width: 0.6"/>
      </g>
     </g>
    </g>
    <g id="ytick_23">
     <g id="line2d_31">
      <g>
       <use xlink:href="#m0f1becabf6" x="57.6" y="69.126653" style="stroke: #000000; stroke-width: 0.6"/>
      </g>
     </g>
    </g>
    <g id="ytick_24">
     <g id="line2d_32">
      <g>
       <use xlink:href="#m0f1becabf6" x="57.6" y="57.709651" style="stroke: #000000; stroke-width: 0.6"/>
      </g>
     </g>
    </g>
    <g id="ytick_25">
     <g id="line2d_33">
      <g>
       <use xlink:href="#m0f1becabf6" x="57.6" y="48.853935" style="stroke: #000000; stroke-width: 0.6"/>
      </g>
     </g>
    </g>
    <g id="ytick_26">
     <g id="line2d_34">
      <g>
       <use xlink:href="#m0f1becabf6" x="57.6" y="41.618289" style="stroke: #000000; stroke-width: 0.6"/>
      </g>
     </g>
    </g>
    <g id="text_13">
     <!-- Frequency -->
     <g transform="translate(26.920312 200.357687)rotate(-90)scale(0.1 -0.1)">
      <defs>
       <path id="DejaVuSans-46" d="M 628 4666 
L 3309 4666 
L 3309 4134 
L 1259 4134 
L 1259 2759 
L 3109 2759 
L 3109 2228 
L 1259 2228 
L 1259 0 
L 628 0 
L 628 4666 
z
" transform="scale(0.015625)"/>
       <path id="DejaVuSans-72" d="M 2631 2963 
Q 2534 3019 2420 3045 
Q 2306 3072 2169 3072 
Q 1681 3072 1420 2755 
Q 1159 2438 1159 1844 
L 1159 0 
L 581 0 
L 581 3500 
L 1159 3500 
L 1159 2956 
Q 1341 3275 1631 3429 
Q 1922 3584 2338 3584 
Q 2397 3584 2469 3576 
Q 2541 3569 2628 3553 
L 2631 2963 
z
" transform="scale(0.015625)"/>
       <path id="DejaVuSans-71" d="M 947 1747 
Q 947 1113 1208 752 
Q 1469 391 1925 391 
Q 2381 391 2643 752 
Q 2906 1113 2906 1747 
Q 2906 2381 2643 2742 
Q 2381 3103 1925 3103 
Q 1469 3103 1208 2742 
Q 947 2381 947 1747 
z
M 2906 525 
Q 2725 213 2448 61 
Q 2172 -91 1784 -91 
Q 1150 -91 751 415 
Q 353 922 353 1747 
Q 353 2572 751 3078 
Q 1150 3584 1784 3584 
Q 2172 3584 2448 3432 
Q 2725 3281 2906 2969 
L 2906 3500 
L 3481 3500 
L 3481 -1331 
L 2906 -1331 
L 2906 525 
z
" transform="scale(0.015625)"/>
       <path id="DejaVuSans-75" d="M 544 1381 
L 544 3500 
L 1119 3500 
L 1119 1403 
Q 1119 906 1312 657 
Q 1506 409 1894 409 
Q 2359 409 2629 706 
Q 2900 1003 2900 1516 
L 2900 3500 
L 3475 3500 
L 3475 0 
L 2900 0 
L 2900 538 
Q 2691 219 2414 64 
Q 2138 -91 1772 -91 
Q 1169 -91 856 284 
Q 544 659 544 1381 
z
M 1991 3584 
L 1991 3584 
z
" transform="scale(0.015625)"/>
      </defs>
      <use xlink:href="#DejaVuSans-46"/>
      <use xlink:href="#DejaVuSans-72" x="50.269531"/>
      <use xlink:href="#DejaVuSans-65" x="89.132812"/>
      <use xlink:href="#DejaVuSans-71" x="150.65625"/>
      <use xlink:href="#DejaVuSans-75" x="214.132812"/>
      <use xlink:href="#DejaVuSans-65" x="277.511719"/>
      <use xlink:href="#DejaVuSans-6e" x="339.035156"/>
      <use xlink:href="#DejaVuSans-63" x="402.414062"/>
      <use xlink:href="#DejaVuSans-79" x="457.394531"/>
     </g>
    </g>
   </g>
   <g id="patch_103">
    <path d="M 57.6 307.584 
L 57.6 41.472 
" style="fill: none; stroke: #000000; stroke-width: 0.8; stroke-linejoin: miter; stroke-linecap: square"/>
   </g>
   <g id="patch_104">
    <path d="M 414.72 307.584 
L 414.72 41.472 
" style="fill: none; stroke: #000000; stroke-width: 0.8; stroke-linejoin: miter; stroke-linecap: square"/>
   </g>
   <g id="patch_105">
    <path d="M 57.6 307.584 
L 414.72 307.584 
" style="fill: none; stroke: #000000; stroke-width: 0.8; stroke-linejoin: miter; stroke-linecap: square"/>
   </g>
   <g id="patch_106">
    <path d="M 57.6 41.472 
L 414.72 41.472 
" style="fill: none; stroke: #000000; stroke-width: 0.8; stroke-linejoin: miter; stroke-linecap: square"/>
   </g>
   <g id="text_14">
    <!-- Latency histogram -->
    <g transform="translate(180.120937 35.472)scale(0.12 -0.12)">
     <defs>
      <path id="DejaVuSans-68" d="M 3513 2113 
L 3513 0 
L 2938 0 
L 2938 2094 
Q 2938 2591 2744 2837 
Q 2550 3084 2163 3084 
Q 1697 3084 1428 2787 
Q 1159 2491 1159 1978 
L 1159 0 
L 581 0 
L 581 4863 
L 1159 4863 
L 1159 2956 
Q 1366 3272 1645 3428 
Q 1925 3584 2291 3584 
Q 2894 3584 3203 3211 
Q 3513 2838 3513 2113 
z
" transform="scale(0.015625)"/>
      <path id="DejaVuSans-69" d="M 603 3500 
L 1178 3500 
L 1178 0 
L 603 0 
L 603 3500 
z
M 603 4863 
L 1178 4863 
L 1178 4134 
L 603 4134 
L 603 4863 
z
" transform="scale(0.015625)"/>
      <path id="DejaVuSans-6f" d="M 1959 3097 
Q 1497 3097 1228 2736 
Q 959 2375 959 1747 
Q 959 1119 1226 758 
Q 1494 397 1959 397 
Q 2419 397 2687 759 
Q 2956 1122 2956 1747 
Q 2956 2369 2687 2733 
Q 2419 3097 1959 3097 
z
M 1959 3584 
Q 2709 3584 3137 3096 
Q 3566 2609 3566 1747 
Q 3566 888 3137 398 
Q 2709 -91 1959 -91 
Q 1206 -91 779 398 
Q 353 888 353 1747 
Q 353 2609 779 3096 
Q 1206 3584 1959 3584 
z
" transform="scale(0.015625)"/>
      <path id="DejaVuSans-67" d="M 2906 1791 
Q 2906 2416 2648 2759 
Q 2391 3103 1925 3103 
Q 1463 3103 1205 2759 
Q 947 2416 947 1791 
Q 947 1169 1205 825 
Q 1463 481 1925 481 
Q 2391 481 2648 825 
Q 2906 1169 2906 1791 
z
M 3481 434 
Q 3481 -459 3084 -895 
Q 2688 -1331 1869 -1331 
Q 1566 -1331 1297 -1286 
Q 1028 -1241 775 -1147 
L 775 -588 
Q 1028 -725 1275 -790 
Q 1522 -856 1778 -856 
Q 2344 -856 2625 -561 
Q 2906 -266 2906 331 
L 2906 616 
Q 2728 306 2450 153 
Q 2172 0 1784 0 
Q 1141 0 747 490 
Q 353 981 353 1791 
Q 353 2603 747 3093 
Q 1141 3584 1784 3584 
Q 2172 3584 2450 3431 
Q 2728 3278 2906 2969 
L 2906 3500 
L 3481 3500 
L 3481 434 
z
" transform="scale(0.015625)"/>
      <path id="DejaVuSans-6d" d="M 3328 2828 
Q 3544 3216 3844 3400 
Q 4144 3584 4550 3584 
Q 5097 3584 5394 3201 
Q 5691 2819 5691 2113 
L 5691 0 
L 5113 0 
L 5113 2094 
Q 5113 2597 4934 2840 
Q 4756 3084 4391 3084 
Q 3944 3084 3684 2787 
Q 3425 2491 3425 1978 
L 3425 0 
L 2847 0 
L 2847 2094 
Q 2847 2600 2669 2842 
Q 2491 3084 2119 3084 
Q 1678 3084 1418 2786 
Q 1159 2488 1159 1978 
L 1159 0 
L 581 0 
L 581 3500 
L 1159 3500 
L 1159 2956 
Q 1356 3278 1631 3431 
Q 1906 3584 2284 3584 
Q 2666 3584 2933 3390 
Q 3200 3197 3328 2828 
z
" transform="scale(0.015625)"/>
     </defs>
     <use xlink:href="#DejaVuSans-4c"/>
     <use xlink:href="#DejaVuSans-61" x="55.712891"/>
     <use xlink:href="#DejaVuSans-74" x="116.992188"/>
     <use xlink:href="#DejaVuSans-65" x="156.201172"/>
     <use xlink:href="#DejaVuSans-6e" x="217.724609"/>
     <use xlink:href="#DejaVuSans-63" x="281.103516"/>
     <use xlink:href="#DejaVuSans-79" x="336.083984"/>
     <use xlink:href="#DejaVuSans-20" x="395.263672"/>
     <use xlink:href="#DejaVuSans-68" x="427.050781"/>
     <use xlink:href="#DejaVuSans-69" x="490.429688"/>
     <use xlink:href="#DejaVuSans-73" x="518.212891"/>
     <use xlink:href="#DejaVuSans-74" x="570.3125"/>
     <use xlink:href="#DejaVuSans-6f" x="609.521484"/>
     <use xlink:href="#DejaVuSans-67" x="670.703125"/>
     <use xlink:href="#DejaVuSans-72" x="734.179688"/>
     <use xlink:href="#DejaVuSans-61" x="775.292969"/>
     <use xlink:href="#DejaVuSans-6d" x="836.572266"/>
    </g>
   </g>
  </g>
 </g>
 <defs>
  <clipPath id="p3e41c9cb73">
   <rect x="57.6" y="41.472" width="357.12" height="266.112"/>
  </clipPath>
 </defs>
</svg>
