<?xml version="1.0" encoding="utf-8" standalone="no"?>
<!DOCTYPE svg PUBLIC "-//W3C//DTD SVG 1.1//EN"
  "http://www.w3.org/Graphics/SVG/1.1/DTD/svg11.dtd">
<svg xmlns:xlink="http://www.w3.org/1999/xlink" width="460.8pt" height="345.6pt" viewBox="0 0 460.8 345.6" xmlns="http://www.w3.org/2000/svg" version="1.1">
 <metadata>
  <rdf:RDF xmlns:dc="http://purl.org/dc/elements/1.1/" xmlns:cc="http://creativecommons.org/ns#" xmlns:rdf="http://www.w3.org/1999/02/22-rdf-syntax-ns#">
   <cc:Work>
    <dc:type rdf:resource="http://purl.org/dc/dcmitype/StillImage"/>
    <dc:date>2022-08-08T15:58:30.605370</dc:date>
    <dc:format>image/svg+xml</dc:format>
    <dc:creator>
     <cc:Agent>
      <dc:title>Matplotlib v3.5.1, https://matplotlib.org/</dc:title>
     </cc:Agent>
    </dc:creator>
   </cc:Work>
  </rdf:RDF>
 </metadata>
 <defs>
  <style type="text/css">*{stroke-linejoin: round; stroke-linecap: butt}</style>
 </defs>
 <g id="figure_1">
  <g id="patch_1">
   <path d="M 0 345.6 
L 460.8 345.6 
L 460.8 0 
L 0 0 
z
" style="fill: #ffffff"/>
  </g>
  <g id="axes_1">
   <g id="patch_2">
    <path d="M 57.6 307.584 
L 414.72 307.584 
L 414.72 41.472 
L 57.6 41.472 
z
" style="fill: #ffffff"/>
   </g>
   <g id="matplotlib.axis_1">
    <g id="xtick_1">
     <g id="line2d_1">
      <defs>
       <path id="m34f7c4639e" d="M 0 0 
L 0 3.5 
" style="stroke: #000000; stroke-width: 0.8"/>
      </defs>
      <g>
       <use xlink:href="#m34f7c4639e" x="73.832727" y="307.584" style="stroke: #000000; stroke-width: 0.8"/>
      </g>
     </g>
     <g id="text_1">
      <!-- 0.0 -->
      <g transform="translate(65.881165 322.182437)scale(0.1 -0.1)">
       <defs>
        <path id="DejaVuSans-30" d="M 2034 4250 
Q 1547 4250 1301 3770 
Q 1056 3291 1056 2328 
Q 1056 1369 1301 889 
Q 1547 409 2034 409 
Q 2525 409 2770 889 
Q 3016 1369 3016 2328 
Q 3016 3291 2770 3770 
Q 2525 4250 2034 4250 
z
M 2034 4750 
Q 2819 4750 3233 4129 
Q 3647 3509 3647 2328 
Q 3647 1150 3233 529 
Q 2819 -91 2034 -91 
Q 1250 -91 836 529 
Q 422 1150 422 2328 
Q 422 3509 836 4129 
Q 1250 4750 2034 4750 
z
" transform="scale(0.015625)"/>
        <path id="DejaVuSans-2e" d="M 684 794 
L 1344 794 
L 1344 0 
L 684 0 
L 684 794 
z
" transform="scale(0.015625)"/>
       </defs>
       <use xlink:href="#DejaVuSans-30"/>
       <use xlink:href="#DejaVuSans-2e" x="63.623047"/>
       <use xlink:href="#DejaVuSans-30" x="95.410156"/>
      </g>
     </g>
    </g>
    <g id="xtick_2">
     <g id="line2d_2">
      <g>
       <use xlink:href="#m34f7c4639e" x="138.828632" y="307.584" style="stroke: #000000; stroke-width: 0.8"/>
      </g>
     </g>
     <g id="text_2">
      <!-- 0.2 -->
      <g transform="translate(130.87707 322.182437)scale(0.1 -0.1)">
       <defs>
        <path id="DejaVuSans-32" d="M 1228 531 
L 3431 531 
L 3431 0 
L 469 0 
L 469 531 
Q 828 903 1448 1529 
Q 2069 2156 2228 2338 
Q 2531 2678 2651 2914 
Q 2772 3150 2772 3378 
Q 2772 3750 2511 3984 
Q 2250 4219 1831 4219 
Q 1534 4219 1204 4116 
Q 875 4013 500 3803 
L 500 4441 
Q 881 4594 1212 4672 
Q 1544 4750 1819 4750 
Q 2544 4750 2975 4387 
Q 3406 4025 3406 3419 
Q 3406 3131 3298 2873 
Q 3191 2616 2906 2266 
Q 2828 2175 2409 1742 
Q 1991 1309 1228 531 
z
" transform="scale(0.015625)"/>
       </defs>
       <use xlink:href="#DejaVuSans-30"/>
       <use xlink:href="#DejaVuSans-2e" x="63.623047"/>
       <use xlink:href="#DejaVuSans-32" x="95.410156"/>
      </g>
     </g>
    </g>
    <g id="xtick_3">
     <g id="line2d_3">
      <g>
       <use xlink:href="#m34f7c4639e" x="203.824537" y="307.584" style="stroke: #000000; stroke-width: 0.8"/>
      </g>
     </g>
     <g id="text_3">
      <!-- 0.4 -->
      <g transform="translate(195.872975 322.182437)scale(0.1 -0.1)">
       <defs>
        <path id="DejaVuSans-34" d="M 2419 4116 
L 825 1625 
L 2419 1625 
L 2419 4116 
z
M 2253 4666 
L 3047 4666 
L 3047 1625 
L 3713 1625 
L 3713 1100 
L 3047 1100 
L 3047 0 
L 2419 0 
L 2419 1100 
L 313 1100 
L 313 1709 
L 2253 4666 
z
" transform="scale(0.015625)"/>
       </defs>
       <use xlink:href="#DejaVuSans-30"/>
       <use xlink:href="#DejaVuSans-2e" x="63.623047"/>
       <use xlink:href="#DejaVuSans-34" x="95.410156"/>
      </g>
     </g>
    </g>
    <g id="xtick_4">
     <g id="line2d_4">
      <g>
       <use xlink:href="#m34f7c4639e" x="268.820442" y="307.584" style="stroke: #000000; stroke-width: 0.8"/>
      </g>
     </g>
     <g id="text_4">
      <!-- 0.6 -->
      <g transform="translate(260.86888 322.182437)scale(0.1 -0.1)">
       <defs>
        <path id="DejaVuSans-36" d="M 2113 2584 
Q 1688 2584 1439 2293 
Q 1191 2003 1191 1497 
Q 1191 994 1439 701 
Q 1688 409 2113 409 
Q 2538 409 2786 701 
Q 3034 994 3034 1497 
Q 3034 2003 2786 2293 
Q 2538 2584 2113 2584 
z
M 3366 4563 
L 3366 3988 
Q 3128 4100 2886 4159 
Q 2644 4219 2406 4219 
Q 1781 4219 1451 3797 
Q 1122 3375 1075 2522 
Q 1259 2794 1537 2939 
Q 1816 3084 2150 3084 
Q 2853 3084 3261 2657 
Q 3669 2231 3669 1497 
Q 3669 778 3244 343 
Q 2819 -91 2113 -91 
Q 1303 -91 875 529 
Q 447 1150 447 2328 
Q 447 3434 972 4092 
Q 1497 4750 2381 4750 
Q 2619 4750 2861 4703 
Q 3103 4656 3366 4563 
z
" transform="scale(0.015625)"/>
       </defs>
       <use xlink:href="#DejaVuSans-30"/>
       <use xlink:href="#DejaVuSans-2e" x="63.623047"/>
       <use xlink:href="#DejaVuSans-36" x="95.410156"/>
      </g>
     </g>
    </g>
    <g id="xtick_5">
     <g id="line2d_5">
      <g>
       <use xlink:href="#m34f7c4639e" x="333.816347" y="307.584" style="stroke: #000000; stroke-width: 0.8"/>
      </g>
     </g>
     <g id="text_5">
      <!-- 0.8 -->
      <g transform="translate(325.864785 322.182437)scale(0.1 -0.1)">
       <defs>
        <path id="DejaVuSans-38" d="M 2034 2216 
Q 1584 2216 1326 1975 
Q 1069 1734 1069 1313 
Q 1069 891 1326 650 
Q 1584 409 2034 409 
Q 2484 409 2743 651 
Q 3003 894 3003 1313 
Q 3003 1734 2745 1975 
Q 2488 2216 2034 2216 
z
M 1403 2484 
Q 997 2584 770 2862 
Q 544 3141 544 3541 
Q 544 4100 942 4425 
Q 1341 4750 2034 4750 
Q 2731 4750 3128 4425 
Q 3525 4100 3525 3541 
Q 3525 3141 3298 2862 
Q 3072 2584 2669 2484 
Q 3125 2378 3379 2068 
Q 3634 1759 3634 1313 
Q 3634 634 3220 271 
Q 2806 -91 2034 -91 
Q 1263 -91 848 271 
Q 434 634 434 1313 
Q 434 1759 690 2068 
Q 947 2378 1403 2484 
z
M 1172 3481 
Q 1172 3119 1398 2916 
Q 1625 2713 2034 2713 
Q 2441 2713 2670 2916 
Q 2900 3119 2900 3481 
Q 2900 3844 2670 4047 
Q 2441 4250 2034 4250 
Q 1625 4250 1398 4047 
Q 1172 3844 1172 3481 
z
" transform="scale(0.015625)"/>
       </defs>
       <use xlink:href="#DejaVuSans-30"/>
       <use xlink:href="#DejaVuSans-2e" x="63.623047"/>
       <use xlink:href="#DejaVuSans-38" x="95.410156"/>
      </g>
     </g>
    </g>
    <g id="xtick_6">
     <g id="line2d_6">
      <g>
       <use xlink:href="#m34f7c4639e" x="398.812252" y="307.584" style="stroke: #000000; stroke-width: 0.8"/>
      </g>
     </g>
     <g id="text_6">
      <!-- 1.0 -->
      <g transform="translate(390.86069 322.182437)scale(0.1 -0.1)">
       <defs>
        <path id="DejaVuSans-31" d="M 794 531 
L 1825 531 
L 1825 4091 
L 703 3866 
L 703 4441 
L 1819 4666 
L 2450 4666 
L 2450 531 
L 3481 531 
L 3481 0 
L 794 0 
L 794 531 
z
" transform="scale(0.015625)"/>
       </defs>
       <use xlink:href="#DejaVuSans-31"/>
       <use xlink:href="#DejaVuSans-2e" x="63.623047"/>
       <use xlink:href="#DejaVuSans-30" x="95.410156"/>
      </g>
     </g>
    </g>
    <g id="text_7">
     <!-- Time (ns) -->
     <g transform="translate(212.662344 335.860562)scale(0.1 -0.1)">
      <defs>
       <path id="DejaVuSans-54" d="M -19 4666 
L 3928 4666 
L 3928 4134 
L 2272 4134 
L 2272 0 
L 1638 0 
L 1638 4134 
L -19 4134 
L -19 4666 
z
" transform="scale(0.015625)"/>
       <path id="DejaVuSans-69" d="M 603 3500 
L 1178 3500 
L 1178 0 
L 603 0 
L 603 3500 
z
M 603 4863 
L 1178 4863 
L 1178 4134 
L 603 4134 
L 603 4863 
z
" transform="scale(0.015625)"/>
       <path id="DejaVuSans-6d" d="M 3328 2828 
Q 3544 3216 3844 3400 
Q 4144 3584 4550 3584 
Q 5097 3584 5394 3201 
Q 5691 2819 5691 2113 
L 5691 0 
L 5113 0 
L 5113 2094 
Q 5113 2597 4934 2840 
Q 4756 3084 4391 3084 
Q 3944 3084 3684 2787 
Q 3425 2491 3425 1978 
L 3425 0 
L 2847 0 
L 2847 2094 
Q 2847 2600 2669 2842 
Q 2491 3084 2119 3084 
Q 1678 3084 1418 2786 
Q 1159 2488 1159 1978 
L 1159 0 
L 581 0 
L 581 3500 
L 1159 3500 
L 1159 2956 
Q 1356 3278 1631 3431 
Q 1906 3584 2284 3584 
Q 2666 3584 2933 3390 
Q 3200 3197 3328 2828 
z
" transform="scale(0.015625)"/>
       <path id="DejaVuSans-65" d="M 3597 1894 
L 3597 1613 
L 953 1613 
Q 991 1019 1311 708 
Q 1631 397 2203 397 
Q 2534 397 2845 478 
Q 3156 559 3463 722 
L 3463 178 
Q 3153 47 2828 -22 
Q 2503 -91 2169 -91 
Q 1331 -91 842 396 
Q 353 884 353 1716 
Q 353 2575 817 3079 
Q 1281 3584 2069 3584 
Q 2775 3584 3186 3129 
Q 3597 2675 3597 1894 
z
M 3022 2063 
Q 3016 2534 2758 2815 
Q 2500 3097 2075 3097 
Q 1594 3097 1305 2825 
Q 1016 2553 972 2059 
L 3022 2063 
z
" transform="scale(0.015625)"/>
       <path id="DejaVuSans-20" transform="scale(0.015625)"/>
       <path id="DejaVuSans-28" d="M 1984 4856 
Q 1566 4138 1362 3434 
Q 1159 2731 1159 2009 
Q 1159 1288 1364 580 
Q 1569 -128 1984 -844 
L 1484 -844 
Q 1016 -109 783 600 
Q 550 1309 550 2009 
Q 550 2706 781 3412 
Q 1013 4119 1484 4856 
L 1984 4856 
z
" transform="scale(0.015625)"/>
       <path id="DejaVuSans-6e" d="M 3513 2113 
L 3513 0 
L 2938 0 
L 2938 2094 
Q 2938 2591 2744 2837 
Q 2550 3084 2163 3084 
Q 1697 3084 1428 2787 
Q 1159 2491 1159 1978 
L 1159 0 
L 581 0 
L 581 3500 
L 1159 3500 
L 1159 2956 
Q 1366 3272 1645 3428 
Q 1925 3584 2291 3584 
Q 2894 3584 3203 3211 
Q 3513 2838 3513 2113 
z
" transform="scale(0.015625)"/>
       <path id="DejaVuSans-73" d="M 2834 3397 
L 2834 2853 
Q 2591 2978 2328 3040 
Q 2066 3103 1784 3103 
Q 1356 3103 1142 2972 
Q 928 2841 928 2578 
Q 928 2378 1081 2264 
Q 1234 2150 1697 2047 
L 1894 2003 
Q 2506 1872 2764 1633 
Q 3022 1394 3022 966 
Q 3022 478 2636 193 
Q 2250 -91 1575 -91 
Q 1294 -91 989 -36 
Q 684 19 347 128 
L 347 722 
Q 666 556 975 473 
Q 1284 391 1588 391 
Q 1994 391 2212 530 
Q 2431 669 2431 922 
Q 2431 1156 2273 1281 
Q 2116 1406 1581 1522 
L 1381 1569 
Q 847 1681 609 1914 
Q 372 2147 372 2553 
Q 372 3047 722 3315 
Q 1072 3584 1716 3584 
Q 2034 3584 2315 3537 
Q 2597 3491 2834 3397 
z
" transform="scale(0.015625)"/>
       <path id="DejaVuSans-29" d="M 513 4856 
L 1013 4856 
Q 1481 4119 1714 3412 
Q 1947 2706 1947 2009 
Q 1947 1309 1714 600 
Q 1481 -109 1013 -844 
L 513 -844 
Q 928 -128 1133 580 
Q 1338 1288 1338 2009 
Q 1338 2731 1133 3434 
Q 928 4138 513 4856 
z
" transform="scale(0.015625)"/>
      </defs>
      <use xlink:href="#DejaVuSans-54"/>
      <use xlink:href="#DejaVuSans-69" x="57.958984"/>
      <use xlink:href="#DejaVuSans-6d" x="85.742188"/>
      <use xlink:href="#DejaVuSans-65" x="183.154297"/>
      <use xlink:href="#DejaVuSans-20" x="244.677734"/>
      <use xlink:href="#DejaVuSans-28" x="276.464844"/>
      <use xlink:href="#DejaVuSans-6e" x="315.478516"/>
      <use xlink:href="#DejaVuSans-73" x="378.857422"/>
      <use xlink:href="#DejaVuSans-29" x="430.957031"/>
     </g>
    </g>
    <g id="text_8">
     <!-- 1e9 -->
     <g transform="translate(395.841875 334.860562)scale(0.1 -0.1)">
      <defs>
       <path id="DejaVuSans-39" d="M 703 97 
L 703 672 
Q 941 559 1184 500 
Q 1428 441 1663 441 
Q 2288 441 2617 861 
Q 2947 1281 2994 2138 
Q 2813 1869 2534 1725 
Q 2256 1581 1919 1581 
Q 1219 1581 811 2004 
Q 403 2428 403 3163 
Q 403 3881 828 4315 
Q 1253 4750 1959 4750 
Q 2769 4750 3195 4129 
Q 3622 3509 3622 2328 
Q 3622 1225 3098 567 
Q 2575 -91 1691 -91 
Q 1453 -91 1209 -44 
Q 966 3 703 97 
z
M 1959 2075 
Q 2384 2075 2632 2365 
Q 2881 2656 2881 3163 
Q 2881 3666 2632 3958 
Q 2384 4250 1959 4250 
Q 1534 4250 1286 3958 
Q 1038 3666 1038 3163 
Q 1038 2656 1286 2365 
Q 1534 2075 1959 2075 
z
" transform="scale(0.015625)"/>
      </defs>
      <use xlink:href="#DejaVuSans-31"/>
      <use xlink:href="#DejaVuSans-65" x="63.623047"/>
      <use xlink:href="#DejaVuSans-39" x="125.146484"/>
     </g>
    </g>
   </g>
   <g id="matplotlib.axis_2">
    <g id="ytick_1">
     <g id="line2d_7">
      <defs>
       <path id="mf1cc724ada" d="M 0 0 
L -3.5 0 
" style="stroke: #000000; stroke-width: 0.8"/>
      </defs>
      <g>
       <use xlink:href="#mf1cc724ada" x="57.6" y="298.441491" style="stroke: #000000; stroke-width: 0.8"/>
      </g>
     </g>
     <g id="text_9">
      <!-- 2500 -->
      <g transform="translate(25.15 302.24071)scale(0.1 -0.1)">
       <defs>
        <path id="DejaVuSans-35" d="M 691 4666 
L 3169 4666 
L 3169 4134 
L 1269 4134 
L 1269 2991 
Q 1406 3038 1543 3061 
Q 1681 3084 1819 3084 
Q 2600 3084 3056 2656 
Q 3513 2228 3513 1497 
Q 3513 744 3044 326 
Q 2575 -91 1722 -91 
Q 1428 -91 1123 -41 
Q 819 9 494 109 
L 494 744 
Q 775 591 1075 516 
Q 1375 441 1709 441 
Q 2250 441 2565 725 
Q 2881 1009 2881 1497 
Q 2881 1984 2565 2268 
Q 2250 2553 1709 2553 
Q 1456 2553 1204 2497 
Q 953 2441 691 2322 
L 691 4666 
z
" transform="scale(0.015625)"/>
       </defs>
       <use xlink:href="#DejaVuSans-32"/>
       <use xlink:href="#DejaVuSans-35" x="63.623047"/>
       <use xlink:href="#DejaVuSans-30" x="127.246094"/>
       <use xlink:href="#DejaVuSans-30" x="190.869141"/>
      </g>
     </g>
    </g>
    <g id="ytick_2">
     <g id="line2d_8">
      <g>
       <use xlink:href="#mf1cc724ada" x="57.6" y="268.180309" style="stroke: #000000; stroke-width: 0.8"/>
      </g>
     </g>
     <g id="text_10">
      <!-- 5000 -->
      <g transform="translate(25.15 271.979527)scale(0.1 -0.1)">
       <use xlink:href="#DejaVuSans-35"/>
       <use xlink:href="#DejaVuSans-30" x="63.623047"/>
       <use xlink:href="#DejaVuSans-30" x="127.246094"/>
       <use xlink:href="#DejaVuSans-30" x="190.869141"/>
      </g>
     </g>
    </g>
    <g id="ytick_3">
     <g id="line2d_9">
      <g>
       <use xlink:href="#mf1cc724ada" x="57.6" y="237.919126" style="stroke: #000000; stroke-width: 0.8"/>
      </g>
     </g>
     <g id="text_11">
      <!-- 7500 -->
      <g transform="translate(25.15 241.718345)scale(0.1 -0.1)">
       <defs>
        <path id="DejaVuSans-37" d="M 525 4666 
L 3525 4666 
L 3525 4397 
L 1831 0 
L 1172 0 
L 2766 4134 
L 525 4134 
L 525 4666 
z
" transform="scale(0.015625)"/>
       </defs>
       <use xlink:href="#DejaVuSans-37"/>
       <use xlink:href="#DejaVuSans-35" x="63.623047"/>
       <use xlink:href="#DejaVuSans-30" x="127.246094"/>
       <use xlink:href="#DejaVuSans-30" x="190.869141"/>
      </g>
     </g>
    </g>
    <g id="ytick_4">
     <g id="line2d_10">
      <g>
       <use xlink:href="#mf1cc724ada" x="57.6" y="207.657943" style="stroke: #000000; stroke-width: 0.8"/>
      </g>
     </g>
     <g id="text_12">
      <!-- 10000 -->
      <g transform="translate(18.7875 211.457162)scale(0.1 -0.1)">
       <use xlink:href="#DejaVuSans-31"/>
       <use xlink:href="#DejaVuSans-30" x="63.623047"/>
       <use xlink:href="#DejaVuSans-30" x="127.246094"/>
       <use xlink:href="#DejaVuSans-30" x="190.869141"/>
       <use xlink:href="#DejaVuSans-30" x="254.492188"/>
      </g>
     </g>
    </g>
    <g id="ytick_5">
     <g id="line2d_11">
      <g>
       <use xlink:href="#mf1cc724ada" x="57.6" y="177.39676" style="stroke: #000000; stroke-width: 0.8"/>
      </g>
     </g>
     <g id="text_13">
      <!-- 12500 -->
      <g transform="translate(18.7875 181.195979)scale(0.1 -0.1)">
       <use xlink:href="#DejaVuSans-31"/>
       <use xlink:href="#DejaVuSans-32" x="63.623047"/>
       <use xlink:href="#DejaVuSans-35" x="127.246094"/>
       <use xlink:href="#DejaVuSans-30" x="190.869141"/>
       <use xlink:href="#DejaVuSans-30" x="254.492188"/>
      </g>
     </g>
    </g>
    <g id="ytick_6">
     <g id="line2d_12">
      <g>
       <use xlink:href="#mf1cc724ada" x="57.6" y="147.135577" style="stroke: #000000; stroke-width: 0.8"/>
      </g>
     </g>
     <g id="text_14">
      <!-- 15000 -->
      <g transform="translate(18.7875 150.934796)scale(0.1 -0.1)">
       <use xlink:href="#DejaVuSans-31"/>
       <use xlink:href="#DejaVuSans-35" x="63.623047"/>
       <use xlink:href="#DejaVuSans-30" x="127.246094"/>
       <use xlink:href="#DejaVuSans-30" x="190.869141"/>
       <use xlink:href="#DejaVuSans-30" x="254.492188"/>
      </g>
     </g>
    </g>
    <g id="ytick_7">
     <g id="line2d_13">
      <g>
       <use xlink:href="#mf1cc724ada" x="57.6" y="116.874394" style="stroke: #000000; stroke-width: 0.8"/>
      </g>
     </g>
     <g id="text_15">
      <!-- 17500 -->
      <g transform="translate(18.7875 120.673613)scale(0.1 -0.1)">
       <use xlink:href="#DejaVuSans-31"/>
       <use xlink:href="#DejaVuSans-37" x="63.623047"/>
       <use xlink:href="#DejaVuSans-35" x="127.246094"/>
       <use xlink:href="#DejaVuSans-30" x="190.869141"/>
       <use xlink:href="#DejaVuSans-30" x="254.492188"/>
      </g>
     </g>
    </g>
    <g id="ytick_8">
     <g id="line2d_14">
      <g>
       <use xlink:href="#mf1cc724ada" x="57.6" y="86.613212" style="stroke: #000000; stroke-width: 0.8"/>
      </g>
     </g>
     <g id="text_16">
      <!-- 20000 -->
      <g transform="translate(18.7875 90.41243)scale(0.1 -0.1)">
       <use xlink:href="#DejaVuSans-32"/>
       <use xlink:href="#DejaVuSans-30" x="63.623047"/>
       <use xlink:href="#DejaVuSans-30" x="127.246094"/>
       <use xlink:href="#DejaVuSans-30" x="190.869141"/>
       <use xlink:href="#DejaVuSans-30" x="254.492188"/>
      </g>
     </g>
    </g>
    <g id="ytick_9">
     <g id="line2d_15">
      <g>
       <use xlink:href="#mf1cc724ada" x="57.6" y="56.352029" style="stroke: #000000; stroke-width: 0.8"/>
      </g>
     </g>
     <g id="text_17">
      <!-- 22500 -->
      <g transform="translate(18.7875 60.151248)scale(0.1 -0.1)">
       <use xlink:href="#DejaVuSans-32"/>
       <use xlink:href="#DejaVuSans-32" x="63.623047"/>
       <use xlink:href="#DejaVuSans-35" x="127.246094"/>
       <use xlink:href="#DejaVuSans-30" x="190.869141"/>
       <use xlink:href="#DejaVuSans-30" x="254.492188"/>
      </g>
     </g>
    </g>
    <g id="text_18">
     <!-- Latency (ns) -->
     <g transform="translate(12.707812 205.556125)rotate(-90)scale(0.1 -0.1)">
      <defs>
       <path id="DejaVuSans-4c" d="M 628 4666 
L 1259 4666 
L 1259 531 
L 3531 531 
L 3531 0 
L 628 0 
L 628 4666 
z
" transform="scale(0.015625)"/>
       <path id="DejaVuSans-61" d="M 2194 1759 
Q 1497 1759 1228 1600 
Q 959 1441 959 1056 
Q 959 750 1161 570 
Q 1363 391 1709 391 
Q 2188 391 2477 730 
Q 2766 1069 2766 1631 
L 2766 1759 
L 2194 1759 
z
M 3341 1997 
L 3341 0 
L 2766 0 
L 2766 531 
Q 2569 213 2275 61 
Q 1981 -91 1556 -91 
Q 1019 -91 701 211 
Q 384 513 384 1019 
Q 384 1609 779 1909 
Q 1175 2209 1959 2209 
L 2766 2209 
L 2766 2266 
Q 2766 2663 2505 2880 
Q 2244 3097 1772 3097 
Q 1472 3097 1187 3025 
Q 903 2953 641 2809 
L 641 3341 
Q 956 3463 1253 3523 
Q 1550 3584 1831 3584 
Q 2591 3584 2966 3190 
Q 3341 2797 3341 1997 
z
" transform="scale(0.015625)"/>
       <path id="DejaVuSans-74" d="M 1172 4494 
L 1172 3500 
L 2356 3500 
L 2356 3053 
L 1172 3053 
L 1172 1153 
Q 1172 725 1289 603 
Q 1406 481 1766 481 
L 2356 481 
L 2356 0 
L 1766 0 
Q 1100 0 847 248 
Q 594 497 594 1153 
L 594 3053 
L 172 3053 
L 172 3500 
L 594 3500 
L 594 4494 
L 1172 4494 
z
" transform="scale(0.015625)"/>
       <path id="DejaVuSans-63" d="M 3122 3366 
L 3122 2828 
Q 2878 2963 2633 3030 
Q 2388 3097 2138 3097 
Q 1578 3097 1268 2742 
Q 959 2388 959 1747 
Q 959 1106 1268 751 
Q 1578 397 2138 397 
Q 2388 397 2633 464 
Q 2878 531 3122 666 
L 3122 134 
Q 2881 22 2623 -34 
Q 2366 -91 2075 -91 
Q 1284 -91 818 406 
Q 353 903 353 1747 
Q 353 2603 823 3093 
Q 1294 3584 2113 3584 
Q 2378 3584 2631 3529 
Q 2884 3475 3122 3366 
z
" transform="scale(0.015625)"/>
       <path id="DejaVuSans-79" d="M 2059 -325 
Q 1816 -950 1584 -1140 
Q 1353 -1331 966 -1331 
L 506 -1331 
L 506 -850 
L 844 -850 
Q 1081 -850 1212 -737 
Q 1344 -625 1503 -206 
L 1606 56 
L 191 3500 
L 800 3500 
L 1894 763 
L 2988 3500 
L 3597 3500 
L 2059 -325 
z
" transform="scale(0.015625)"/>
      </defs>
      <use xlink:href="#DejaVuSans-4c"/>
      <use xlink:href="#DejaVuSans-61" x="55.712891"/>
      <use xlink:href="#DejaVuSans-74" x="116.992188"/>
      <use xlink:href="#DejaVuSans-65" x="156.201172"/>
      <use xlink:href="#DejaVuSans-6e" x="217.724609"/>
      <use xlink:href="#DejaVuSans-63" x="281.103516"/>
      <use xlink:href="#DejaVuSans-79" x="336.083984"/>
      <use xlink:href="#DejaVuSans-20" x="395.263672"/>
      <use xlink:href="#DejaVuSans-28" x="427.050781"/>
      <use xlink:href="#DejaVuSans-6e" x="466.064453"/>
      <use xlink:href="#DejaVuSans-73" x="529.443359"/>
      <use xlink:href="#DejaVuSans-29" x="581.542969"/>
     </g>
    </g>
   </g>
   <g id="line2d_16">
    <path d="M 73.832727 53.568 
L 74.157707 282.814617 
L 74.482686 279.461678 
L 74.807666 282.378856 
L 75.132645 282.826721 
L 75.457625 288.709495 
L 75.782604 285.04184 
L 76.107584 284.993422 
L 76.432563 284.291362 
L 76.757543 290.864091 
L 77.082523 285.707586 
L 77.407502 287.111705 
L 77.732482 287.898495 
L 78.057461 289.932047 
L 78.382441 286.07072 
L 78.70742 284.884482 
L 79.0324 286.300705 
L 79.357379 290.379912 
L 79.682359 285.96178 
L 80.007338 284.606079 
L 80.332318 286.07072 
L 80.657297 290.827778 
L 80.982277 278.723305 
L 81.957215 291.578255 
L 82.282195 285.417078 
L 82.607174 285.71969 
L 82.932154 285.71969 
L 83.257133 289.169465 
L 83.582113 285.925466 
L 83.907093 285.743899 
L 84.232072 286.300705 
L 84.557052 289.108943 
L 84.882031 286.688048 
L 85.207011 285.634959 
L 85.53199 286.300705 
L 85.85697 292.026121 
L 86.506929 285.320243 
L 86.831908 285.901257 
L 87.156888 291.275643 
L 87.481867 286.312809 
L 88.131826 284.860273 
L 88.456806 289.181569 
L 88.781785 286.082824 
L 89.106765 286.373332 
L 89.431744 285.211302 
L 89.756724 286.349123 
L 90.081704 286.736466 
L 90.406683 288.12848 
L 90.731663 287.9106 
L 91.056642 290.137823 
L 91.381622 285.005526 
L 91.706601 284.158213 
L 92.031581 286.409645 
L 92.35656 291.384584 
L 92.68154 285.50181 
L 93.006519 286.736466 
L 93.331499 286.361227 
L 93.656478 289.39945 
L 93.981458 286.433854 
L 94.306437 287.390107 
L 94.631417 287.390107 
L 94.956396 290.246763 
L 95.281376 285.066049 
L 95.606355 286.022302 
L 95.931335 285.61075 
L 96.256314 289.786793 
L 96.581294 285.562332 
L 97.231253 285.756004 
L 97.556233 290.8883 
L 97.881212 284.678705 
L 98.856151 290.077301 
L 99.18113 285.707586 
L 99.831089 286.143347 
L 100.156069 290.101509 
L 100.481048 285.768108 
L 100.806028 286.542794 
L 101.131007 285.985989 
L 101.455987 291.154599 
L 101.780966 285.985989 
L 102.105946 285.187093 
L 102.430925 285.50181 
L 102.755905 291.360375 
L 103.080885 287.123809 
L 103.405864 285.901257 
L 103.730844 285.816526 
L 104.055823 290.089405 
L 104.380803 284.848168 
L 104.705782 285.489705 
L 105.030762 286.893824 
L 105.355741 290.343599 
L 105.680721 286.252287 
L 106.0057 286.143347 
L 106.33068 285.647063 
L 106.655659 288.406883 
L 106.980639 288.140585 
L 107.305618 288.249525 
L 107.630598 284.945004 
L 107.955577 290.42833 
L 108.280557 285.731795 
L 108.605536 286.905929 
L 108.930516 284.69081 
L 109.255495 291.433002 
L 109.580475 285.889153 
L 109.905455 285.102362 
L 110.230434 285.985989 
L 110.555414 288.842644 
L 111.205373 286.857511 
L 111.855332 290.295181 
L 112.180311 286.107033 
L 112.505291 284.400303 
L 112.83027 286.445959 
L 113.15525 290.343599 
L 113.480229 286.167556 
L 113.805209 286.397541 
L 114.130188 284.497138 
L 114.455168 288.467406 
L 114.780147 285.199198 
L 115.105127 288.818435 
L 115.430106 287.426421 
L 115.755086 290.948823 
L 116.080066 285.683377 
L 116.405045 285.852839 
L 116.730025 284.666601 
L 117.055004 291.081972 
L 117.379984 285.949675 
L 117.704963 286.88172 
L 118.029943 286.264391 
L 118.354922 290.585688 
L 118.679902 286.131242 
L 119.004881 285.707586 
L 119.329861 288.334256 
L 119.65484 289.217883 
L 119.97982 287.014869 
L 120.304799 272.138471 
L 120.629779 284.218736 
L 120.954758 289.254196 
L 121.279738 285.513914 
L 121.929697 286.579108 
L 122.254676 288.806331 
L 122.579656 286.942242 
L 122.904636 286.445959 
L 123.229615 285.174989 
L 123.554595 291.021449 
L 123.879574 288.745808 
L 124.204554 285.429183 
L 124.529533 285.840735 
L 124.854513 290.077301 
L 125.179492 285.005526 
L 125.829451 287.607988 
L 126.154431 291.033554 
L 126.47941 285.344452 
L 126.80439 285.647063 
L 127.129369 286.857511 
L 127.454349 289.229987 
L 127.779328 286.482272 
L 128.104308 288.467406 
L 128.429287 286.300705 
L 128.754267 290.065196 
L 129.079247 285.199198 
L 129.404226 286.688048 
L 129.729206 286.337018 
L 130.054185 289.242092 
L 130.379165 286.167556 
L 130.704144 286.058615 
L 131.029124 286.506481 
L 131.354103 289.944151 
L 131.679083 285.247616 
L 132.004062 288.080062 
L 132.329042 288.624764 
L 132.654021 290.864091 
L 132.979001 285.877048 
L 133.30398 284.715019 
L 133.62896 286.482272 
L 133.953939 291.215121 
L 134.278919 285.756004 
L 134.603898 285.417078 
L 134.928878 286.688048 
L 135.253857 290.343599 
L 135.578837 285.005526 
L 135.903817 284.678705 
L 136.228796 288.866853 
L 136.553776 289.581017 
L 136.878755 285.453392 
L 137.203735 284.460825 
L 137.528714 286.857511 
L 137.853694 290.597793 
L 138.178673 286.07072 
L 138.503653 285.913362 
L 138.828632 284.860273 
L 139.153612 291.420897 
L 139.478591 285.417078 
L 139.803571 284.957108 
L 140.12855 286.131242 
L 140.45353 289.532599 
L 141.103489 286.191765 
L 141.428468 286.046511 
L 141.753448 291.178808 
L 142.078428 286.034406 
L 142.403407 287.075391 
L 142.728387 286.082824 
L 143.053366 289.302614 
L 143.378346 285.25972 
L 143.703325 285.586541 
L 144.028305 285.332347 
L 144.353284 290.379912 
L 145.328223 286.131242 
L 145.653202 290.755151 
L 145.978182 285.925466 
L 146.303161 286.240183 
L 146.628141 286.857511 
L 146.95312 290.186241 
L 147.2781 285.852839 
L 147.603079 285.25972 
L 147.928059 286.712257 
L 148.253038 289.556808 
L 148.578018 285.550228 
L 148.902998 286.397541 
L 149.227977 287.825869 
L 149.552957 290.488853 
L 149.877936 285.513914 
L 150.202916 284.533452 
L 150.527895 286.433854 
L 150.852875 290.513062 
L 151.177854 285.489705 
L 151.502834 286.215974 
L 151.827813 285.695481 
L 152.152793 291.13039 
L 152.477772 285.392869 
L 152.802752 287.9106 
L 153.127731 286.845406 
L 153.452711 291.324061 
L 153.77769 285.223407 
L 154.10267 285.707586 
L 154.427649 285.441287 
L 154.752629 290.234659 
L 155.077609 285.090258 
L 155.402588 286.082824 
L 155.727568 286.397541 
L 156.052547 290.622002 
L 156.377527 285.804421 
L 156.702506 285.211302 
L 157.027486 288.927376 
L 157.352465 291.23933 
L 157.677445 286.688048 
L 158.002424 286.397541 
L 158.327404 286.506481 
L 158.652383 291.384584 
L 158.977363 285.04184 
L 159.302342 285.949675 
L 159.627322 285.768108 
L 159.952301 291.057763 
L 160.277281 284.872377 
L 160.60226 284.194527 
L 160.92724 285.126571 
L 161.252219 291.723509 
L 161.577199 287.886391 
L 161.902179 285.82863 
L 162.227158 284.836064 
L 162.552138 290.597793 
L 162.877117 285.985989 
L 163.202097 284.727123 
L 163.527076 286.42175 
L 163.852056 290.549375 
L 164.177035 285.017631 
L 164.502015 286.034406 
L 164.826994 286.215974 
L 165.151974 289.835211 
L 165.801933 287.680615 
L 166.126912 285.695481 
L 166.451892 291.275643 
L 166.776871 285.864944 
L 167.101851 284.739228 
L 167.42683 285.005526 
L 167.75181 291.23933 
L 168.07679 285.985989 
L 168.726749 284.242944 
L 169.051728 287.874286 
L 169.376708 285.574437 
L 170.026667 289.532599 
L 170.351646 290.065196 
L 170.676626 285.550228 
L 171.001605 285.126571 
L 171.326585 286.458063 
L 171.651564 290.99724 
L 171.976544 285.380765 
L 172.301523 284.896586 
L 172.626503 286.736466 
L 172.951482 291.263539 
L 173.276462 286.191765 
L 173.601441 286.567003 
L 173.926421 288.285838 
L 174.2514 287.196436 
L 174.57638 284.472929 
L 174.90136 286.42175 
L 175.226339 286.373332 
L 175.551319 290.21045 
L 175.876298 284.920795 
L 176.201278 285.71969 
L 176.526257 286.215974 
L 176.851237 290.658315 
L 177.176216 286.651735 
L 177.501196 284.497138 
L 177.826175 285.477601 
L 178.151155 290.525166 
L 178.476134 290.065196 
L 178.801114 285.780213 
L 179.126093 283.819288 
L 179.451073 290.295181 
L 179.776052 285.114467 
L 180.101032 285.877048 
L 180.426011 285.465496 
L 180.750991 289.302614 
L 181.075971 286.264391 
L 181.40095 286.203869 
L 181.72593 284.715019 
L 182.050909 289.314719 
L 183.025848 286.167556 
L 183.350827 290.815673 
L 183.675807 285.477601 
L 184.000786 285.586541 
L 184.325766 286.252287 
L 184.650745 290.730942 
L 184.975725 284.642392 
L 185.300704 285.453392 
L 185.625684 285.804421 
L 185.950663 287.741137 
L 186.275643 288.031645 
L 186.600622 288.963689 
L 186.925602 286.591212 
L 187.250581 289.738375 
L 187.575561 286.433854 
L 187.900541 286.458063 
L 188.22552 284.58187 
L 188.5505 290.730942 
L 188.875479 286.082824 
L 189.200459 285.816526 
L 189.525438 285.71969 
L 189.850418 287.55957 
L 190.175397 285.174989 
L 190.500377 287.535361 
L 190.825356 287.571675 
L 191.150336 290.561479 
L 191.475315 285.078153 
L 191.800295 283.601407 
L 192.125274 286.458063 
L 192.450254 290.585688 
L 192.775233 285.429183 
L 193.100213 286.252287 
L 193.425192 284.58187 
L 193.750172 290.573584 
L 194.075152 285.199198 
L 194.400131 285.404974 
L 194.725111 288.176898 
L 195.05009 292.607135 
L 195.37507 285.768108 
L 196.025029 286.397541 
L 196.350008 290.827778 
L 196.674988 286.88172 
L 196.999967 285.913362 
L 197.324947 286.228078 
L 197.649926 291.154599 
L 197.974906 285.489705 
L 198.299885 283.976646 
L 198.624865 285.925466 
L 198.949844 290.900405 
L 199.599803 285.247616 
L 199.924783 285.731795 
L 200.249762 291.154599 
L 200.574742 284.860273 
L 200.899722 286.324914 
L 201.224701 285.538123 
L 201.549681 281.483125 
L 201.87466 282.439378 
L 202.19964 285.913362 
L 202.524619 286.445959 
L 202.849599 288.382674 
L 203.174578 287.644301 
L 203.499558 288.285838 
L 203.824537 286.010198 
L 204.149517 290.815673 
L 204.474496 285.271825 
L 204.799476 284.267153 
L 205.124455 286.046511 
L 205.449435 290.585688 
L 205.774414 285.126571 
L 206.099394 285.199198 
L 207.399312 288.552137 
L 207.724292 285.114467 
L 208.049271 290.295181 
L 208.374251 285.465496 
L 209.02421 286.010198 
L 209.349189 287.80166 
L 209.674169 285.852839 
L 209.999148 285.162884 
L 210.324128 285.973884 
L 210.649107 287.946913 
L 210.974087 286.978555 
L 211.299066 287.269063 
L 211.624046 288.031645 
L 211.949025 290.440435 
L 212.274005 285.71969 
L 212.598984 285.973884 
L 212.923964 285.489705 
L 213.248943 290.839882 
L 213.573923 285.816526 
L 213.898903 284.412407 
L 214.223882 285.852839 
L 214.548862 290.331494 
L 214.873841 285.949675 
L 215.198821 286.833302 
L 215.5238 288.636868 
L 215.84878 291.856658 
L 216.173759 285.04184 
L 216.498739 286.300705 
L 216.823718 286.276496 
L 217.148698 290.416226 
L 217.473677 286.63963 
L 217.798657 285.465496 
L 218.123636 285.707586 
L 218.448616 289.435763 
L 218.773595 285.901257 
L 219.098575 285.404974 
L 219.423554 284.702914 
L 219.748534 290.936718 
L 220.073514 287.547466 
L 220.398493 285.768108 
L 220.723473 284.739228 
L 221.048452 289.302614 
L 221.373432 285.913362 
L 221.698411 284.836064 
L 222.023391 286.385436 
L 222.34837 290.900405 
L 222.67335 286.615421 
L 222.998329 284.69081 
L 223.323309 286.433854 
L 223.648288 291.796136 
L 224.298247 285.04184 
L 224.623227 286.022302 
L 224.948206 290.851987 
L 225.273186 285.489705 
L 225.598165 286.627526 
L 225.923145 286.17966 
L 226.248124 290.973032 
L 226.573104 286.337018 
L 226.898084 284.775541 
L 227.223063 286.094929 
L 227.548043 288.782122 
L 227.873022 287.729033 
L 228.198002 288.503719 
L 228.522981 286.324914 
L 228.847961 289.229987 
L 229.17294 286.167556 
L 229.49792 285.804421 
L 229.822899 286.385436 
L 230.147879 290.295181 
L 230.472858 285.647063 
L 231.122817 286.736466 
L 231.447797 290.137823 
L 231.772776 286.857511 
L 232.097756 287.813764 
L 232.422735 288.249525 
L 232.747715 290.924614 
L 233.072695 285.792317 
L 233.397674 285.223407 
L 233.722654 285.973884 
L 234.047633 290.379912 
L 234.372613 286.337018 
L 234.697592 284.981317 
L 235.022572 286.409645 
L 235.347551 291.021449 
L 235.672531 285.973884 
L 235.99751 284.33978 
L 236.32249 288.310047 
L 236.647469 290.367808 
L 236.972449 284.279258 
L 237.297428 286.143347 
L 237.622408 285.937571 
L 237.947387 289.593122 
L 238.272367 285.344452 
L 238.597346 286.591212 
L 238.922326 284.823959 
L 239.247305 291.021449 
L 239.572285 285.356556 
L 239.897265 286.300705 
L 240.222244 288.600555 
L 240.872203 287.765346 
L 241.522162 285.308138 
L 241.847142 289.96836 
L 242.172121 286.191765 
L 242.82208 285.465496 
L 243.14706 290.755151 
L 243.472039 286.131242 
L 243.797019 285.138675 
L 244.121998 286.264391 
L 244.446978 289.242092 
L 245.421916 285.998093 
L 245.746896 291.142494 
L 246.071876 285.683377 
L 246.396855 284.630288 
L 246.721835 285.50181 
L 247.046814 290.404121 
L 247.371794 284.1219 
L 247.696773 284.363989 
L 248.346732 288.310047 
L 248.671712 288.564241 
L 248.996691 288.007436 
L 249.321671 285.671272 
L 249.64665 288.93948 
L 249.97163 284.025064 
L 250.296609 285.50181 
L 250.621589 285.901257 
L 250.946568 288.891062 
L 251.271548 286.143347 
L 251.596527 286.010198 
L 251.921507 285.513914 
L 252.246486 290.730942 
L 252.571466 284.79975 
L 252.896446 288.600555 
L 253.221425 288.189003 
L 253.546405 290.815673 
L 253.871384 285.380765 
L 254.196364 286.494376 
L 254.521343 286.63963 
L 254.846323 290.973032 
L 255.171302 286.506481 
L 255.496282 286.373332 
L 255.821261 285.477601 
L 256.146241 290.973032 
L 256.47122 286.058615 
L 256.7962 284.932899 
L 257.121179 288.540032 
L 257.446159 290.706733 
L 258.096118 283.976646 
L 258.421097 285.622854 
L 258.746077 289.012107 
L 259.071057 284.630288 
L 259.396036 286.252287 
L 259.721016 285.852839 
L 260.045995 287.825869 
L 260.370975 287.256958 
L 260.695954 285.877048 
L 261.020934 286.458063 
L 261.345913 289.181569 
L 261.670893 289.024211 
L 261.995872 286.324914 
L 262.320852 286.240183 
L 262.645831 289.278405 
L 262.970811 286.445959 
L 263.29579 286.385436 
L 263.62077 284.327676 
L 263.945749 290.162032 
L 264.270729 286.349123 
L 264.595708 285.138675 
L 264.920688 286.470168 
L 265.245667 289.000002 
L 265.570647 287.378003 
L 265.895627 288.225316 
L 266.220606 286.579108 
L 266.545586 290.440435 
L 266.870565 284.957108 
L 267.195545 286.845406 
L 267.520524 285.96178 
L 267.845504 290.99724 
L 268.170483 284.593974 
L 268.495463 286.869615 
L 268.820442 275.745604 
L 269.145422 286.252287 
L 269.470401 288.116376 
L 269.795381 288.697391 
L 270.12036 284.557661 
L 270.44534 290.065196 
L 270.770319 286.082824 
L 271.095299 284.182422 
L 271.420278 284.267153 
L 271.745258 290.488853 
L 272.070238 285.925466 
L 272.395217 284.58187 
L 272.720197 286.119138 
L 273.045176 285.441287 
L 273.370156 285.683377 
L 273.695135 288.213212 
L 274.020115 288.152689 
L 274.345094 289.532599 
L 274.670074 284.255049 
L 274.995053 285.671272 
L 275.320033 286.53069 
L 275.645012 291.311957 
L 275.969992 283.758766 
L 276.294971 286.385436 
L 276.619951 281.71311 
L 276.94493 289.544704 
L 277.26991 285.25972 
L 277.594889 288.176898 
L 277.919869 287.087496 
L 278.244848 290.573584 
L 278.569828 286.821197 
L 278.894808 285.792317 
L 279.219787 286.433854 
L 279.544767 286.554899 
L 279.869746 285.247616 
L 280.519705 284.69081 
L 280.844685 290.113614 
L 281.169664 285.925466 
L 281.494644 286.094929 
L 282.144603 290.682524 
L 282.469582 286.058615 
L 282.794562 271.59377 
L 283.119541 283.637721 
L 283.444521 288.225316 
L 283.7695 284.981317 
L 284.09448 286.324914 
L 284.419459 285.308138 
L 284.744439 290.367808 
L 285.069419 285.634959 
L 285.394398 284.69081 
L 285.719378 285.211302 
L 286.044357 289.108943 
L 286.369337 286.53069 
L 286.694316 287.220645 
L 287.019296 286.930137 
L 287.344275 290.682524 
L 287.669255 284.848168 
L 287.994234 286.494376 
L 288.319214 285.852839 
L 288.644193 287.837973 
L 288.969173 285.114467 
L 289.294152 287.184331 
L 289.619132 286.869615 
L 289.944111 287.547466 
L 290.269091 288.624764 
L 290.59407 288.418988 
L 290.91905 285.840735 
L 291.244029 290.162032 
L 291.569009 285.223407 
L 291.893989 285.247616 
L 292.218968 284.1219 
L 292.543948 290.065196 
L 292.868927 285.647063 
L 293.193907 286.2886 
L 293.518886 286.397541 
L 293.843866 287.414316 
L 294.168845 285.417078 
L 294.493825 287.862182 
L 294.818804 288.455301 
L 295.143784 289.726271 
L 295.468763 286.385436 
L 295.793743 285.743899 
L 296.118722 286.663839 
L 296.443702 291.614569 
L 296.768681 285.283929 
L 297.093661 286.167556 
L 297.41864 286.445959 
L 297.74362 291.45721 
L 298.0686 286.2886 
L 298.393579 285.344452 
L 298.718559 287.402212 
L 299.043538 291.009345 
L 299.368518 286.276496 
L 299.693497 285.053944 
L 300.018477 285.247616 
L 300.343456 290.186241 
L 300.668436 285.889153 
L 300.993415 286.627526 
L 301.318395 285.513914 
L 301.643374 290.973032 
L 301.968354 285.344452 
L 302.293333 286.470168 
L 302.618313 286.494376 
L 302.943292 290.718838 
L 303.268272 288.346361 
L 303.593251 287.293272 
L 303.918231 285.320243 
L 304.24321 291.965598 
L 304.56819 285.780213 
L 304.89317 286.300705 
L 305.218149 284.58187 
L 305.543129 290.053092 
L 305.868108 286.324914 
L 306.193088 286.63963 
L 306.518067 285.211302 
L 306.843047 289.798898 
L 307.168026 285.82863 
L 307.493006 287.946913 
L 307.817985 285.15078 
L 308.142965 289.593122 
L 308.467944 285.792317 
L 308.792924 284.884482 
L 309.117903 285.053944 
L 309.442883 290.258868 
L 309.767862 286.42175 
L 310.092842 286.506481 
L 310.417821 284.69081 
L 310.742801 289.702062 
L 311.067781 285.271825 
L 311.39276 289.000002 
L 311.71774 286.784884 
L 312.042719 290.985136 
L 312.367699 286.506481 
L 312.692678 284.073482 
L 313.017658 286.17966 
L 313.342637 290.573584 
L 313.667617 284.23084 
L 313.992596 286.167556 
L 314.317576 286.724361 
L 314.642555 289.919942 
L 314.967535 285.61075 
L 315.292514 285.574437 
L 315.617494 289.145256 
L 315.942473 291.021449 
L 316.267453 285.804421 
L 316.592432 285.247616 
L 316.917412 285.404974 
L 317.242391 290.743047 
L 317.567371 283.601407 
L 317.892351 285.949675 
L 318.21733 286.094929 
L 318.54231 290.137823 
L 318.867289 284.509243 
L 319.192269 286.07072 
L 319.517248 285.320243 
L 319.842228 290.743047 
L 320.492187 286.688048 
L 320.817166 285.659168 
L 321.142146 289.847316 
L 321.467125 285.71969 
L 321.792105 284.606079 
L 322.117084 285.477601 
L 322.442064 291.166703 
L 322.767043 283.952437 
L 323.092023 285.671272 
L 323.417002 286.17966 
L 323.741982 290.912509 
L 324.066962 286.675944 
L 324.391941 285.780213 
L 324.716921 286.930137 
L 325.0419 288.891062 
L 325.36688 285.126571 
L 325.691859 284.702914 
L 326.016839 285.852839 
L 326.341818 290.985136 
L 326.666798 285.985989 
L 326.991777 285.25972 
L 327.316757 286.796988 
L 327.641736 289.29051 
L 327.966716 288.648973 
L 328.291695 288.37057 
L 328.616675 286.627526 
L 328.941654 289.375241 
L 329.266634 285.308138 
L 329.591613 285.320243 
L 329.916593 284.557661 
L 330.241572 290.21045 
L 330.566552 285.465496 
L 330.891532 284.666601 
L 331.216511 285.780213 
L 331.541491 287.971122 
L 331.86647 285.417078 
L 332.19145 287.535361 
L 332.516429 288.782122 
L 332.841409 290.900405 
L 333.166388 285.066049 
L 333.491368 285.417078 
L 333.816347 285.489705 
L 334.141327 289.919942 
L 334.466306 285.417078 
L 334.791286 286.579108 
L 335.116265 286.554899 
L 335.441245 290.464644 
L 335.766224 285.622854 
L 336.091204 288.007436 
L 336.416183 286.796988 
L 336.741163 290.8883 
L 337.066143 286.494376 
L 337.391122 286.409645 
L 337.716102 286.07072 
L 338.041081 290.101509 
L 338.366061 285.332347 
L 339.01602 285.71969 
L 339.340999 290.004674 
L 339.665979 285.513914 
L 339.990958 285.271825 
L 340.640917 290.67042 
L 340.965897 287.390107 
L 341.290876 285.695481 
L 341.615856 286.688048 
L 341.940835 289.847316 
L 342.265815 284.23084 
L 342.915774 285.973884 
L 343.240753 291.118285 
L 343.565733 285.804421 
L 343.890713 283.940333 
L 344.215692 285.61075 
L 344.540672 290.513062 
L 344.865651 286.978555 
L 345.190631 285.756004 
L 345.51561 285.574437 
L 345.84059 290.246763 
L 346.165569 285.223407 
L 346.490549 286.264391 
L 346.815528 286.542794 
L 347.140508 289.774689 
L 347.465487 284.932899 
L 347.790467 285.211302 
L 348.115446 286.022302 
L 348.440426 289.459972 
L 349.415364 286.131242 
L 349.740344 289.556808 
L 350.065324 285.768108 
L 350.390303 285.550228 
L 351.040262 286.470168 
L 351.365242 283.66193 
L 351.690221 284.945004 
L 352.015201 285.71969 
L 352.34018 288.467406 
L 352.66516 283.964542 
L 352.990139 287.716928 
L 353.315119 288.58845 
L 353.640098 290.791464 
L 353.965078 284.836064 
L 354.615037 285.25972 
L 354.940016 291.251434 
L 355.264996 285.005526 
L 355.589975 285.489705 
L 355.914955 285.731795 
L 356.239934 289.653644 
L 356.564914 285.15078 
L 356.889894 285.707586 
L 357.214873 287.741137 
L 357.864832 294.21703 
L 358.189812 295.391164 
L 358.514791 270.988546 
L 358.839771 289.205778 
L 359.16475 291.941389 
L 359.48973 292.83712 
L 359.814709 292.37715 
L 360.139689 291.687195 
L 360.464668 292.558718 
L 360.789648 293.006583 
L 361.114627 292.304524 
L 361.439607 292.716076 
L 361.764586 294.35018 
L 362.089566 294.531747 
L 362.739525 292.982374 
L 363.064505 294.749627 
L 363.389484 293.454449 
L 363.714464 294.834358 
L 364.039443 290.452539 
L 364.364423 269.53601 
L 364.689402 285.017631 
L 365.014382 291.493524 
L 365.339361 291.336166 
L 365.664341 294.531747 
L 365.98932 292.558718 
L 366.3143 293.623911 
L 366.639279 290.004674 
L 366.964259 293.64812 
L 367.289238 293.805478 
L 367.614218 294.483329 
L 367.939197 293.139732 
L 368.264177 294.071777 
L 368.589156 293.006583 
L 368.914136 292.437673 
L 369.239115 290.331494 
L 369.564095 294.338075 
L 369.889075 295.451687 
L 370.214054 272.97368 
L 370.539034 288.661077 
L 370.864013 292.110852 
L 371.188993 291.905076 
L 371.513972 292.15927 
L 371.838952 292.607135 
L 372.488911 291.820345 
L 372.81389 292.679762 
L 373.13887 289.520495 
L 373.463849 292.461882 
L 373.788829 294.325971 
L 374.438788 292.873434 
L 374.763767 293.07921 
L 375.088747 294.955403 
L 375.413726 295.221702 
L 375.738706 292.994479 
L 376.063686 275.406679 
L 376.388665 286.554899 
L 376.713645 292.849225 
L 377.038624 291.80824 
L 377.363604 292.001912 
L 377.688583 292.5103 
L 378.013563 294.725418 
L 378.338542 293.091314 
L 378.663522 293.672329 
L 379.313481 295.354851 
L 379.63846 291.989807 
L 379.96344 294.422806 
L 380.288419 294.798045 
L 380.613399 294.592269 
L 380.938378 292.425568 
L 381.263358 294.555956 
L 381.588337 294.495433 
L 381.913317 289.423659 
L 382.238296 289.242092 
L 382.563276 294.422806 
L 382.888256 293.43024 
L 383.213235 294.822254 
L 383.863194 291.299852 
L 384.188174 292.256106 
L 384.513153 291.868763 
L 384.838133 292.546613 
L 385.163112 291.069867 
L 385.488092 292.389255 
L 385.813071 292.546613 
L 386.138051 293.07921 
L 386.46303 294.083881 
L 386.78801 294.677 
L 387.112989 294.955403 
L 387.437969 293.841792 
L 387.762948 285.937571 
L 388.087928 286.433854 
L 388.412907 292.885538 
L 388.737887 292.873434 
L 389.062867 291.91718 
L 389.387846 293.103419 
L 389.712826 292.788702 
L 390.037805 290.028883 
L 390.362785 295.318537 
L 391.012744 293.587598 
L 391.337723 292.897643 
L 391.662703 294.580165 
L 391.987682 294.979612 
L 392.637641 293.18815 
L 392.962621 295.488 
L 393.2876 294.882776 
L 393.61258 272.320038 
L 393.937559 290.476748 
L 394.587518 294.798045 
L 394.912498 294.21703 
L 395.237477 292.643449 
L 395.887437 294.471224 
L 396.212416 295.052239 
L 396.537396 293.333404 
L 396.862375 295.149075 
L 397.187355 292.026121 
L 397.512334 293.502866 
L 397.837314 292.873434 
L 398.162293 291.178808 
L 398.487273 292.582926 
L 398.487273 292.582926 
" clip-path="url(#pc54e474c71)" style="fill: none; stroke: #1f77b4; stroke-width: 1.5; stroke-linecap: square"/>
   </g>
   <g id="patch_3">
    <path d="M 57.6 307.584 
L 57.6 41.472 
" style="fill: none; stroke: #000000; stroke-width: 0.8; stroke-linejoin: miter; stroke-linecap: square"/>
   </g>
   <g id="patch_4">
    <path d="M 414.72 307.584 
L 414.72 41.472 
" style="fill: none; stroke: #000000; stroke-width: 0.8; stroke-linejoin: miter; stroke-linecap: square"/>
   </g>
   <g id="patch_5">
    <path d="M 57.6 307.584 
L 414.72 307.584 
" style="fill: none; stroke: #000000; stroke-width: 0.8; stroke-linejoin: miter; stroke-linecap: square"/>
   </g>
   <g id="patch_6">
    <path d="M 57.6 41.472 
L 414.72 41.472 
" style="fill: none; stroke: #000000; stroke-width: 0.8; stroke-linejoin: miter; stroke-linecap: square"/>
   </g>
   <g id="text_19">
    <!-- Scheduling latency vs. time for: /home/thomas/Desktop/ros2_pendulum_benchmark//2022-08-08_15:56:34/demo/4_stress/fifo/results.csv -->
    <g transform="translate(-176.30625 35.472)scale(0.12 -0.12)">
     <defs>
      <path id="DejaVuSans-53" d="M 3425 4513 
L 3425 3897 
Q 3066 4069 2747 4153 
Q 2428 4238 2131 4238 
Q 1616 4238 1336 4038 
Q 1056 3838 1056 3469 
Q 1056 3159 1242 3001 
Q 1428 2844 1947 2747 
L 2328 2669 
Q 3034 2534 3370 2195 
Q 3706 1856 3706 1288 
Q 3706 609 3251 259 
Q 2797 -91 1919 -91 
Q 1588 -91 1214 -16 
Q 841 59 441 206 
L 441 856 
Q 825 641 1194 531 
Q 1563 422 1919 422 
Q 2459 422 2753 634 
Q 3047 847 3047 1241 
Q 3047 1584 2836 1778 
Q 2625 1972 2144 2069 
L 1759 2144 
Q 1053 2284 737 2584 
Q 422 2884 422 3419 
Q 422 4038 858 4394 
Q 1294 4750 2059 4750 
Q 2388 4750 2728 4690 
Q 3069 4631 3425 4513 
z
" transform="scale(0.015625)"/>
      <path id="DejaVuSans-68" d="M 3513 2113 
L 3513 0 
L 2938 0 
L 2938 2094 
Q 2938 2591 2744 2837 
Q 2550 3084 2163 3084 
Q 1697 3084 1428 2787 
Q 1159 2491 1159 1978 
L 1159 0 
L 581 0 
L 581 4863 
L 1159 4863 
L 1159 2956 
Q 1366 3272 1645 3428 
Q 1925 3584 2291 3584 
Q 2894 3584 3203 3211 
Q 3513 2838 3513 2113 
z
" transform="scale(0.015625)"/>
      <path id="DejaVuSans-64" d="M 2906 2969 
L 2906 4863 
L 3481 4863 
L 3481 0 
L 2906 0 
L 2906 525 
Q 2725 213 2448 61 
Q 2172 -91 1784 -91 
Q 1150 -91 751 415 
Q 353 922 353 1747 
Q 353 2572 751 3078 
Q 1150 3584 1784 3584 
Q 2172 3584 2448 3432 
Q 2725 3281 2906 2969 
z
M 947 1747 
Q 947 1113 1208 752 
Q 1469 391 1925 391 
Q 2381 391 2643 752 
Q 2906 1113 2906 1747 
Q 2906 2381 2643 2742 
Q 2381 3103 1925 3103 
Q 1469 3103 1208 2742 
Q 947 2381 947 1747 
z
" transform="scale(0.015625)"/>
      <path id="DejaVuSans-75" d="M 544 1381 
L 544 3500 
L 1119 3500 
L 1119 1403 
Q 1119 906 1312 657 
Q 1506 409 1894 409 
Q 2359 409 2629 706 
Q 2900 1003 2900 1516 
L 2900 3500 
L 3475 3500 
L 3475 0 
L 2900 0 
L 2900 538 
Q 2691 219 2414 64 
Q 2138 -91 1772 -91 
Q 1169 -91 856 284 
Q 544 659 544 1381 
z
M 1991 3584 
L 1991 3584 
z
" transform="scale(0.015625)"/>
      <path id="DejaVuSans-6c" d="M 603 4863 
L 1178 4863 
L 1178 0 
L 603 0 
L 603 4863 
z
" transform="scale(0.015625)"/>
      <path id="DejaVuSans-67" d="M 2906 1791 
Q 2906 2416 2648 2759 
Q 2391 3103 1925 3103 
Q 1463 3103 1205 2759 
Q 947 2416 947 1791 
Q 947 1169 1205 825 
Q 1463 481 1925 481 
Q 2391 481 2648 825 
Q 2906 1169 2906 1791 
z
M 3481 434 
Q 3481 -459 3084 -895 
Q 2688 -1331 1869 -1331 
Q 1566 -1331 1297 -1286 
Q 1028 -1241 775 -1147 
L 775 -588 
Q 1028 -725 1275 -790 
Q 1522 -856 1778 -856 
Q 2344 -856 2625 -561 
Q 2906 -266 2906 331 
L 2906 616 
Q 2728 306 2450 153 
Q 2172 0 1784 0 
Q 1141 0 747 490 
Q 353 981 353 1791 
Q 353 2603 747 3093 
Q 1141 3584 1784 3584 
Q 2172 3584 2450 3431 
Q 2728 3278 2906 2969 
L 2906 3500 
L 3481 3500 
L 3481 434 
z
" transform="scale(0.015625)"/>
      <path id="DejaVuSans-76" d="M 191 3500 
L 800 3500 
L 1894 563 
L 2988 3500 
L 3597 3500 
L 2284 0 
L 1503 0 
L 191 3500 
z
" transform="scale(0.015625)"/>
      <path id="DejaVuSans-66" d="M 2375 4863 
L 2375 4384 
L 1825 4384 
Q 1516 4384 1395 4259 
Q 1275 4134 1275 3809 
L 1275 3500 
L 2222 3500 
L 2222 3053 
L 1275 3053 
L 1275 0 
L 697 0 
L 697 3053 
L 147 3053 
L 147 3500 
L 697 3500 
L 697 3744 
Q 697 4328 969 4595 
Q 1241 4863 1831 4863 
L 2375 4863 
z
" transform="scale(0.015625)"/>
      <path id="DejaVuSans-6f" d="M 1959 3097 
Q 1497 3097 1228 2736 
Q 959 2375 959 1747 
Q 959 1119 1226 758 
Q 1494 397 1959 397 
Q 2419 397 2687 759 
Q 2956 1122 2956 1747 
Q 2956 2369 2687 2733 
Q 2419 3097 1959 3097 
z
M 1959 3584 
Q 2709 3584 3137 3096 
Q 3566 2609 3566 1747 
Q 3566 888 3137 398 
Q 2709 -91 1959 -91 
Q 1206 -91 779 398 
Q 353 888 353 1747 
Q 353 2609 779 3096 
Q 1206 3584 1959 3584 
z
" transform="scale(0.015625)"/>
      <path id="DejaVuSans-72" d="M 2631 2963 
Q 2534 3019 2420 3045 
Q 2306 3072 2169 3072 
Q 1681 3072 1420 2755 
Q 1159 2438 1159 1844 
L 1159 0 
L 581 0 
L 581 3500 
L 1159 3500 
L 1159 2956 
Q 1341 3275 1631 3429 
Q 1922 3584 2338 3584 
Q 2397 3584 2469 3576 
Q 2541 3569 2628 3553 
L 2631 2963 
z
" transform="scale(0.015625)"/>
      <path id="DejaVuSans-3a" d="M 750 794 
L 1409 794 
L 1409 0 
L 750 0 
L 750 794 
z
M 750 3309 
L 1409 3309 
L 1409 2516 
L 750 2516 
L 750 3309 
z
" transform="scale(0.015625)"/>
      <path id="DejaVuSans-2f" d="M 1625 4666 
L 2156 4666 
L 531 -594 
L 0 -594 
L 1625 4666 
z
" transform="scale(0.015625)"/>
      <path id="DejaVuSans-44" d="M 1259 4147 
L 1259 519 
L 2022 519 
Q 2988 519 3436 956 
Q 3884 1394 3884 2338 
Q 3884 3275 3436 3711 
Q 2988 4147 2022 4147 
L 1259 4147 
z
M 628 4666 
L 1925 4666 
Q 3281 4666 3915 4102 
Q 4550 3538 4550 2338 
Q 4550 1131 3912 565 
Q 3275 0 1925 0 
L 628 0 
L 628 4666 
z
" transform="scale(0.015625)"/>
      <path id="DejaVuSans-6b" d="M 581 4863 
L 1159 4863 
L 1159 1991 
L 2875 3500 
L 3609 3500 
L 1753 1863 
L 3688 0 
L 2938 0 
L 1159 1709 
L 1159 0 
L 581 0 
L 581 4863 
z
" transform="scale(0.015625)"/>
      <path id="DejaVuSans-70" d="M 1159 525 
L 1159 -1331 
L 581 -1331 
L 581 3500 
L 1159 3500 
L 1159 2969 
Q 1341 3281 1617 3432 
Q 1894 3584 2278 3584 
Q 2916 3584 3314 3078 
Q 3713 2572 3713 1747 
Q 3713 922 3314 415 
Q 2916 -91 2278 -91 
Q 1894 -91 1617 61 
Q 1341 213 1159 525 
z
M 3116 1747 
Q 3116 2381 2855 2742 
Q 2594 3103 2138 3103 
Q 1681 3103 1420 2742 
Q 1159 2381 1159 1747 
Q 1159 1113 1420 752 
Q 1681 391 2138 391 
Q 2594 391 2855 752 
Q 3116 1113 3116 1747 
z
" transform="scale(0.015625)"/>
      <path id="DejaVuSans-5f" d="M 3263 -1063 
L 3263 -1509 
L -63 -1509 
L -63 -1063 
L 3263 -1063 
z
" transform="scale(0.015625)"/>
      <path id="DejaVuSans-62" d="M 3116 1747 
Q 3116 2381 2855 2742 
Q 2594 3103 2138 3103 
Q 1681 3103 1420 2742 
Q 1159 2381 1159 1747 
Q 1159 1113 1420 752 
Q 1681 391 2138 391 
Q 2594 391 2855 752 
Q 3116 1113 3116 1747 
z
M 1159 2969 
Q 1341 3281 1617 3432 
Q 1894 3584 2278 3584 
Q 2916 3584 3314 3078 
Q 3713 2572 3713 1747 
Q 3713 922 3314 415 
Q 2916 -91 2278 -91 
Q 1894 -91 1617 61 
Q 1341 213 1159 525 
L 1159 0 
L 581 0 
L 581 4863 
L 1159 4863 
L 1159 2969 
z
" transform="scale(0.015625)"/>
      <path id="DejaVuSans-2d" d="M 313 2009 
L 1997 2009 
L 1997 1497 
L 313 1497 
L 313 2009 
z
" transform="scale(0.015625)"/>
      <path id="DejaVuSans-33" d="M 2597 2516 
Q 3050 2419 3304 2112 
Q 3559 1806 3559 1356 
Q 3559 666 3084 287 
Q 2609 -91 1734 -91 
Q 1441 -91 1130 -33 
Q 819 25 488 141 
L 488 750 
Q 750 597 1062 519 
Q 1375 441 1716 441 
Q 2309 441 2620 675 
Q 2931 909 2931 1356 
Q 2931 1769 2642 2001 
Q 2353 2234 1838 2234 
L 1294 2234 
L 1294 2753 
L 1863 2753 
Q 2328 2753 2575 2939 
Q 2822 3125 2822 3475 
Q 2822 3834 2567 4026 
Q 2313 4219 1838 4219 
Q 1578 4219 1281 4162 
Q 984 4106 628 3988 
L 628 4550 
Q 988 4650 1302 4700 
Q 1616 4750 1894 4750 
Q 2613 4750 3031 4423 
Q 3450 4097 3450 3541 
Q 3450 3153 3228 2886 
Q 3006 2619 2597 2516 
z
" transform="scale(0.015625)"/>
     </defs>
     <use xlink:href="#DejaVuSans-53"/>
     <use xlink:href="#DejaVuSans-63" x="63.476562"/>
     <use xlink:href="#DejaVuSans-68" x="118.457031"/>
     <use xlink:href="#DejaVuSans-65" x="181.835938"/>
     <use xlink:href="#DejaVuSans-64" x="243.359375"/>
     <use xlink:href="#DejaVuSans-75" x="306.835938"/>
     <use xlink:href="#DejaVuSans-6c" x="370.214844"/>
     <use xlink:href="#DejaVuSans-69" x="397.998047"/>
     <use xlink:href="#DejaVuSans-6e" x="425.78125"/>
     <use xlink:href="#DejaVuSans-67" x="489.160156"/>
     <use xlink:href="#DejaVuSans-20" x="552.636719"/>
     <use xlink:href="#DejaVuSans-6c" x="584.423828"/>
     <use xlink:href="#DejaVuSans-61" x="612.207031"/>
     <use xlink:href="#DejaVuSans-74" x="673.486328"/>
     <use xlink:href="#DejaVuSans-65" x="712.695312"/>
     <use xlink:href="#DejaVuSans-6e" x="774.21875"/>
     <use xlink:href="#DejaVuSans-63" x="837.597656"/>
     <use xlink:href="#DejaVuSans-79" x="892.578125"/>
     <use xlink:href="#DejaVuSans-20" x="951.757812"/>
     <use xlink:href="#DejaVuSans-76" x="983.544922"/>
     <use xlink:href="#DejaVuSans-73" x="1042.724609"/>
     <use xlink:href="#DejaVuSans-2e" x="1094.824219"/>
     <use xlink:href="#DejaVuSans-20" x="1126.611328"/>
     <use xlink:href="#DejaVuSans-74" x="1158.398438"/>
     <use xlink:href="#DejaVuSans-69" x="1197.607422"/>
     <use xlink:href="#DejaVuSans-6d" x="1225.390625"/>
     <use xlink:href="#DejaVuSans-65" x="1322.802734"/>
     <use xlink:href="#DejaVuSans-20" x="1384.326172"/>
     <use xlink:href="#DejaVuSans-66" x="1416.113281"/>
     <use xlink:href="#DejaVuSans-6f" x="1451.318359"/>
     <use xlink:href="#DejaVuSans-72" x="1512.5"/>
     <use xlink:href="#DejaVuSans-3a" x="1551.863281"/>
     <use xlink:href="#DejaVuSans-20" x="1585.554688"/>
     <use xlink:href="#DejaVuSans-2f" x="1617.341797"/>
     <use xlink:href="#DejaVuSans-68" x="1651.033203"/>
     <use xlink:href="#DejaVuSans-6f" x="1714.412109"/>
     <use xlink:href="#DejaVuSans-6d" x="1775.59375"/>
     <use xlink:href="#DejaVuSans-65" x="1873.005859"/>
     <use xlink:href="#DejaVuSans-2f" x="1934.529297"/>
     <use xlink:href="#DejaVuSans-74" x="1968.220703"/>
     <use xlink:href="#DejaVuSans-68" x="2007.429688"/>
     <use xlink:href="#DejaVuSans-6f" x="2070.808594"/>
     <use xlink:href="#DejaVuSans-6d" x="2131.990234"/>
     <use xlink:href="#DejaVuSans-61" x="2229.402344"/>
     <use xlink:href="#DejaVuSans-73" x="2290.681641"/>
     <use xlink:href="#DejaVuSans-2f" x="2342.78125"/>
     <use xlink:href="#DejaVuSans-44" x="2376.472656"/>
     <use xlink:href="#DejaVuSans-65" x="2453.474609"/>
     <use xlink:href="#DejaVuSans-73" x="2514.998047"/>
     <use xlink:href="#DejaVuSans-6b" x="2567.097656"/>
     <use xlink:href="#DejaVuSans-74" x="2625.007812"/>
     <use xlink:href="#DejaVuSans-6f" x="2664.216797"/>
     <use xlink:href="#DejaVuSans-70" x="2725.398438"/>
     <use xlink:href="#DejaVuSans-2f" x="2788.875"/>
     <use xlink:href="#DejaVuSans-72" x="2822.566406"/>
     <use xlink:href="#DejaVuSans-6f" x="2861.429688"/>
     <use xlink:href="#DejaVuSans-73" x="2922.611328"/>
     <use xlink:href="#DejaVuSans-32" x="2974.710938"/>
     <use xlink:href="#DejaVuSans-5f" x="3038.333984"/>
     <use xlink:href="#DejaVuSans-70" x="3088.333984"/>
     <use xlink:href="#DejaVuSans-65" x="3151.810547"/>
     <use xlink:href="#DejaVuSans-6e" x="3213.333984"/>
     <use xlink:href="#DejaVuSans-64" x="3276.712891"/>
     <use xlink:href="#DejaVuSans-75" x="3340.189453"/>
     <use xlink:href="#DejaVuSans-6c" x="3403.568359"/>
     <use xlink:href="#DejaVuSans-75" x="3431.351562"/>
     <use xlink:href="#DejaVuSans-6d" x="3494.730469"/>
     <use xlink:href="#DejaVuSans-5f" x="3592.142578"/>
     <use xlink:href="#DejaVuSans-62" x="3642.142578"/>
     <use xlink:href="#DejaVuSans-65" x="3705.619141"/>
     <use xlink:href="#DejaVuSans-6e" x="3767.142578"/>
     <use xlink:href="#DejaVuSans-63" x="3830.521484"/>
     <use xlink:href="#DejaVuSans-68" x="3885.501953"/>
     <use xlink:href="#DejaVuSans-6d" x="3948.880859"/>
     <use xlink:href="#DejaVuSans-61" x="4046.292969"/>
     <use xlink:href="#DejaVuSans-72" x="4107.572266"/>
     <use xlink:href="#DejaVuSans-6b" x="4148.685547"/>
     <use xlink:href="#DejaVuSans-2f" x="4206.595703"/>
     <use xlink:href="#DejaVuSans-2f" x="4240.287109"/>
     <use xlink:href="#DejaVuSans-32" x="4273.978516"/>
     <use xlink:href="#DejaVuSans-30" x="4337.601562"/>
     <use xlink:href="#DejaVuSans-32" x="4401.224609"/>
     <use xlink:href="#DejaVuSans-32" x="4464.847656"/>
     <use xlink:href="#DejaVuSans-2d" x="4528.470703"/>
     <use xlink:href="#DejaVuSans-30" x="4564.554688"/>
     <use xlink:href="#DejaVuSans-38" x="4628.177734"/>
     <use xlink:href="#DejaVuSans-2d" x="4691.800781"/>
     <use xlink:href="#DejaVuSans-30" x="4727.884766"/>
     <use xlink:href="#DejaVuSans-38" x="4791.507812"/>
     <use xlink:href="#DejaVuSans-5f" x="4855.130859"/>
     <use xlink:href="#DejaVuSans-31" x="4905.130859"/>
     <use xlink:href="#DejaVuSans-35" x="4968.753906"/>
     <use xlink:href="#DejaVuSans-3a" x="5032.376953"/>
     <use xlink:href="#DejaVuSans-35" x="5066.068359"/>
     <use xlink:href="#DejaVuSans-36" x="5129.691406"/>
     <use xlink:href="#DejaVuSans-3a" x="5193.314453"/>
     <use xlink:href="#DejaVuSans-33" x="5227.005859"/>
     <use xlink:href="#DejaVuSans-34" x="5290.628906"/>
     <use xlink:href="#DejaVuSans-2f" x="5354.251953"/>
     <use xlink:href="#DejaVuSans-64" x="5387.943359"/>
     <use xlink:href="#DejaVuSans-65" x="5451.419922"/>
     <use xlink:href="#DejaVuSans-6d" x="5512.943359"/>
     <use xlink:href="#DejaVuSans-6f" x="5610.355469"/>
     <use xlink:href="#DejaVuSans-2f" x="5671.537109"/>
     <use xlink:href="#DejaVuSans-34" x="5705.228516"/>
     <use xlink:href="#DejaVuSans-5f" x="5768.851562"/>
     <use xlink:href="#DejaVuSans-73" x="5818.851562"/>
     <use xlink:href="#DejaVuSans-74" x="5870.951172"/>
     <use xlink:href="#DejaVuSans-72" x="5910.160156"/>
     <use xlink:href="#DejaVuSans-65" x="5949.023438"/>
     <use xlink:href="#DejaVuSans-73" x="6010.546875"/>
     <use xlink:href="#DejaVuSans-73" x="6062.646484"/>
     <use xlink:href="#DejaVuSans-2f" x="6114.746094"/>
     <use xlink:href="#DejaVuSans-66" x="6148.4375"/>
     <use xlink:href="#DejaVuSans-69" x="6183.642578"/>
     <use xlink:href="#DejaVuSans-66" x="6211.425781"/>
     <use xlink:href="#DejaVuSans-6f" x="6246.630859"/>
     <use xlink:href="#DejaVuSans-2f" x="6307.8125"/>
     <use xlink:href="#DejaVuSans-72" x="6341.503906"/>
     <use xlink:href="#DejaVuSans-65" x="6380.367188"/>
     <use xlink:href="#DejaVuSans-73" x="6441.890625"/>
     <use xlink:href="#DejaVuSans-75" x="6493.990234"/>
     <use xlink:href="#DejaVuSans-6c" x="6557.369141"/>
     <use xlink:href="#DejaVuSans-74" x="6585.152344"/>
     <use xlink:href="#DejaVuSans-73" x="6624.361328"/>
     <use xlink:href="#DejaVuSans-2e" x="6676.460938"/>
     <use xlink:href="#DejaVuSans-63" x="6708.248047"/>
     <use xlink:href="#DejaVuSans-73" x="6763.228516"/>
     <use xlink:href="#DejaVuSans-76" x="6815.328125"/>
    </g>
   </g>
  </g>
 </g>
 <defs>
  <clipPath id="pc54e474c71">
   <rect x="57.6" y="41.472" width="357.12" height="266.112"/>
  </clipPath>
 </defs>
</svg>
