<?xml version="1.0" encoding="utf-8" standalone="no"?>
<!DOCTYPE svg PUBLIC "-//W3C//DTD SVG 1.1//EN"
  "http://www.w3.org/Graphics/SVG/1.1/DTD/svg11.dtd">
<svg xmlns:xlink="http://www.w3.org/1999/xlink" width="460.8pt" height="345.6pt" viewBox="0 0 460.8 345.6" xmlns="http://www.w3.org/2000/svg" version="1.1">
 <metadata>
  <rdf:RDF xmlns:dc="http://purl.org/dc/elements/1.1/" xmlns:cc="http://creativecommons.org/ns#" xmlns:rdf="http://www.w3.org/1999/02/22-rdf-syntax-ns#">
   <cc:Work>
    <dc:type rdf:resource="http://purl.org/dc/dcmitype/StillImage"/>
    <dc:date>2022-08-08T15:56:50.612953</dc:date>
    <dc:format>image/svg+xml</dc:format>
    <dc:creator>
     <cc:Agent>
      <dc:title>Matplotlib v3.5.1, https://matplotlib.org/</dc:title>
     </cc:Agent>
    </dc:creator>
   </cc:Work>
  </rdf:RDF>
 </metadata>
 <defs>
  <style type="text/css">*{stroke-linejoin: round; stroke-linecap: butt}</style>
 </defs>
 <g id="figure_1">
  <g id="patch_1">
   <path d="M 0 345.6 
L 460.8 345.6 
L 460.8 0 
L 0 0 
z
" style="fill: #ffffff"/>
  </g>
  <g id="axes_1">
   <g id="patch_2">
    <path d="M 57.6 307.584 
L 414.72 307.584 
L 414.72 41.472 
L 57.6 41.472 
z
" style="fill: #ffffff"/>
   </g>
   <g id="matplotlib.axis_1">
    <g id="xtick_1">
     <g id="line2d_1">
      <defs>
       <path id="mefc16096bf" d="M 0 0 
L 0 3.5 
" style="stroke: #000000; stroke-width: 0.8"/>
      </defs>
      <g>
       <use xlink:href="#mefc16096bf" x="73.832727" y="307.584" style="stroke: #000000; stroke-width: 0.8"/>
      </g>
     </g>
     <g id="text_1">
      <!-- 0.0 -->
      <g transform="translate(65.881165 322.182437)scale(0.1 -0.1)">
       <defs>
        <path id="DejaVuSans-30" d="M 2034 4250 
Q 1547 4250 1301 3770 
Q 1056 3291 1056 2328 
Q 1056 1369 1301 889 
Q 1547 409 2034 409 
Q 2525 409 2770 889 
Q 3016 1369 3016 2328 
Q 3016 3291 2770 3770 
Q 2525 4250 2034 4250 
z
M 2034 4750 
Q 2819 4750 3233 4129 
Q 3647 3509 3647 2328 
Q 3647 1150 3233 529 
Q 2819 -91 2034 -91 
Q 1250 -91 836 529 
Q 422 1150 422 2328 
Q 422 3509 836 4129 
Q 1250 4750 2034 4750 
z
" transform="scale(0.015625)"/>
        <path id="DejaVuSans-2e" d="M 684 794 
L 1344 794 
L 1344 0 
L 684 0 
L 684 794 
z
" transform="scale(0.015625)"/>
       </defs>
       <use xlink:href="#DejaVuSans-30"/>
       <use xlink:href="#DejaVuSans-2e" x="63.623047"/>
       <use xlink:href="#DejaVuSans-30" x="95.410156"/>
      </g>
     </g>
    </g>
    <g id="xtick_2">
     <g id="line2d_2">
      <g>
       <use xlink:href="#mefc16096bf" x="138.828632" y="307.584" style="stroke: #000000; stroke-width: 0.8"/>
      </g>
     </g>
     <g id="text_2">
      <!-- 0.2 -->
      <g transform="translate(130.87707 322.182437)scale(0.1 -0.1)">
       <defs>
        <path id="DejaVuSans-32" d="M 1228 531 
L 3431 531 
L 3431 0 
L 469 0 
L 469 531 
Q 828 903 1448 1529 
Q 2069 2156 2228 2338 
Q 2531 2678 2651 2914 
Q 2772 3150 2772 3378 
Q 2772 3750 2511 3984 
Q 2250 4219 1831 4219 
Q 1534 4219 1204 4116 
Q 875 4013 500 3803 
L 500 4441 
Q 881 4594 1212 4672 
Q 1544 4750 1819 4750 
Q 2544 4750 2975 4387 
Q 3406 4025 3406 3419 
Q 3406 3131 3298 2873 
Q 3191 2616 2906 2266 
Q 2828 2175 2409 1742 
Q 1991 1309 1228 531 
z
" transform="scale(0.015625)"/>
       </defs>
       <use xlink:href="#DejaVuSans-30"/>
       <use xlink:href="#DejaVuSans-2e" x="63.623047"/>
       <use xlink:href="#DejaVuSans-32" x="95.410156"/>
      </g>
     </g>
    </g>
    <g id="xtick_3">
     <g id="line2d_3">
      <g>
       <use xlink:href="#mefc16096bf" x="203.824537" y="307.584" style="stroke: #000000; stroke-width: 0.8"/>
      </g>
     </g>
     <g id="text_3">
      <!-- 0.4 -->
      <g transform="translate(195.872975 322.182437)scale(0.1 -0.1)">
       <defs>
        <path id="DejaVuSans-34" d="M 2419 4116 
L 825 1625 
L 2419 1625 
L 2419 4116 
z
M 2253 4666 
L 3047 4666 
L 3047 1625 
L 3713 1625 
L 3713 1100 
L 3047 1100 
L 3047 0 
L 2419 0 
L 2419 1100 
L 313 1100 
L 313 1709 
L 2253 4666 
z
" transform="scale(0.015625)"/>
       </defs>
       <use xlink:href="#DejaVuSans-30"/>
       <use xlink:href="#DejaVuSans-2e" x="63.623047"/>
       <use xlink:href="#DejaVuSans-34" x="95.410156"/>
      </g>
     </g>
    </g>
    <g id="xtick_4">
     <g id="line2d_4">
      <g>
       <use xlink:href="#mefc16096bf" x="268.820442" y="307.584" style="stroke: #000000; stroke-width: 0.8"/>
      </g>
     </g>
     <g id="text_4">
      <!-- 0.6 -->
      <g transform="translate(260.86888 322.182437)scale(0.1 -0.1)">
       <defs>
        <path id="DejaVuSans-36" d="M 2113 2584 
Q 1688 2584 1439 2293 
Q 1191 2003 1191 1497 
Q 1191 994 1439 701 
Q 1688 409 2113 409 
Q 2538 409 2786 701 
Q 3034 994 3034 1497 
Q 3034 2003 2786 2293 
Q 2538 2584 2113 2584 
z
M 3366 4563 
L 3366 3988 
Q 3128 4100 2886 4159 
Q 2644 4219 2406 4219 
Q 1781 4219 1451 3797 
Q 1122 3375 1075 2522 
Q 1259 2794 1537 2939 
Q 1816 3084 2150 3084 
Q 2853 3084 3261 2657 
Q 3669 2231 3669 1497 
Q 3669 778 3244 343 
Q 2819 -91 2113 -91 
Q 1303 -91 875 529 
Q 447 1150 447 2328 
Q 447 3434 972 4092 
Q 1497 4750 2381 4750 
Q 2619 4750 2861 4703 
Q 3103 4656 3366 4563 
z
" transform="scale(0.015625)"/>
       </defs>
       <use xlink:href="#DejaVuSans-30"/>
       <use xlink:href="#DejaVuSans-2e" x="63.623047"/>
       <use xlink:href="#DejaVuSans-36" x="95.410156"/>
      </g>
     </g>
    </g>
    <g id="xtick_5">
     <g id="line2d_5">
      <g>
       <use xlink:href="#mefc16096bf" x="333.816347" y="307.584" style="stroke: #000000; stroke-width: 0.8"/>
      </g>
     </g>
     <g id="text_5">
      <!-- 0.8 -->
      <g transform="translate(325.864785 322.182437)scale(0.1 -0.1)">
       <defs>
        <path id="DejaVuSans-38" d="M 2034 2216 
Q 1584 2216 1326 1975 
Q 1069 1734 1069 1313 
Q 1069 891 1326 650 
Q 1584 409 2034 409 
Q 2484 409 2743 651 
Q 3003 894 3003 1313 
Q 3003 1734 2745 1975 
Q 2488 2216 2034 2216 
z
M 1403 2484 
Q 997 2584 770 2862 
Q 544 3141 544 3541 
Q 544 4100 942 4425 
Q 1341 4750 2034 4750 
Q 2731 4750 3128 4425 
Q 3525 4100 3525 3541 
Q 3525 3141 3298 2862 
Q 3072 2584 2669 2484 
Q 3125 2378 3379 2068 
Q 3634 1759 3634 1313 
Q 3634 634 3220 271 
Q 2806 -91 2034 -91 
Q 1263 -91 848 271 
Q 434 634 434 1313 
Q 434 1759 690 2068 
Q 947 2378 1403 2484 
z
M 1172 3481 
Q 1172 3119 1398 2916 
Q 1625 2713 2034 2713 
Q 2441 2713 2670 2916 
Q 2900 3119 2900 3481 
Q 2900 3844 2670 4047 
Q 2441 4250 2034 4250 
Q 1625 4250 1398 4047 
Q 1172 3844 1172 3481 
z
" transform="scale(0.015625)"/>
       </defs>
       <use xlink:href="#DejaVuSans-30"/>
       <use xlink:href="#DejaVuSans-2e" x="63.623047"/>
       <use xlink:href="#DejaVuSans-38" x="95.410156"/>
      </g>
     </g>
    </g>
    <g id="xtick_6">
     <g id="line2d_6">
      <g>
       <use xlink:href="#mefc16096bf" x="398.812252" y="307.584" style="stroke: #000000; stroke-width: 0.8"/>
      </g>
     </g>
     <g id="text_6">
      <!-- 1.0 -->
      <g transform="translate(390.86069 322.182437)scale(0.1 -0.1)">
       <defs>
        <path id="DejaVuSans-31" d="M 794 531 
L 1825 531 
L 1825 4091 
L 703 3866 
L 703 4441 
L 1819 4666 
L 2450 4666 
L 2450 531 
L 3481 531 
L 3481 0 
L 794 0 
L 794 531 
z
" transform="scale(0.015625)"/>
       </defs>
       <use xlink:href="#DejaVuSans-31"/>
       <use xlink:href="#DejaVuSans-2e" x="63.623047"/>
       <use xlink:href="#DejaVuSans-30" x="95.410156"/>
      </g>
     </g>
    </g>
    <g id="text_7">
     <!-- Time (ns) -->
     <g transform="translate(212.662344 335.860562)scale(0.1 -0.1)">
      <defs>
       <path id="DejaVuSans-54" d="M -19 4666 
L 3928 4666 
L 3928 4134 
L 2272 4134 
L 2272 0 
L 1638 0 
L 1638 4134 
L -19 4134 
L -19 4666 
z
" transform="scale(0.015625)"/>
       <path id="DejaVuSans-69" d="M 603 3500 
L 1178 3500 
L 1178 0 
L 603 0 
L 603 3500 
z
M 603 4863 
L 1178 4863 
L 1178 4134 
L 603 4134 
L 603 4863 
z
" transform="scale(0.015625)"/>
       <path id="DejaVuSans-6d" d="M 3328 2828 
Q 3544 3216 3844 3400 
Q 4144 3584 4550 3584 
Q 5097 3584 5394 3201 
Q 5691 2819 5691 2113 
L 5691 0 
L 5113 0 
L 5113 2094 
Q 5113 2597 4934 2840 
Q 4756 3084 4391 3084 
Q 3944 3084 3684 2787 
Q 3425 2491 3425 1978 
L 3425 0 
L 2847 0 
L 2847 2094 
Q 2847 2600 2669 2842 
Q 2491 3084 2119 3084 
Q 1678 3084 1418 2786 
Q 1159 2488 1159 1978 
L 1159 0 
L 581 0 
L 581 3500 
L 1159 3500 
L 1159 2956 
Q 1356 3278 1631 3431 
Q 1906 3584 2284 3584 
Q 2666 3584 2933 3390 
Q 3200 3197 3328 2828 
z
" transform="scale(0.015625)"/>
       <path id="DejaVuSans-65" d="M 3597 1894 
L 3597 1613 
L 953 1613 
Q 991 1019 1311 708 
Q 1631 397 2203 397 
Q 2534 397 2845 478 
Q 3156 559 3463 722 
L 3463 178 
Q 3153 47 2828 -22 
Q 2503 -91 2169 -91 
Q 1331 -91 842 396 
Q 353 884 353 1716 
Q 353 2575 817 3079 
Q 1281 3584 2069 3584 
Q 2775 3584 3186 3129 
Q 3597 2675 3597 1894 
z
M 3022 2063 
Q 3016 2534 2758 2815 
Q 2500 3097 2075 3097 
Q 1594 3097 1305 2825 
Q 1016 2553 972 2059 
L 3022 2063 
z
" transform="scale(0.015625)"/>
       <path id="DejaVuSans-20" transform="scale(0.015625)"/>
       <path id="DejaVuSans-28" d="M 1984 4856 
Q 1566 4138 1362 3434 
Q 1159 2731 1159 2009 
Q 1159 1288 1364 580 
Q 1569 -128 1984 -844 
L 1484 -844 
Q 1016 -109 783 600 
Q 550 1309 550 2009 
Q 550 2706 781 3412 
Q 1013 4119 1484 4856 
L 1984 4856 
z
" transform="scale(0.015625)"/>
       <path id="DejaVuSans-6e" d="M 3513 2113 
L 3513 0 
L 2938 0 
L 2938 2094 
Q 2938 2591 2744 2837 
Q 2550 3084 2163 3084 
Q 1697 3084 1428 2787 
Q 1159 2491 1159 1978 
L 1159 0 
L 581 0 
L 581 3500 
L 1159 3500 
L 1159 2956 
Q 1366 3272 1645 3428 
Q 1925 3584 2291 3584 
Q 2894 3584 3203 3211 
Q 3513 2838 3513 2113 
z
" transform="scale(0.015625)"/>
       <path id="DejaVuSans-73" d="M 2834 3397 
L 2834 2853 
Q 2591 2978 2328 3040 
Q 2066 3103 1784 3103 
Q 1356 3103 1142 2972 
Q 928 2841 928 2578 
Q 928 2378 1081 2264 
Q 1234 2150 1697 2047 
L 1894 2003 
Q 2506 1872 2764 1633 
Q 3022 1394 3022 966 
Q 3022 478 2636 193 
Q 2250 -91 1575 -91 
Q 1294 -91 989 -36 
Q 684 19 347 128 
L 347 722 
Q 666 556 975 473 
Q 1284 391 1588 391 
Q 1994 391 2212 530 
Q 2431 669 2431 922 
Q 2431 1156 2273 1281 
Q 2116 1406 1581 1522 
L 1381 1569 
Q 847 1681 609 1914 
Q 372 2147 372 2553 
Q 372 3047 722 3315 
Q 1072 3584 1716 3584 
Q 2034 3584 2315 3537 
Q 2597 3491 2834 3397 
z
" transform="scale(0.015625)"/>
       <path id="DejaVuSans-29" d="M 513 4856 
L 1013 4856 
Q 1481 4119 1714 3412 
Q 1947 2706 1947 2009 
Q 1947 1309 1714 600 
Q 1481 -109 1013 -844 
L 513 -844 
Q 928 -128 1133 580 
Q 1338 1288 1338 2009 
Q 1338 2731 1133 3434 
Q 928 4138 513 4856 
z
" transform="scale(0.015625)"/>
      </defs>
      <use xlink:href="#DejaVuSans-54"/>
      <use xlink:href="#DejaVuSans-69" x="57.958984"/>
      <use xlink:href="#DejaVuSans-6d" x="85.742188"/>
      <use xlink:href="#DejaVuSans-65" x="183.154297"/>
      <use xlink:href="#DejaVuSans-20" x="244.677734"/>
      <use xlink:href="#DejaVuSans-28" x="276.464844"/>
      <use xlink:href="#DejaVuSans-6e" x="315.478516"/>
      <use xlink:href="#DejaVuSans-73" x="378.857422"/>
      <use xlink:href="#DejaVuSans-29" x="430.957031"/>
     </g>
    </g>
    <g id="text_8">
     <!-- 1e9 -->
     <g transform="translate(395.841875 334.860562)scale(0.1 -0.1)">
      <defs>
       <path id="DejaVuSans-39" d="M 703 97 
L 703 672 
Q 941 559 1184 500 
Q 1428 441 1663 441 
Q 2288 441 2617 861 
Q 2947 1281 2994 2138 
Q 2813 1869 2534 1725 
Q 2256 1581 1919 1581 
Q 1219 1581 811 2004 
Q 403 2428 403 3163 
Q 403 3881 828 4315 
Q 1253 4750 1959 4750 
Q 2769 4750 3195 4129 
Q 3622 3509 3622 2328 
Q 3622 1225 3098 567 
Q 2575 -91 1691 -91 
Q 1453 -91 1209 -44 
Q 966 3 703 97 
z
M 1959 2075 
Q 2384 2075 2632 2365 
Q 2881 2656 2881 3163 
Q 2881 3666 2632 3958 
Q 2384 4250 1959 4250 
Q 1534 4250 1286 3958 
Q 1038 3666 1038 3163 
Q 1038 2656 1286 2365 
Q 1534 2075 1959 2075 
z
" transform="scale(0.015625)"/>
      </defs>
      <use xlink:href="#DejaVuSans-31"/>
      <use xlink:href="#DejaVuSans-65" x="63.623047"/>
      <use xlink:href="#DejaVuSans-39" x="125.146484"/>
     </g>
    </g>
   </g>
   <g id="matplotlib.axis_2">
    <g id="ytick_1">
     <g id="line2d_7">
      <defs>
       <path id="m63264d7308" d="M 0 0 
L -3.5 0 
" style="stroke: #000000; stroke-width: 0.8"/>
      </defs>
      <g>
       <use xlink:href="#m63264d7308" x="57.6" y="301.284013" style="stroke: #000000; stroke-width: 0.8"/>
      </g>
     </g>
     <g id="text_9">
      <!-- 0 -->
      <g transform="translate(44.2375 305.083232)scale(0.1 -0.1)">
       <use xlink:href="#DejaVuSans-30"/>
      </g>
     </g>
    </g>
    <g id="ytick_2">
     <g id="line2d_8">
      <g>
       <use xlink:href="#m63264d7308" x="57.6" y="265.736555" style="stroke: #000000; stroke-width: 0.8"/>
      </g>
     </g>
     <g id="text_10">
      <!-- 20000 -->
      <g transform="translate(18.7875 269.535774)scale(0.1 -0.1)">
       <use xlink:href="#DejaVuSans-32"/>
       <use xlink:href="#DejaVuSans-30" x="63.623047"/>
       <use xlink:href="#DejaVuSans-30" x="127.246094"/>
       <use xlink:href="#DejaVuSans-30" x="190.869141"/>
       <use xlink:href="#DejaVuSans-30" x="254.492188"/>
      </g>
     </g>
    </g>
    <g id="ytick_3">
     <g id="line2d_9">
      <g>
       <use xlink:href="#m63264d7308" x="57.6" y="230.189098" style="stroke: #000000; stroke-width: 0.8"/>
      </g>
     </g>
     <g id="text_11">
      <!-- 40000 -->
      <g transform="translate(18.7875 233.988317)scale(0.1 -0.1)">
       <use xlink:href="#DejaVuSans-34"/>
       <use xlink:href="#DejaVuSans-30" x="63.623047"/>
       <use xlink:href="#DejaVuSans-30" x="127.246094"/>
       <use xlink:href="#DejaVuSans-30" x="190.869141"/>
       <use xlink:href="#DejaVuSans-30" x="254.492188"/>
      </g>
     </g>
    </g>
    <g id="ytick_4">
     <g id="line2d_10">
      <g>
       <use xlink:href="#m63264d7308" x="57.6" y="194.64164" style="stroke: #000000; stroke-width: 0.8"/>
      </g>
     </g>
     <g id="text_12">
      <!-- 60000 -->
      <g transform="translate(18.7875 198.440859)scale(0.1 -0.1)">
       <use xlink:href="#DejaVuSans-36"/>
       <use xlink:href="#DejaVuSans-30" x="63.623047"/>
       <use xlink:href="#DejaVuSans-30" x="127.246094"/>
       <use xlink:href="#DejaVuSans-30" x="190.869141"/>
       <use xlink:href="#DejaVuSans-30" x="254.492188"/>
      </g>
     </g>
    </g>
    <g id="ytick_5">
     <g id="line2d_11">
      <g>
       <use xlink:href="#m63264d7308" x="57.6" y="159.094183" style="stroke: #000000; stroke-width: 0.8"/>
      </g>
     </g>
     <g id="text_13">
      <!-- 80000 -->
      <g transform="translate(18.7875 162.893401)scale(0.1 -0.1)">
       <use xlink:href="#DejaVuSans-38"/>
       <use xlink:href="#DejaVuSans-30" x="63.623047"/>
       <use xlink:href="#DejaVuSans-30" x="127.246094"/>
       <use xlink:href="#DejaVuSans-30" x="190.869141"/>
       <use xlink:href="#DejaVuSans-30" x="254.492188"/>
      </g>
     </g>
    </g>
    <g id="ytick_6">
     <g id="line2d_12">
      <g>
       <use xlink:href="#m63264d7308" x="57.6" y="123.546725" style="stroke: #000000; stroke-width: 0.8"/>
      </g>
     </g>
     <g id="text_14">
      <!-- 100000 -->
      <g transform="translate(12.425 127.345944)scale(0.1 -0.1)">
       <use xlink:href="#DejaVuSans-31"/>
       <use xlink:href="#DejaVuSans-30" x="63.623047"/>
       <use xlink:href="#DejaVuSans-30" x="127.246094"/>
       <use xlink:href="#DejaVuSans-30" x="190.869141"/>
       <use xlink:href="#DejaVuSans-30" x="254.492188"/>
       <use xlink:href="#DejaVuSans-30" x="318.115234"/>
      </g>
     </g>
    </g>
    <g id="ytick_7">
     <g id="line2d_13">
      <g>
       <use xlink:href="#m63264d7308" x="57.6" y="87.999267" style="stroke: #000000; stroke-width: 0.8"/>
      </g>
     </g>
     <g id="text_15">
      <!-- 120000 -->
      <g transform="translate(12.425 91.798486)scale(0.1 -0.1)">
       <use xlink:href="#DejaVuSans-31"/>
       <use xlink:href="#DejaVuSans-32" x="63.623047"/>
       <use xlink:href="#DejaVuSans-30" x="127.246094"/>
       <use xlink:href="#DejaVuSans-30" x="190.869141"/>
       <use xlink:href="#DejaVuSans-30" x="254.492188"/>
       <use xlink:href="#DejaVuSans-30" x="318.115234"/>
      </g>
     </g>
    </g>
    <g id="ytick_8">
     <g id="line2d_14">
      <g>
       <use xlink:href="#m63264d7308" x="57.6" y="52.45181" style="stroke: #000000; stroke-width: 0.8"/>
      </g>
     </g>
     <g id="text_16">
      <!-- 140000 -->
      <g transform="translate(12.425 56.251029)scale(0.1 -0.1)">
       <use xlink:href="#DejaVuSans-31"/>
       <use xlink:href="#DejaVuSans-34" x="63.623047"/>
       <use xlink:href="#DejaVuSans-30" x="127.246094"/>
       <use xlink:href="#DejaVuSans-30" x="190.869141"/>
       <use xlink:href="#DejaVuSans-30" x="254.492188"/>
       <use xlink:href="#DejaVuSans-30" x="318.115234"/>
      </g>
     </g>
    </g>
    <g id="text_17">
     <!-- Latency (ns) -->
     <g transform="translate(6.345312 205.556125)rotate(-90)scale(0.1 -0.1)">
      <defs>
       <path id="DejaVuSans-4c" d="M 628 4666 
L 1259 4666 
L 1259 531 
L 3531 531 
L 3531 0 
L 628 0 
L 628 4666 
z
" transform="scale(0.015625)"/>
       <path id="DejaVuSans-61" d="M 2194 1759 
Q 1497 1759 1228 1600 
Q 959 1441 959 1056 
Q 959 750 1161 570 
Q 1363 391 1709 391 
Q 2188 391 2477 730 
Q 2766 1069 2766 1631 
L 2766 1759 
L 2194 1759 
z
M 3341 1997 
L 3341 0 
L 2766 0 
L 2766 531 
Q 2569 213 2275 61 
Q 1981 -91 1556 -91 
Q 1019 -91 701 211 
Q 384 513 384 1019 
Q 384 1609 779 1909 
Q 1175 2209 1959 2209 
L 2766 2209 
L 2766 2266 
Q 2766 2663 2505 2880 
Q 2244 3097 1772 3097 
Q 1472 3097 1187 3025 
Q 903 2953 641 2809 
L 641 3341 
Q 956 3463 1253 3523 
Q 1550 3584 1831 3584 
Q 2591 3584 2966 3190 
Q 3341 2797 3341 1997 
z
" transform="scale(0.015625)"/>
       <path id="DejaVuSans-74" d="M 1172 4494 
L 1172 3500 
L 2356 3500 
L 2356 3053 
L 1172 3053 
L 1172 1153 
Q 1172 725 1289 603 
Q 1406 481 1766 481 
L 2356 481 
L 2356 0 
L 1766 0 
Q 1100 0 847 248 
Q 594 497 594 1153 
L 594 3053 
L 172 3053 
L 172 3500 
L 594 3500 
L 594 4494 
L 1172 4494 
z
" transform="scale(0.015625)"/>
       <path id="DejaVuSans-63" d="M 3122 3366 
L 3122 2828 
Q 2878 2963 2633 3030 
Q 2388 3097 2138 3097 
Q 1578 3097 1268 2742 
Q 959 2388 959 1747 
Q 959 1106 1268 751 
Q 1578 397 2138 397 
Q 2388 397 2633 464 
Q 2878 531 3122 666 
L 3122 134 
Q 2881 22 2623 -34 
Q 2366 -91 2075 -91 
Q 1284 -91 818 406 
Q 353 903 353 1747 
Q 353 2603 823 3093 
Q 1294 3584 2113 3584 
Q 2378 3584 2631 3529 
Q 2884 3475 3122 3366 
z
" transform="scale(0.015625)"/>
       <path id="DejaVuSans-79" d="M 2059 -325 
Q 1816 -950 1584 -1140 
Q 1353 -1331 966 -1331 
L 506 -1331 
L 506 -850 
L 844 -850 
Q 1081 -850 1212 -737 
Q 1344 -625 1503 -206 
L 1606 56 
L 191 3500 
L 800 3500 
L 1894 763 
L 2988 3500 
L 3597 3500 
L 2059 -325 
z
" transform="scale(0.015625)"/>
      </defs>
      <use xlink:href="#DejaVuSans-4c"/>
      <use xlink:href="#DejaVuSans-61" x="55.712891"/>
      <use xlink:href="#DejaVuSans-74" x="116.992188"/>
      <use xlink:href="#DejaVuSans-65" x="156.201172"/>
      <use xlink:href="#DejaVuSans-6e" x="217.724609"/>
      <use xlink:href="#DejaVuSans-63" x="281.103516"/>
      <use xlink:href="#DejaVuSans-79" x="336.083984"/>
      <use xlink:href="#DejaVuSans-20" x="395.263672"/>
      <use xlink:href="#DejaVuSans-28" x="427.050781"/>
      <use xlink:href="#DejaVuSans-6e" x="466.064453"/>
      <use xlink:href="#DejaVuSans-73" x="529.443359"/>
      <use xlink:href="#DejaVuSans-29" x="581.542969"/>
     </g>
    </g>
   </g>
   <g id="line2d_15">
    <path d="M 73.832727 273.546332 
L 74.157707 294.698846 
L 74.807666 295.477336 
L 75.132645 97.860132 
L 75.457625 112.621214 
L 75.782604 99.466877 
L 76.107584 99.212713 
L 76.432563 96.575092 
L 76.757543 98.706162 
L 77.082523 95.867697 
L 77.407502 237.124407 
L 77.732482 110.692764 
L 78.382441 98.203165 
L 78.70742 162.419647 
L 79.0324 99.571742 
L 79.357379 104.695908 
L 79.682359 104.660361 
L 80.007338 106.274215 
L 80.332318 108.725213 
L 80.657297 105.490394 
L 81.307256 105.872529 
L 81.632236 99.738815 
L 81.957215 228.930718 
L 82.282195 106.423515 
L 82.607174 110.16133 
L 82.932154 104.846985 
L 83.257133 104.875423 
L 83.582113 105.197127 
L 83.907093 103.433974 
L 84.232072 103.114046 
L 84.557052 101.382885 
L 84.882031 71.684762 
L 85.207011 151.318176 
L 85.53199 61.969642 
L 85.85697 62.232693 
L 86.181949 64.646365 
L 86.506929 62.655708 
L 86.831908 63.800336 
L 87.156888 295.488 
L 87.481867 295.205398 
L 87.806847 237.143958 
L 88.131826 53.568 
L 88.456806 74.26373 
L 88.781785 164.108151 
L 89.106765 86.991497 
L 89.431744 83.62693 
L 89.756724 77.695837 
L 90.406683 85.105704 
L 91.056642 110.523914 
L 91.381622 119.568965 
L 92.031581 66.49661 
L 92.35656 186.695006 
L 92.68154 86.716004 
L 93.006519 104.28178 
L 93.331499 87.819753 
L 93.656478 77.790038 
L 93.981458 100.181381 
L 94.306437 291.586667 
L 94.631417 291.657761 
L 94.956396 293.563105 
L 95.606355 292.294061 
L 95.931335 164.511615 
L 96.256314 113.836937 
L 96.581294 109.203326 
L 96.906274 112.836276 
L 97.231253 290.49536 
L 97.556233 290.729973 
L 97.881212 291.245411 
L 98.206192 167.422952 
L 98.531171 120.878888 
L 98.856151 124.641587 
L 99.18113 168.489376 
L 99.50611 114.336379 
L 99.831089 120.660271 
L 100.156069 117.436117 
L 100.481048 118.710493 
L 100.806028 114.706072 
L 101.131007 108.90295 
L 101.455987 115.774273 
L 101.780966 206.98194 
L 102.105946 100.138724 
L 102.430925 156.877799 
L 102.755905 114.075105 
L 103.080885 199.451211 
L 103.405864 123.950189 
L 103.730844 127.037485 
L 104.380803 127.423175 
L 104.705782 158.729821 
L 105.030762 126.907737 
L 105.355741 124.218572 
L 105.680721 127.04815 
L 106.0057 137.319587 
L 106.33068 161.466975 
L 106.655659 166.601806 
L 106.980639 122.554951 
L 107.305618 127.373409 
L 107.630598 126.251887 
L 107.955577 126.099032 
L 108.280557 127.581361 
L 108.605536 139.795468 
L 108.930516 121.87244 
L 109.255495 127.821307 
L 109.580475 126.408295 
L 109.905455 160.469869 
L 110.230434 120.210596 
L 110.555414 124.293222 
L 110.880393 124.629145 
L 111.205373 178.469324 
L 111.530352 128.368738 
L 111.855332 126.596697 
L 112.180311 128.011486 
L 112.83027 125.382751 
L 113.480229 162.030403 
L 114.130188 127.264989 
L 114.455168 126.571814 
L 114.780147 127.696891 
L 115.105127 122.823334 
L 115.430106 126.198565 
L 115.755086 126.315872 
L 116.080066 126.079481 
L 116.730025 159.65761 
L 117.055004 164.797772 
L 117.379984 107.196672 
L 117.704963 128.144789 
L 118.029943 122.155042 
L 118.354922 128.642453 
L 118.679902 127.197449 
L 119.004881 177.072309 
L 119.329861 126.731777 
L 119.65484 121.227253 
L 119.97982 140.694819 
L 120.304799 170.524468 
L 120.629779 128.93572 
L 120.954758 124.789109 
L 121.279738 123.955521 
L 121.604717 182.512848 
L 121.929697 126.132803 
L 122.254676 128.226548 
L 122.579656 120.173271 
L 122.904636 118.69272 
L 123.229615 127.153015 
L 123.554595 138.976099 
L 124.204554 181.599278 
L 124.529533 128.173227 
L 124.854513 125.144583 
L 125.179492 124.431857 
L 125.504472 123.079276 
L 125.829451 119.055304 
L 126.154431 210.915266 
L 126.47941 174.939462 
L 126.80439 166.886185 
L 127.129369 175.150969 
L 127.454349 179.773916 
L 127.779328 180.781686 
L 128.104308 179.260255 
L 128.429287 180.971865 
L 128.754267 180.801238 
L 129.079247 183.222019 
L 129.404226 181.082062 
L 129.729206 180.810124 
L 130.054185 180.120504 
L 130.379165 183.234461 
L 130.704144 165.547824 
L 131.029124 141.055625 
L 131.354103 127.631128 
L 131.679083 127.799978 
L 132.004062 139.237373 
L 132.329042 117.935559 
L 132.654021 120.304797 
L 132.979001 123.815108 
L 133.30398 124.225681 
L 133.62896 121.003304 
L 133.953939 163.846878 
L 134.278919 161.383439 
L 134.603898 181.300679 
L 134.928878 127.456945 
L 135.253857 121.867108 
L 135.578837 127.225887 
L 135.903817 128.72599 
L 136.228796 263.792109 
L 136.553776 125.869751 
L 136.878755 124.95085 
L 137.203735 184.144476 
L 137.528714 126.623357 
L 137.853694 180.820789 
L 138.178673 165.050159 
L 138.503653 127.652456 
L 138.828632 122.979743 
L 139.153612 120.256808 
L 139.478591 126.945062 
L 139.803571 218.357127 
L 140.12855 128.923278 
L 140.45353 123.859543 
L 141.103489 166.203674 
L 141.428468 118.163063 
L 141.753448 128.985486 
L 142.078428 125.332985 
L 142.403407 138.259818 
L 142.728387 123.619597 
L 143.053366 128.13057 
L 143.378346 126.625135 
L 143.703325 117.425453 
L 144.028305 127.945723 
L 144.353284 160.149942 
L 144.678264 162.528067 
L 145.328223 129.56491 
L 145.653202 125.603145 
L 145.978182 127.378741 
L 146.303161 127.138796 
L 146.628141 115.829372 
L 146.95312 125.309879 
L 147.2781 122.499852 
L 147.603079 159.314577 
L 147.928059 166.616025 
L 148.253038 110.658994 
L 148.578018 122.908648 
L 148.902998 122.56206 
L 149.227977 126.147022 
L 149.552957 127.897734 
L 149.877936 125.629806 
L 150.202916 140.764136 
L 150.527895 128.446942 
L 150.852875 126.637576 
L 151.177854 187.974715 
L 151.502834 119.469432 
L 152.152793 128.994373 
L 152.477772 126.93973 
L 152.802752 180.534632 
L 153.127731 124.584711 
L 153.452711 127.871073 
L 153.77769 111.66321 
L 154.10267 120.887775 
L 154.427649 163.288783 
L 154.752629 166.194787 
L 155.077609 129.605789 
L 155.402588 140.678822 
L 155.727568 129.053026 
L 156.052547 127.369854 
L 156.377527 124.654028 
L 156.702506 126.429624 
L 157.027486 126.273215 
L 157.352465 123.580495 
L 157.677445 122.261684 
L 158.002424 161.826005 
L 158.327404 163.308334 
L 158.652383 128.880621 
L 158.977363 126.260773 
L 159.302342 118.8278 
L 159.627322 126.571814 
L 159.952301 123.177031 
L 160.277281 122.626046 
L 160.60226 138.976099 
L 160.92724 125.693791 
L 161.252219 125.832427 
L 161.577199 181.371774 
L 161.902179 108.833632 
L 162.227158 125.971062 
L 162.552138 128.317194 
L 162.877117 126.266106 
L 163.202097 134.856149 
L 163.527076 125.418299 
L 163.852056 125.428963 
L 164.177035 135.847923 
L 164.502015 160.677822 
L 164.826994 121.125943 
L 165.151974 126.580701 
L 165.476953 129.941713 
L 165.801933 142.042067 
L 166.126912 123.585827 
L 166.451892 119.608067 
L 166.776871 117.789814 
L 167.101851 163.045283 
L 167.42683 136.660182 
L 167.75181 126.458062 
L 168.07679 124.739342 
L 168.401769 141.638604 
L 168.726749 126.351419 
L 169.051728 123.047283 
L 169.376708 127.266766 
L 169.701687 127.197449 
L 170.026667 181.288238 
L 170.351646 268.663889 
L 170.676626 109.365067 
L 171.001605 142.639264 
L 171.326585 253.956128 
L 171.651564 252.719076 
L 171.976544 263.681912 
L 172.301523 123.596491 
L 172.626503 127.353858 
L 172.951482 125.558711 
L 173.276462 189.503255 
L 173.601441 121.987969 
L 173.926421 128.304752 
L 174.2514 118.797585 
L 174.57638 128.3403 
L 174.90136 125.400525 
L 175.226339 121.436983 
L 175.551319 138.194055 
L 175.876298 131.582228 
L 176.201278 258.593294 
L 176.526257 154.16375 
L 176.851237 140.989862 
L 177.176216 139.082741 
L 177.501196 128.859293 
L 177.826175 126.280324 
L 178.151155 122.044845 
L 178.476134 128.580245 
L 178.801114 137.564865 
L 179.126093 125.420076 
L 179.776052 253.497566 
L 180.101032 259.140725 
L 180.426011 135.455123 
L 180.750991 142.14871 
L 181.075971 130.482034 
L 181.40095 141.681261 
L 181.72593 138.586854 
L 182.050909 129.859953 
L 182.375889 124.254119 
L 182.700868 123.680028 
L 183.025848 126.861525 
L 183.350827 266.479497 
L 183.675807 264.61681 
L 184.000786 132.554451 
L 184.325766 141.640381 
L 184.650745 140.469092 
L 184.975725 140.625501 
L 185.300704 124.163473 
L 185.625684 126.774434 
L 185.950663 126.76377 
L 186.275643 139.806132 
L 186.600622 138.1905 
L 186.925602 266.060037 
L 187.250581 264.739449 
L 187.575561 115.72273 
L 187.900541 129.589793 
L 188.22552 119.131731 
L 188.875479 139.249814 
L 189.200459 140.332234 
L 189.525438 139.447103 
L 189.850418 126.258996 
L 190.175397 125.309879 
L 190.500377 126.074149 
L 190.825356 272.591883 
L 191.150336 270.315068 
L 191.475315 116.982887 
L 191.800295 178.966989 
L 192.125274 127.817752 
L 192.450254 126.068817 
L 192.775233 125.013058 
L 193.100213 82.748908 
L 193.425192 127.311201 
L 193.750172 125.112591 
L 194.075152 128.438055 
L 194.400131 266.072479 
L 194.725111 273.32416 
L 195.37507 128.331413 
L 195.700049 124.442521 
L 196.025029 129.682216 
L 196.350008 125.995945 
L 196.674988 180.554183 
L 196.999967 180.886551 
L 197.324947 178.295142 
L 197.649926 170.280968 
L 197.974906 180.381778 
L 198.299885 266.355081 
L 198.624865 262.469744 
L 198.949844 170.341398 
L 199.274824 168.713325 
L 199.599803 181.245581 
L 199.924783 181.002081 
L 200.249762 181.174486 
L 200.574742 181.494413 
L 200.899722 180.646606 
L 201.224701 180.411993 
L 201.549681 135.604423 
L 201.87466 115.317489 
L 202.19964 260.479086 
L 202.524619 159.966873 
L 202.849599 128.345632 
L 203.174578 124.824656 
L 203.824537 127.860409 
L 204.149517 124.485178 
L 204.474496 127.663121 
L 204.799476 137.881237 
L 205.124455 128.349187 
L 205.449435 126.338978 
L 205.774414 138.007431 
L 206.099394 182.697694 
L 206.749353 77.47722 
L 207.074333 127.545814 
L 207.399312 140.270026 
L 207.724292 124.661138 
L 208.049271 124.822879 
L 208.374251 123.966185 
L 208.69923 125.46451 
L 209.02421 128.757982 
L 209.349189 137.298259 
L 209.674169 166.790207 
L 209.999148 142.219804 
L 210.324128 129.372953 
L 210.649107 123.619597 
L 210.974087 127.999044 
L 211.299066 126.747774 
L 211.624046 119.471209 
L 211.949025 126.566482 
L 212.274005 126.708671 
L 212.923964 157.402124 
L 213.248943 164.198798 
L 213.573923 128.994373 
L 213.898903 127.704 
L 214.223882 108.264873 
L 214.548862 127.117467 
L 214.873841 130.096344 
L 215.198821 168.093021 
L 215.5238 127.972383 
L 215.84878 123.694247 
L 216.173759 141.419987 
L 216.498739 166.146798 
L 216.823718 123.889758 
L 217.148698 130.039468 
L 217.473677 252.576887 
L 217.798657 164.294776 
L 218.123636 126.934398 
L 218.448616 129.911497 
L 218.773595 126.962836 
L 219.098575 127.18323 
L 219.423554 266.561256 
L 219.748534 131.144994 
L 220.073514 125.697346 
L 220.398493 168.089467 
L 220.723473 123.825773 
L 221.048452 130.181658 
L 221.373432 126.472281 
L 221.698411 127.922617 
L 222.023391 127.728883 
L 222.34837 128.205219 
L 222.67335 248.856845 
L 222.998329 264.655913 
L 223.323309 115.377919 
L 223.648288 119.339683 
L 223.973268 128.247876 
L 224.298247 123.71913 
L 224.623227 127.430285 
L 224.948206 126.836642 
L 225.273186 122.547841 
L 225.598165 140.735698 
L 225.923145 127.25788 
L 226.248124 265.66546 
L 226.573104 225.830979 
L 226.898084 128.246099 
L 227.223063 126.294543 
L 227.548043 121.527629 
L 227.873022 124.883309 
L 228.198002 155.766941 
L 228.522981 128.772201 
L 228.847961 127.147682 
L 229.17294 126.833087 
L 229.49792 129.923939 
L 229.822899 268.528808 
L 230.147879 263.449076 
L 230.472858 117.009548 
L 230.797838 140.26114 
L 231.122817 123.92886 
L 231.447797 128.766869 
L 231.772776 125.848423 
L 232.097756 129.287639 
L 232.422735 125.699124 
L 232.747715 128.347409 
L 233.072695 125.148138 
L 233.397674 240.846226 
L 233.722654 264.654135 
L 234.047633 119.913775 
L 234.697592 125.731116 
L 235.347551 127.339639 
L 235.672531 129.852844 
L 235.99751 158.178836 
L 236.32249 130.172771 
L 236.647469 124.97751 
L 237.297428 266.392406 
L 237.622408 227.738101 
L 237.947387 125.025499 
L 238.272367 124.973955 
L 238.597346 157.412788 
L 238.922326 128.558917 
L 239.247305 124.478068 
L 239.572285 127.645347 
L 239.897265 125.384529 
L 240.222244 115.328153 
L 240.547224 125.745335 
L 240.872203 266.056482 
L 241.197183 261.330448 
L 241.522162 121.511633 
L 241.847142 128.311862 
L 242.172121 128.023927 
L 242.497101 126.591365 
L 242.82208 127.307646 
L 243.14706 128.358073 
L 243.472039 123.555612 
L 243.797019 140.725034 
L 244.121998 126.959281 
L 244.446978 124.245233 
L 244.771957 264.613256 
L 245.096937 117.907121 
L 245.421916 129.038807 
L 245.746896 126.946839 
L 246.071876 126.376303 
L 246.396855 140.095844 
L 246.721835 127.293427 
L 247.046814 127.702223 
L 247.371794 124.472736 
L 247.696773 126.669569 
L 248.021753 266.138242 
L 248.671712 124.367871 
L 248.996691 139.511088 
L 249.321671 128.638898 
L 249.64665 123.628484 
L 249.97163 128.749095 
L 250.296609 125.912408 
L 250.621589 128.562471 
L 250.946568 123.792002 
L 251.271548 129.913275 
L 251.596527 266.150683 
L 251.921507 173.258067 
L 252.246486 128.670891 
L 252.896446 120.567848 
L 253.221425 126.351419 
L 253.546405 127.657788 
L 253.871384 129.906165 
L 254.196364 148.966712 
L 254.521343 129.161446 
L 254.846323 125.492948 
L 255.171302 260.036521 
L 255.496282 250.635995 
L 255.821261 140.113618 
L 256.146241 122.833998 
L 256.47122 125.320543 
L 256.7962 134.649973 
L 257.121179 116.680734 
L 257.446159 129.511588 
L 257.771138 123.975072 
L 258.096118 127.558256 
L 258.421097 125.286773 
L 258.746077 266.356859 
L 259.071057 232.432142 
L 259.396036 145.820762 
L 259.721016 121.58806 
L 260.045995 126.305208 
L 260.695954 123.806221 
L 261.020934 128.818413 
L 261.345913 125.81643 
L 261.670893 178.636397 
L 261.995872 180.987862 
L 262.320852 265.846752 
L 262.645831 264.389307 
L 262.970811 169.225208 
L 263.29579 178.74304 
L 263.62077 181.357555 
L 263.945749 181.378884 
L 264.270729 184.226235 
L 264.595708 180.854559 
L 264.920688 184.172914 
L 265.245667 181.133606 
L 265.570647 181.041183 
L 265.895627 183.646812 
L 266.220606 266.047596 
L 266.545586 259.593955 
L 266.870565 117.873351 
L 267.845504 128.997928 
L 268.170483 122.594053 
L 268.495463 127.193894 
L 268.820442 128.781088 
L 269.145422 128.244322 
L 269.470401 170.636442 
L 269.795381 265.541044 
L 270.12036 276.429231 
L 270.44534 177.237605 
L 270.770319 126.068817 
L 271.095299 124.326992 
L 271.420278 127.465832 
L 271.745258 125.910631 
L 272.070238 141.889213 
L 272.395217 126.388744 
L 272.720197 126.027938 
L 273.045176 123.552057 
L 273.370156 126.164795 
L 273.695135 260.724364 
L 274.020115 158.770701 
L 274.345094 127.421398 
L 274.670074 127.437394 
L 274.995053 140.241588 
L 275.320033 123.143261 
L 275.645012 123.555612 
L 275.969992 128.324303 
L 276.294971 127.826639 
L 276.619951 128.000821 
L 277.26991 259.350455 
L 277.594889 256.753713 
L 277.919869 115.660522 
L 278.244848 129.447603 
L 278.569828 124.988174 
L 278.894808 129.525807 
L 279.219787 126.358529 
L 279.544767 125.302769 
L 279.869746 128.900172 
L 280.194726 138.913891 
L 280.519705 126.641131 
L 280.844685 125.651135 
L 281.169664 264.053383 
L 281.494644 117.647624 
L 281.819623 118.122183 
L 282.144603 126.957504 
L 282.469582 127.448058 
L 282.794562 136.032769 
L 283.119541 123.720908 
L 283.444521 122.428757 
L 283.7695 128.391843 
L 284.09448 114.521226 
L 284.419459 266.054705 
L 284.744439 260.336897 
L 285.069419 121.607611 
L 285.394398 134.033225 
L 285.719378 126.625135 
L 286.044357 125.777328 
L 286.369337 126.474058 
L 286.694316 128.3403 
L 287.019296 125.638693 
L 287.344275 124.058608 
L 287.669255 123.264123 
L 287.994234 133.725739 
L 288.319214 264.149361 
L 288.644193 118.518537 
L 288.969173 114.894474 
L 289.294152 128.180336 
L 289.619132 128.802417 
L 289.944111 126.715781 
L 290.269091 126.726445 
L 290.59407 130.82329 
L 291.244029 122.777123 
L 291.569009 265.910738 
L 291.893989 264.158248 
L 292.218968 110.038691 
L 292.543948 128.208774 
L 292.868927 125.32943 
L 293.193907 133.251181 
L 293.518886 161.481194 
L 293.843866 126.623357 
L 294.168845 110.243089 
L 294.493825 125.693791 
L 294.818804 129.676884 
L 295.143784 259.108732 
L 295.468763 264.712789 
L 295.793743 117.804033 
L 296.118722 128.585577 
L 296.443702 126.881077 
L 296.768681 126.911292 
L 297.093661 127.874628 
L 297.74362 128.816636 
L 298.0686 124.66647 
L 298.393579 131.002804 
L 298.718559 123.393871 
L 299.043538 181.140716 
L 299.368518 131.69598 
L 299.693497 122.581612 
L 300.018477 126.623357 
L 300.343456 126.474058 
L 300.668436 127.714664 
L 300.993415 130.282968 
L 301.318395 123.96263 
L 301.643374 128.658449 
L 301.968354 280.056849 
L 302.293333 276.758045 
L 302.618313 264.536829 
L 302.943292 127.95461 
L 303.268272 125.229897 
L 303.593251 128.473603 
L 303.918231 128.919723 
L 304.56819 127.98127 
L 304.89317 129.406723 
L 305.218149 128.637121 
L 305.543129 126.856193 
L 305.868108 266.346194 
L 306.193088 263.203799 
L 306.518067 223.884756 
L 306.843047 122.538955 
L 307.168026 120.118173 
L 307.493006 128.877066 
L 307.817985 123.756455 
L 308.142965 129.616453 
L 308.467944 126.731777 
L 308.792924 126.991274 
L 309.117903 130.091012 
L 309.442883 125.276109 
L 309.767862 266.541705 
L 310.092842 262.263569 
L 310.417821 119.896001 
L 310.742801 126.015496 
L 311.067781 129.488483 
L 311.39276 124.684244 
L 311.71774 128.114573 
L 312.042719 111.844502 
L 312.367699 122.099943 
L 312.692678 123.413422 
L 313.017658 124.204353 
L 313.342637 266.452837 
L 313.667617 264.584818 
L 313.992596 117.793369 
L 314.317576 126.754883 
L 314.642555 150.669435 
L 314.967535 129.986147 
L 315.292514 125.592481 
L 315.617494 126.886409 
L 315.942473 125.165912 
L 316.267453 128.02215 
L 316.592432 126.038602 
L 316.917412 259.334458 
L 317.242391 264.700347 
L 317.567371 118.934442 
L 317.892351 129.300081 
L 318.54231 126.283879 
L 318.867289 116.698507 
L 319.192269 125.013058 
L 319.517248 121.817341 
L 319.842228 120.838009 
L 320.167207 128.512705 
L 320.492187 125.347204 
L 320.817166 264.593705 
L 321.142146 119.366344 
L 321.467125 125.398748 
L 321.792105 121.186374 
L 322.117084 125.930182 
L 322.442064 254.391584 
L 322.767043 201.735135 
L 323.092023 204.074158 
L 323.417002 98.018318 
L 323.741982 125.805766 
L 324.066962 128.004376 
L 324.391941 163.071943 
L 324.716921 112.829167 
L 325.0419 128.708216 
L 325.36688 123.811554 
L 325.691859 127.288095 
L 326.341818 122.025294 
L 326.666798 180.348007 
L 326.991777 98.20672 
L 327.316757 63.832328 
L 327.641736 179.613952 
L 327.966716 158.983985 
L 328.291695 181.745023 
L 328.616675 181.42865 
L 328.941654 175.662853 
L 329.266634 178.08008 
L 329.591613 174.941239 
L 330.241572 183.648589 
L 330.566552 177.797477 
L 330.891532 182.512848 
L 331.216511 162.286344 
L 331.541491 115.811598 
L 331.86647 127.163679 
L 332.19145 129.264534 
L 332.841409 114.67408 
L 333.166388 126.120361 
L 333.491368 124.654028 
L 333.816347 124.776667 
L 334.141327 127.163679 
L 334.466306 273.980011 
L 334.791286 101.469976 
L 335.116265 128.098577 
L 335.441245 126.035047 
L 335.766224 122.011075 
L 336.091204 126.363861 
L 336.416183 125.660021 
L 336.741163 129.049471 
L 337.066143 126.977055 
L 337.391122 168.491153 
L 337.716102 166.36186 
L 338.041081 129.141895 
L 338.366061 127.009047 
L 338.69104 121.721363 
L 339.01602 128.528701 
L 339.340999 122.306119 
L 339.665979 128.96949 
L 339.990958 121.842224 
L 340.315938 91.769075 
L 340.640917 122.784232 
L 340.965897 165.2119 
L 341.290876 125.427186 
L 341.615856 116.401686 
L 341.940835 129.005037 
L 342.265815 125.359645 
L 342.590794 178.373346 
L 342.915774 125.014835 
L 343.240753 125.661799 
L 343.565733 126.609138 
L 344.215692 146.469503 
L 344.540672 102.415539 
L 344.865651 119.664943 
L 345.190631 125.660021 
L 345.51561 122.912203 
L 345.84059 109.704545 
L 346.165569 129.573796 
L 346.490549 117.818252 
L 346.815528 126.506051 
L 347.140508 129.742647 
L 347.465487 150.39572 
L 347.790467 112.15732 
L 348.115446 123.991068 
L 348.440426 129.77464 
L 348.765405 126.913069 
L 349.090385 127.551146 
L 349.415364 128.989041 
L 349.740344 122.366549 
L 350.065324 118.484767 
L 350.390303 121.285907 
L 350.715283 161.619829 
L 351.040262 119.865786 
L 351.365242 128.358073 
L 351.690221 128.132347 
L 352.015201 127.599135 
L 352.34018 128.388289 
L 352.66516 129.667997 
L 352.990139 128.473603 
L 353.315119 124.438966 
L 353.640098 125.069934 
L 353.965078 168.068138 
L 354.290057 185.571706 
L 354.615037 112.718969 
L 355.264996 128.166117 
L 355.589975 126.637576 
L 355.914955 128.65134 
L 356.239934 118.879344 
L 356.564914 126.55404 
L 357.214873 63.658146 
L 357.539853 181.666818 
L 357.864832 162.432089 
L 358.189812 126.623357 
L 358.514791 126.884631 
L 358.839771 126.977055 
L 359.16475 119.80891 
L 359.48973 126.594919 
L 359.814709 128.633566 
L 360.139689 119.503202 
L 360.464668 128.846851 
L 360.789648 167.264766 
L 361.114627 123.418754 
L 361.439607 126.132803 
L 361.764586 121.616498 
L 362.089566 124.03728 
L 362.414545 124.419415 
L 362.739525 126.859748 
L 363.064505 121.716031 
L 363.389484 112.091557 
L 364.039443 162.608049 
L 364.364423 128.596241 
L 364.689402 129.568464 
L 365.014382 127.624018 
L 365.339361 128.857515 
L 365.98932 126.228781 
L 366.3143 123.118378 
L 366.639279 116.264828 
L 366.964259 126.41896 
L 367.289238 172.557782 
L 367.614218 138.768146 
L 368.264177 120.747363 
L 368.589156 121.669819 
L 368.914136 126.710449 
L 369.239115 127.519153 
L 369.564095 127.776872 
L 369.889075 123.843546 
L 370.214054 128.052365 
L 370.539034 161.78868 
L 370.864013 104.048945 
L 371.188993 124.152809 
L 371.513972 127.478274 
L 371.838952 126.658905 
L 372.163931 126.228781 
L 372.488911 124.014174 
L 372.81389 128.40073 
L 373.13887 128.534033 
L 373.463849 121.365888 
L 373.788829 178.991872 
L 374.113808 146.894295 
L 374.438788 128.845074 
L 374.763767 122.828666 
L 375.088747 139.312022 
L 375.413726 127.195672 
L 375.738706 126.964613 
L 376.063686 128.398953 
L 376.388665 114.787831 
L 376.713645 127.288095 
L 377.038624 162.572501 
L 377.363604 105.147361 
L 377.688583 126.833087 
L 378.013563 127.247215 
L 378.338542 123.854211 
L 378.663522 126.820646 
L 378.988501 127.105026 
L 379.313481 123.777783 
L 379.63846 117.153515 
L 379.96344 125.244116 
L 380.288419 139.525307 
L 380.613399 161.893545 
L 380.938378 127.277431 
L 381.913317 123.397426 
L 382.238296 128.320749 
L 382.563276 122.08217 
L 382.888256 126.495387 
L 383.213235 126.658905 
L 383.538215 174.585765 
L 383.863194 143.531506 
L 384.188174 127.927949 
L 384.513153 128.329635 
L 384.838133 125.452069 
L 385.163112 125.802211 
L 385.488092 127.204558 
L 385.813071 127.538704 
L 386.138051 124.518948 
L 386.46303 122.95486 
L 386.78801 166.909291 
L 387.437969 126.051043 
L 387.762948 118.504318 
L 388.087928 127.952832 
L 388.412907 127.076588 
L 388.737887 129.404946 
L 389.062867 124.28789 
L 389.387846 128.50915 
L 389.712826 127.490715 
L 390.037805 166.08459 
L 390.362785 111.757411 
L 390.687764 127.337861 
L 391.012744 123.998178 
L 391.337723 140.91699 
L 391.662703 168.761314 
L 391.987682 181.668596 
L 392.312662 182.969632 
L 392.637641 177.289149 
L 392.962621 181.041183 
L 393.2876 179.795245 
L 393.61258 159.02131 
L 393.937559 177.87035 
L 394.262539 178.632843 
L 394.587518 162.227691 
L 394.912498 182.928753 
L 395.562457 176.567535 
L 395.887437 178.497762 
L 396.212416 179.725927 
L 396.537396 142.870323 
L 396.862375 164.54183 
L 397.187355 128.326081 
L 397.512334 124.590043 
L 397.837314 125.713343 
L 398.162293 127.965274 
L 398.487273 127.689781 
L 398.487273 127.689781 
" clip-path="url(#p667bd28b6d)" style="fill: none; stroke: #1f77b4; stroke-width: 1.5; stroke-linecap: square"/>
   </g>
   <g id="patch_3">
    <path d="M 57.6 307.584 
L 57.6 41.472 
" style="fill: none; stroke: #000000; stroke-width: 0.8; stroke-linejoin: miter; stroke-linecap: square"/>
   </g>
   <g id="patch_4">
    <path d="M 414.72 307.584 
L 414.72 41.472 
" style="fill: none; stroke: #000000; stroke-width: 0.8; stroke-linejoin: miter; stroke-linecap: square"/>
   </g>
   <g id="patch_5">
    <path d="M 57.6 307.584 
L 414.72 307.584 
" style="fill: none; stroke: #000000; stroke-width: 0.8; stroke-linejoin: miter; stroke-linecap: square"/>
   </g>
   <g id="patch_6">
    <path d="M 57.6 41.472 
L 414.72 41.472 
" style="fill: none; stroke: #000000; stroke-width: 0.8; stroke-linejoin: miter; stroke-linecap: square"/>
   </g>
   <g id="text_18">
    <!-- Scheduling latency vs. time for: /home/thomas/Desktop/ros2_pendulum_benchmark//2022-08-08_15:56:34/demo/0_stress/fifo/results.csv -->
    <g transform="translate(-176.30625 35.472)scale(0.12 -0.12)">
     <defs>
      <path id="DejaVuSans-53" d="M 3425 4513 
L 3425 3897 
Q 3066 4069 2747 4153 
Q 2428 4238 2131 4238 
Q 1616 4238 1336 4038 
Q 1056 3838 1056 3469 
Q 1056 3159 1242 3001 
Q 1428 2844 1947 2747 
L 2328 2669 
Q 3034 2534 3370 2195 
Q 3706 1856 3706 1288 
Q 3706 609 3251 259 
Q 2797 -91 1919 -91 
Q 1588 -91 1214 -16 
Q 841 59 441 206 
L 441 856 
Q 825 641 1194 531 
Q 1563 422 1919 422 
Q 2459 422 2753 634 
Q 3047 847 3047 1241 
Q 3047 1584 2836 1778 
Q 2625 1972 2144 2069 
L 1759 2144 
Q 1053 2284 737 2584 
Q 422 2884 422 3419 
Q 422 4038 858 4394 
Q 1294 4750 2059 4750 
Q 2388 4750 2728 4690 
Q 3069 4631 3425 4513 
z
" transform="scale(0.015625)"/>
      <path id="DejaVuSans-68" d="M 3513 2113 
L 3513 0 
L 2938 0 
L 2938 2094 
Q 2938 2591 2744 2837 
Q 2550 3084 2163 3084 
Q 1697 3084 1428 2787 
Q 1159 2491 1159 1978 
L 1159 0 
L 581 0 
L 581 4863 
L 1159 4863 
L 1159 2956 
Q 1366 3272 1645 3428 
Q 1925 3584 2291 3584 
Q 2894 3584 3203 3211 
Q 3513 2838 3513 2113 
z
" transform="scale(0.015625)"/>
      <path id="DejaVuSans-64" d="M 2906 2969 
L 2906 4863 
L 3481 4863 
L 3481 0 
L 2906 0 
L 2906 525 
Q 2725 213 2448 61 
Q 2172 -91 1784 -91 
Q 1150 -91 751 415 
Q 353 922 353 1747 
Q 353 2572 751 3078 
Q 1150 3584 1784 3584 
Q 2172 3584 2448 3432 
Q 2725 3281 2906 2969 
z
M 947 1747 
Q 947 1113 1208 752 
Q 1469 391 1925 391 
Q 2381 391 2643 752 
Q 2906 1113 2906 1747 
Q 2906 2381 2643 2742 
Q 2381 3103 1925 3103 
Q 1469 3103 1208 2742 
Q 947 2381 947 1747 
z
" transform="scale(0.015625)"/>
      <path id="DejaVuSans-75" d="M 544 1381 
L 544 3500 
L 1119 3500 
L 1119 1403 
Q 1119 906 1312 657 
Q 1506 409 1894 409 
Q 2359 409 2629 706 
Q 2900 1003 2900 1516 
L 2900 3500 
L 3475 3500 
L 3475 0 
L 2900 0 
L 2900 538 
Q 2691 219 2414 64 
Q 2138 -91 1772 -91 
Q 1169 -91 856 284 
Q 544 659 544 1381 
z
M 1991 3584 
L 1991 3584 
z
" transform="scale(0.015625)"/>
      <path id="DejaVuSans-6c" d="M 603 4863 
L 1178 4863 
L 1178 0 
L 603 0 
L 603 4863 
z
" transform="scale(0.015625)"/>
      <path id="DejaVuSans-67" d="M 2906 1791 
Q 2906 2416 2648 2759 
Q 2391 3103 1925 3103 
Q 1463 3103 1205 2759 
Q 947 2416 947 1791 
Q 947 1169 1205 825 
Q 1463 481 1925 481 
Q 2391 481 2648 825 
Q 2906 1169 2906 1791 
z
M 3481 434 
Q 3481 -459 3084 -895 
Q 2688 -1331 1869 -1331 
Q 1566 -1331 1297 -1286 
Q 1028 -1241 775 -1147 
L 775 -588 
Q 1028 -725 1275 -790 
Q 1522 -856 1778 -856 
Q 2344 -856 2625 -561 
Q 2906 -266 2906 331 
L 2906 616 
Q 2728 306 2450 153 
Q 2172 0 1784 0 
Q 1141 0 747 490 
Q 353 981 353 1791 
Q 353 2603 747 3093 
Q 1141 3584 1784 3584 
Q 2172 3584 2450 3431 
Q 2728 3278 2906 2969 
L 2906 3500 
L 3481 3500 
L 3481 434 
z
" transform="scale(0.015625)"/>
      <path id="DejaVuSans-76" d="M 191 3500 
L 800 3500 
L 1894 563 
L 2988 3500 
L 3597 3500 
L 2284 0 
L 1503 0 
L 191 3500 
z
" transform="scale(0.015625)"/>
      <path id="DejaVuSans-66" d="M 2375 4863 
L 2375 4384 
L 1825 4384 
Q 1516 4384 1395 4259 
Q 1275 4134 1275 3809 
L 1275 3500 
L 2222 3500 
L 2222 3053 
L 1275 3053 
L 1275 0 
L 697 0 
L 697 3053 
L 147 3053 
L 147 3500 
L 697 3500 
L 697 3744 
Q 697 4328 969 4595 
Q 1241 4863 1831 4863 
L 2375 4863 
z
" transform="scale(0.015625)"/>
      <path id="DejaVuSans-6f" d="M 1959 3097 
Q 1497 3097 1228 2736 
Q 959 2375 959 1747 
Q 959 1119 1226 758 
Q 1494 397 1959 397 
Q 2419 397 2687 759 
Q 2956 1122 2956 1747 
Q 2956 2369 2687 2733 
Q 2419 3097 1959 3097 
z
M 1959 3584 
Q 2709 3584 3137 3096 
Q 3566 2609 3566 1747 
Q 3566 888 3137 398 
Q 2709 -91 1959 -91 
Q 1206 -91 779 398 
Q 353 888 353 1747 
Q 353 2609 779 3096 
Q 1206 3584 1959 3584 
z
" transform="scale(0.015625)"/>
      <path id="DejaVuSans-72" d="M 2631 2963 
Q 2534 3019 2420 3045 
Q 2306 3072 2169 3072 
Q 1681 3072 1420 2755 
Q 1159 2438 1159 1844 
L 1159 0 
L 581 0 
L 581 3500 
L 1159 3500 
L 1159 2956 
Q 1341 3275 1631 3429 
Q 1922 3584 2338 3584 
Q 2397 3584 2469 3576 
Q 2541 3569 2628 3553 
L 2631 2963 
z
" transform="scale(0.015625)"/>
      <path id="DejaVuSans-3a" d="M 750 794 
L 1409 794 
L 1409 0 
L 750 0 
L 750 794 
z
M 750 3309 
L 1409 3309 
L 1409 2516 
L 750 2516 
L 750 3309 
z
" transform="scale(0.015625)"/>
      <path id="DejaVuSans-2f" d="M 1625 4666 
L 2156 4666 
L 531 -594 
L 0 -594 
L 1625 4666 
z
" transform="scale(0.015625)"/>
      <path id="DejaVuSans-44" d="M 1259 4147 
L 1259 519 
L 2022 519 
Q 2988 519 3436 956 
Q 3884 1394 3884 2338 
Q 3884 3275 3436 3711 
Q 2988 4147 2022 4147 
L 1259 4147 
z
M 628 4666 
L 1925 4666 
Q 3281 4666 3915 4102 
Q 4550 3538 4550 2338 
Q 4550 1131 3912 565 
Q 3275 0 1925 0 
L 628 0 
L 628 4666 
z
" transform="scale(0.015625)"/>
      <path id="DejaVuSans-6b" d="M 581 4863 
L 1159 4863 
L 1159 1991 
L 2875 3500 
L 3609 3500 
L 1753 1863 
L 3688 0 
L 2938 0 
L 1159 1709 
L 1159 0 
L 581 0 
L 581 4863 
z
" transform="scale(0.015625)"/>
      <path id="DejaVuSans-70" d="M 1159 525 
L 1159 -1331 
L 581 -1331 
L 581 3500 
L 1159 3500 
L 1159 2969 
Q 1341 3281 1617 3432 
Q 1894 3584 2278 3584 
Q 2916 3584 3314 3078 
Q 3713 2572 3713 1747 
Q 3713 922 3314 415 
Q 2916 -91 2278 -91 
Q 1894 -91 1617 61 
Q 1341 213 1159 525 
z
M 3116 1747 
Q 3116 2381 2855 2742 
Q 2594 3103 2138 3103 
Q 1681 3103 1420 2742 
Q 1159 2381 1159 1747 
Q 1159 1113 1420 752 
Q 1681 391 2138 391 
Q 2594 391 2855 752 
Q 3116 1113 3116 1747 
z
" transform="scale(0.015625)"/>
      <path id="DejaVuSans-5f" d="M 3263 -1063 
L 3263 -1509 
L -63 -1509 
L -63 -1063 
L 3263 -1063 
z
" transform="scale(0.015625)"/>
      <path id="DejaVuSans-62" d="M 3116 1747 
Q 3116 2381 2855 2742 
Q 2594 3103 2138 3103 
Q 1681 3103 1420 2742 
Q 1159 2381 1159 1747 
Q 1159 1113 1420 752 
Q 1681 391 2138 391 
Q 2594 391 2855 752 
Q 3116 1113 3116 1747 
z
M 1159 2969 
Q 1341 3281 1617 3432 
Q 1894 3584 2278 3584 
Q 2916 3584 3314 3078 
Q 3713 2572 3713 1747 
Q 3713 922 3314 415 
Q 2916 -91 2278 -91 
Q 1894 -91 1617 61 
Q 1341 213 1159 525 
L 1159 0 
L 581 0 
L 581 4863 
L 1159 4863 
L 1159 2969 
z
" transform="scale(0.015625)"/>
      <path id="DejaVuSans-2d" d="M 313 2009 
L 1997 2009 
L 1997 1497 
L 313 1497 
L 313 2009 
z
" transform="scale(0.015625)"/>
      <path id="DejaVuSans-35" d="M 691 4666 
L 3169 4666 
L 3169 4134 
L 1269 4134 
L 1269 2991 
Q 1406 3038 1543 3061 
Q 1681 3084 1819 3084 
Q 2600 3084 3056 2656 
Q 3513 2228 3513 1497 
Q 3513 744 3044 326 
Q 2575 -91 1722 -91 
Q 1428 -91 1123 -41 
Q 819 9 494 109 
L 494 744 
Q 775 591 1075 516 
Q 1375 441 1709 441 
Q 2250 441 2565 725 
Q 2881 1009 2881 1497 
Q 2881 1984 2565 2268 
Q 2250 2553 1709 2553 
Q 1456 2553 1204 2497 
Q 953 2441 691 2322 
L 691 4666 
z
" transform="scale(0.015625)"/>
      <path id="DejaVuSans-33" d="M 2597 2516 
Q 3050 2419 3304 2112 
Q 3559 1806 3559 1356 
Q 3559 666 3084 287 
Q 2609 -91 1734 -91 
Q 1441 -91 1130 -33 
Q 819 25 488 141 
L 488 750 
Q 750 597 1062 519 
Q 1375 441 1716 441 
Q 2309 441 2620 675 
Q 2931 909 2931 1356 
Q 2931 1769 2642 2001 
Q 2353 2234 1838 2234 
L 1294 2234 
L 1294 2753 
L 1863 2753 
Q 2328 2753 2575 2939 
Q 2822 3125 2822 3475 
Q 2822 3834 2567 4026 
Q 2313 4219 1838 4219 
Q 1578 4219 1281 4162 
Q 984 4106 628 3988 
L 628 4550 
Q 988 4650 1302 4700 
Q 1616 4750 1894 4750 
Q 2613 4750 3031 4423 
Q 3450 4097 3450 3541 
Q 3450 3153 3228 2886 
Q 3006 2619 2597 2516 
z
" transform="scale(0.015625)"/>
     </defs>
     <use xlink:href="#DejaVuSans-53"/>
     <use xlink:href="#DejaVuSans-63" x="63.476562"/>
     <use xlink:href="#DejaVuSans-68" x="118.457031"/>
     <use xlink:href="#DejaVuSans-65" x="181.835938"/>
     <use xlink:href="#DejaVuSans-64" x="243.359375"/>
     <use xlink:href="#DejaVuSans-75" x="306.835938"/>
     <use xlink:href="#DejaVuSans-6c" x="370.214844"/>
     <use xlink:href="#DejaVuSans-69" x="397.998047"/>
     <use xlink:href="#DejaVuSans-6e" x="425.78125"/>
     <use xlink:href="#DejaVuSans-67" x="489.160156"/>
     <use xlink:href="#DejaVuSans-20" x="552.636719"/>
     <use xlink:href="#DejaVuSans-6c" x="584.423828"/>
     <use xlink:href="#DejaVuSans-61" x="612.207031"/>
     <use xlink:href="#DejaVuSans-74" x="673.486328"/>
     <use xlink:href="#DejaVuSans-65" x="712.695312"/>
     <use xlink:href="#DejaVuSans-6e" x="774.21875"/>
     <use xlink:href="#DejaVuSans-63" x="837.597656"/>
     <use xlink:href="#DejaVuSans-79" x="892.578125"/>
     <use xlink:href="#DejaVuSans-20" x="951.757812"/>
     <use xlink:href="#DejaVuSans-76" x="983.544922"/>
     <use xlink:href="#DejaVuSans-73" x="1042.724609"/>
     <use xlink:href="#DejaVuSans-2e" x="1094.824219"/>
     <use xlink:href="#DejaVuSans-20" x="1126.611328"/>
     <use xlink:href="#DejaVuSans-74" x="1158.398438"/>
     <use xlink:href="#DejaVuSans-69" x="1197.607422"/>
     <use xlink:href="#DejaVuSans-6d" x="1225.390625"/>
     <use xlink:href="#DejaVuSans-65" x="1322.802734"/>
     <use xlink:href="#DejaVuSans-20" x="1384.326172"/>
     <use xlink:href="#DejaVuSans-66" x="1416.113281"/>
     <use xlink:href="#DejaVuSans-6f" x="1451.318359"/>
     <use xlink:href="#DejaVuSans-72" x="1512.5"/>
     <use xlink:href="#DejaVuSans-3a" x="1551.863281"/>
     <use xlink:href="#DejaVuSans-20" x="1585.554688"/>
     <use xlink:href="#DejaVuSans-2f" x="1617.341797"/>
     <use xlink:href="#DejaVuSans-68" x="1651.033203"/>
     <use xlink:href="#DejaVuSans-6f" x="1714.412109"/>
     <use xlink:href="#DejaVuSans-6d" x="1775.59375"/>
     <use xlink:href="#DejaVuSans-65" x="1873.005859"/>
     <use xlink:href="#DejaVuSans-2f" x="1934.529297"/>
     <use xlink:href="#DejaVuSans-74" x="1968.220703"/>
     <use xlink:href="#DejaVuSans-68" x="2007.429688"/>
     <use xlink:href="#DejaVuSans-6f" x="2070.808594"/>
     <use xlink:href="#DejaVuSans-6d" x="2131.990234"/>
     <use xlink:href="#DejaVuSans-61" x="2229.402344"/>
     <use xlink:href="#DejaVuSans-73" x="2290.681641"/>
     <use xlink:href="#DejaVuSans-2f" x="2342.78125"/>
     <use xlink:href="#DejaVuSans-44" x="2376.472656"/>
     <use xlink:href="#DejaVuSans-65" x="2453.474609"/>
     <use xlink:href="#DejaVuSans-73" x="2514.998047"/>
     <use xlink:href="#DejaVuSans-6b" x="2567.097656"/>
     <use xlink:href="#DejaVuSans-74" x="2625.007812"/>
     <use xlink:href="#DejaVuSans-6f" x="2664.216797"/>
     <use xlink:href="#DejaVuSans-70" x="2725.398438"/>
     <use xlink:href="#DejaVuSans-2f" x="2788.875"/>
     <use xlink:href="#DejaVuSans-72" x="2822.566406"/>
     <use xlink:href="#DejaVuSans-6f" x="2861.429688"/>
     <use xlink:href="#DejaVuSans-73" x="2922.611328"/>
     <use xlink:href="#DejaVuSans-32" x="2974.710938"/>
     <use xlink:href="#DejaVuSans-5f" x="3038.333984"/>
     <use xlink:href="#DejaVuSans-70" x="3088.333984"/>
     <use xlink:href="#DejaVuSans-65" x="3151.810547"/>
     <use xlink:href="#DejaVuSans-6e" x="3213.333984"/>
     <use xlink:href="#DejaVuSans-64" x="3276.712891"/>
     <use xlink:href="#DejaVuSans-75" x="3340.189453"/>
     <use xlink:href="#DejaVuSans-6c" x="3403.568359"/>
     <use xlink:href="#DejaVuSans-75" x="3431.351562"/>
     <use xlink:href="#DejaVuSans-6d" x="3494.730469"/>
     <use xlink:href="#DejaVuSans-5f" x="3592.142578"/>
     <use xlink:href="#DejaVuSans-62" x="3642.142578"/>
     <use xlink:href="#DejaVuSans-65" x="3705.619141"/>
     <use xlink:href="#DejaVuSans-6e" x="3767.142578"/>
     <use xlink:href="#DejaVuSans-63" x="3830.521484"/>
     <use xlink:href="#DejaVuSans-68" x="3885.501953"/>
     <use xlink:href="#DejaVuSans-6d" x="3948.880859"/>
     <use xlink:href="#DejaVuSans-61" x="4046.292969"/>
     <use xlink:href="#DejaVuSans-72" x="4107.572266"/>
     <use xlink:href="#DejaVuSans-6b" x="4148.685547"/>
     <use xlink:href="#DejaVuSans-2f" x="4206.595703"/>
     <use xlink:href="#DejaVuSans-2f" x="4240.287109"/>
     <use xlink:href="#DejaVuSans-32" x="4273.978516"/>
     <use xlink:href="#DejaVuSans-30" x="4337.601562"/>
     <use xlink:href="#DejaVuSans-32" x="4401.224609"/>
     <use xlink:href="#DejaVuSans-32" x="4464.847656"/>
     <use xlink:href="#DejaVuSans-2d" x="4528.470703"/>
     <use xlink:href="#DejaVuSans-30" x="4564.554688"/>
     <use xlink:href="#DejaVuSans-38" x="4628.177734"/>
     <use xlink:href="#DejaVuSans-2d" x="4691.800781"/>
     <use xlink:href="#DejaVuSans-30" x="4727.884766"/>
     <use xlink:href="#DejaVuSans-38" x="4791.507812"/>
     <use xlink:href="#DejaVuSans-5f" x="4855.130859"/>
     <use xlink:href="#DejaVuSans-31" x="4905.130859"/>
     <use xlink:href="#DejaVuSans-35" x="4968.753906"/>
     <use xlink:href="#DejaVuSans-3a" x="5032.376953"/>
     <use xlink:href="#DejaVuSans-35" x="5066.068359"/>
     <use xlink:href="#DejaVuSans-36" x="5129.691406"/>
     <use xlink:href="#DejaVuSans-3a" x="5193.314453"/>
     <use xlink:href="#DejaVuSans-33" x="5227.005859"/>
     <use xlink:href="#DejaVuSans-34" x="5290.628906"/>
     <use xlink:href="#DejaVuSans-2f" x="5354.251953"/>
     <use xlink:href="#DejaVuSans-64" x="5387.943359"/>
     <use xlink:href="#DejaVuSans-65" x="5451.419922"/>
     <use xlink:href="#DejaVuSans-6d" x="5512.943359"/>
     <use xlink:href="#DejaVuSans-6f" x="5610.355469"/>
     <use xlink:href="#DejaVuSans-2f" x="5671.537109"/>
     <use xlink:href="#DejaVuSans-30" x="5705.228516"/>
     <use xlink:href="#DejaVuSans-5f" x="5768.851562"/>
     <use xlink:href="#DejaVuSans-73" x="5818.851562"/>
     <use xlink:href="#DejaVuSans-74" x="5870.951172"/>
     <use xlink:href="#DejaVuSans-72" x="5910.160156"/>
     <use xlink:href="#DejaVuSans-65" x="5949.023438"/>
     <use xlink:href="#DejaVuSans-73" x="6010.546875"/>
     <use xlink:href="#DejaVuSans-73" x="6062.646484"/>
     <use xlink:href="#DejaVuSans-2f" x="6114.746094"/>
     <use xlink:href="#DejaVuSans-66" x="6148.4375"/>
     <use xlink:href="#DejaVuSans-69" x="6183.642578"/>
     <use xlink:href="#DejaVuSans-66" x="6211.425781"/>
     <use xlink:href="#DejaVuSans-6f" x="6246.630859"/>
     <use xlink:href="#DejaVuSans-2f" x="6307.8125"/>
     <use xlink:href="#DejaVuSans-72" x="6341.503906"/>
     <use xlink:href="#DejaVuSans-65" x="6380.367188"/>
     <use xlink:href="#DejaVuSans-73" x="6441.890625"/>
     <use xlink:href="#DejaVuSans-75" x="6493.990234"/>
     <use xlink:href="#DejaVuSans-6c" x="6557.369141"/>
     <use xlink:href="#DejaVuSans-74" x="6585.152344"/>
     <use xlink:href="#DejaVuSans-73" x="6624.361328"/>
     <use xlink:href="#DejaVuSans-2e" x="6676.460938"/>
     <use xlink:href="#DejaVuSans-63" x="6708.248047"/>
     <use xlink:href="#DejaVuSans-73" x="6763.228516"/>
     <use xlink:href="#DejaVuSans-76" x="6815.328125"/>
    </g>
   </g>
  </g>
 </g>
 <defs>
  <clipPath id="p667bd28b6d">
   <rect x="57.6" y="41.472" width="357.12" height="266.112"/>
  </clipPath>
 </defs>
</svg>
