<?xml version="1.0" encoding="utf-8" standalone="no"?>
<!DOCTYPE svg PUBLIC "-//W3C//DTD SVG 1.1//EN"
  "http://www.w3.org/Graphics/SVG/1.1/DTD/svg11.dtd">
<svg xmlns:xlink="http://www.w3.org/1999/xlink" width="460.8pt" height="345.6pt" viewBox="0 0 460.8 345.6" xmlns="http://www.w3.org/2000/svg" version="1.1">
 <metadata>
  <rdf:RDF xmlns:dc="http://purl.org/dc/elements/1.1/" xmlns:cc="http://creativecommons.org/ns#" xmlns:rdf="http://www.w3.org/1999/02/22-rdf-syntax-ns#">
   <cc:Work>
    <dc:type rdf:resource="http://purl.org/dc/dcmitype/StillImage"/>
    <dc:date>2022-08-08T15:56:51.905066</dc:date>
    <dc:format>image/svg+xml</dc:format>
    <dc:creator>
     <cc:Agent>
      <dc:title>Matplotlib v3.5.1, https://matplotlib.org/</dc:title>
     </cc:Agent>
    </dc:creator>
   </cc:Work>
  </rdf:RDF>
 </metadata>
 <defs>
  <style type="text/css">*{stroke-linejoin: round; stroke-linecap: butt}</style>
 </defs>
 <g id="figure_1">
  <g id="patch_1">
   <path d="M 0 345.6 
L 460.8 345.6 
L 460.8 0 
L 0 0 
z
" style="fill: #ffffff"/>
  </g>
  <g id="axes_1">
   <g id="patch_2">
    <path d="M 57.6 307.584 
L 414.72 307.584 
L 414.72 41.472 
L 57.6 41.472 
z
" style="fill: #ffffff"/>
   </g>
   <g id="matplotlib.axis_1">
    <g id="xtick_1">
     <g id="line2d_1">
      <defs>
       <path id="m17f1b2656d" d="M 0 0 
L 0 3.5 
" style="stroke: #000000; stroke-width: 0.8"/>
      </defs>
      <g>
       <use xlink:href="#m17f1b2656d" x="73.832727" y="307.584" style="stroke: #000000; stroke-width: 0.8"/>
      </g>
     </g>
     <g id="text_1">
      <!-- 0.0 -->
      <g transform="translate(65.881165 322.182437)scale(0.1 -0.1)">
       <defs>
        <path id="DejaVuSans-30" d="M 2034 4250 
Q 1547 4250 1301 3770 
Q 1056 3291 1056 2328 
Q 1056 1369 1301 889 
Q 1547 409 2034 409 
Q 2525 409 2770 889 
Q 3016 1369 3016 2328 
Q 3016 3291 2770 3770 
Q 2525 4250 2034 4250 
z
M 2034 4750 
Q 2819 4750 3233 4129 
Q 3647 3509 3647 2328 
Q 3647 1150 3233 529 
Q 2819 -91 2034 -91 
Q 1250 -91 836 529 
Q 422 1150 422 2328 
Q 422 3509 836 4129 
Q 1250 4750 2034 4750 
z
" transform="scale(0.015625)"/>
        <path id="DejaVuSans-2e" d="M 684 794 
L 1344 794 
L 1344 0 
L 684 0 
L 684 794 
z
" transform="scale(0.015625)"/>
       </defs>
       <use xlink:href="#DejaVuSans-30"/>
       <use xlink:href="#DejaVuSans-2e" x="63.623047"/>
       <use xlink:href="#DejaVuSans-30" x="95.410156"/>
      </g>
     </g>
    </g>
    <g id="xtick_2">
     <g id="line2d_2">
      <g>
       <use xlink:href="#m17f1b2656d" x="138.828632" y="307.584" style="stroke: #000000; stroke-width: 0.8"/>
      </g>
     </g>
     <g id="text_2">
      <!-- 0.2 -->
      <g transform="translate(130.87707 322.182437)scale(0.1 -0.1)">
       <defs>
        <path id="DejaVuSans-32" d="M 1228 531 
L 3431 531 
L 3431 0 
L 469 0 
L 469 531 
Q 828 903 1448 1529 
Q 2069 2156 2228 2338 
Q 2531 2678 2651 2914 
Q 2772 3150 2772 3378 
Q 2772 3750 2511 3984 
Q 2250 4219 1831 4219 
Q 1534 4219 1204 4116 
Q 875 4013 500 3803 
L 500 4441 
Q 881 4594 1212 4672 
Q 1544 4750 1819 4750 
Q 2544 4750 2975 4387 
Q 3406 4025 3406 3419 
Q 3406 3131 3298 2873 
Q 3191 2616 2906 2266 
Q 2828 2175 2409 1742 
Q 1991 1309 1228 531 
z
" transform="scale(0.015625)"/>
       </defs>
       <use xlink:href="#DejaVuSans-30"/>
       <use xlink:href="#DejaVuSans-2e" x="63.623047"/>
       <use xlink:href="#DejaVuSans-32" x="95.410156"/>
      </g>
     </g>
    </g>
    <g id="xtick_3">
     <g id="line2d_3">
      <g>
       <use xlink:href="#m17f1b2656d" x="203.824537" y="307.584" style="stroke: #000000; stroke-width: 0.8"/>
      </g>
     </g>
     <g id="text_3">
      <!-- 0.4 -->
      <g transform="translate(195.872975 322.182437)scale(0.1 -0.1)">
       <defs>
        <path id="DejaVuSans-34" d="M 2419 4116 
L 825 1625 
L 2419 1625 
L 2419 4116 
z
M 2253 4666 
L 3047 4666 
L 3047 1625 
L 3713 1625 
L 3713 1100 
L 3047 1100 
L 3047 0 
L 2419 0 
L 2419 1100 
L 313 1100 
L 313 1709 
L 2253 4666 
z
" transform="scale(0.015625)"/>
       </defs>
       <use xlink:href="#DejaVuSans-30"/>
       <use xlink:href="#DejaVuSans-2e" x="63.623047"/>
       <use xlink:href="#DejaVuSans-34" x="95.410156"/>
      </g>
     </g>
    </g>
    <g id="xtick_4">
     <g id="line2d_4">
      <g>
       <use xlink:href="#m17f1b2656d" x="268.820442" y="307.584" style="stroke: #000000; stroke-width: 0.8"/>
      </g>
     </g>
     <g id="text_4">
      <!-- 0.6 -->
      <g transform="translate(260.86888 322.182437)scale(0.1 -0.1)">
       <defs>
        <path id="DejaVuSans-36" d="M 2113 2584 
Q 1688 2584 1439 2293 
Q 1191 2003 1191 1497 
Q 1191 994 1439 701 
Q 1688 409 2113 409 
Q 2538 409 2786 701 
Q 3034 994 3034 1497 
Q 3034 2003 2786 2293 
Q 2538 2584 2113 2584 
z
M 3366 4563 
L 3366 3988 
Q 3128 4100 2886 4159 
Q 2644 4219 2406 4219 
Q 1781 4219 1451 3797 
Q 1122 3375 1075 2522 
Q 1259 2794 1537 2939 
Q 1816 3084 2150 3084 
Q 2853 3084 3261 2657 
Q 3669 2231 3669 1497 
Q 3669 778 3244 343 
Q 2819 -91 2113 -91 
Q 1303 -91 875 529 
Q 447 1150 447 2328 
Q 447 3434 972 4092 
Q 1497 4750 2381 4750 
Q 2619 4750 2861 4703 
Q 3103 4656 3366 4563 
z
" transform="scale(0.015625)"/>
       </defs>
       <use xlink:href="#DejaVuSans-30"/>
       <use xlink:href="#DejaVuSans-2e" x="63.623047"/>
       <use xlink:href="#DejaVuSans-36" x="95.410156"/>
      </g>
     </g>
    </g>
    <g id="xtick_5">
     <g id="line2d_5">
      <g>
       <use xlink:href="#m17f1b2656d" x="333.816347" y="307.584" style="stroke: #000000; stroke-width: 0.8"/>
      </g>
     </g>
     <g id="text_5">
      <!-- 0.8 -->
      <g transform="translate(325.864785 322.182437)scale(0.1 -0.1)">
       <defs>
        <path id="DejaVuSans-38" d="M 2034 2216 
Q 1584 2216 1326 1975 
Q 1069 1734 1069 1313 
Q 1069 891 1326 650 
Q 1584 409 2034 409 
Q 2484 409 2743 651 
Q 3003 894 3003 1313 
Q 3003 1734 2745 1975 
Q 2488 2216 2034 2216 
z
M 1403 2484 
Q 997 2584 770 2862 
Q 544 3141 544 3541 
Q 544 4100 942 4425 
Q 1341 4750 2034 4750 
Q 2731 4750 3128 4425 
Q 3525 4100 3525 3541 
Q 3525 3141 3298 2862 
Q 3072 2584 2669 2484 
Q 3125 2378 3379 2068 
Q 3634 1759 3634 1313 
Q 3634 634 3220 271 
Q 2806 -91 2034 -91 
Q 1263 -91 848 271 
Q 434 634 434 1313 
Q 434 1759 690 2068 
Q 947 2378 1403 2484 
z
M 1172 3481 
Q 1172 3119 1398 2916 
Q 1625 2713 2034 2713 
Q 2441 2713 2670 2916 
Q 2900 3119 2900 3481 
Q 2900 3844 2670 4047 
Q 2441 4250 2034 4250 
Q 1625 4250 1398 4047 
Q 1172 3844 1172 3481 
z
" transform="scale(0.015625)"/>
       </defs>
       <use xlink:href="#DejaVuSans-30"/>
       <use xlink:href="#DejaVuSans-2e" x="63.623047"/>
       <use xlink:href="#DejaVuSans-38" x="95.410156"/>
      </g>
     </g>
    </g>
    <g id="xtick_6">
     <g id="line2d_6">
      <g>
       <use xlink:href="#m17f1b2656d" x="398.812252" y="307.584" style="stroke: #000000; stroke-width: 0.8"/>
      </g>
     </g>
     <g id="text_6">
      <!-- 1.0 -->
      <g transform="translate(390.86069 322.182437)scale(0.1 -0.1)">
       <defs>
        <path id="DejaVuSans-31" d="M 794 531 
L 1825 531 
L 1825 4091 
L 703 3866 
L 703 4441 
L 1819 4666 
L 2450 4666 
L 2450 531 
L 3481 531 
L 3481 0 
L 794 0 
L 794 531 
z
" transform="scale(0.015625)"/>
       </defs>
       <use xlink:href="#DejaVuSans-31"/>
       <use xlink:href="#DejaVuSans-2e" x="63.623047"/>
       <use xlink:href="#DejaVuSans-30" x="95.410156"/>
      </g>
     </g>
    </g>
    <g id="text_7">
     <!-- Time (ns) -->
     <g transform="translate(212.662344 335.860562)scale(0.1 -0.1)">
      <defs>
       <path id="DejaVuSans-54" d="M -19 4666 
L 3928 4666 
L 3928 4134 
L 2272 4134 
L 2272 0 
L 1638 0 
L 1638 4134 
L -19 4134 
L -19 4666 
z
" transform="scale(0.015625)"/>
       <path id="DejaVuSans-69" d="M 603 3500 
L 1178 3500 
L 1178 0 
L 603 0 
L 603 3500 
z
M 603 4863 
L 1178 4863 
L 1178 4134 
L 603 4134 
L 603 4863 
z
" transform="scale(0.015625)"/>
       <path id="DejaVuSans-6d" d="M 3328 2828 
Q 3544 3216 3844 3400 
Q 4144 3584 4550 3584 
Q 5097 3584 5394 3201 
Q 5691 2819 5691 2113 
L 5691 0 
L 5113 0 
L 5113 2094 
Q 5113 2597 4934 2840 
Q 4756 3084 4391 3084 
Q 3944 3084 3684 2787 
Q 3425 2491 3425 1978 
L 3425 0 
L 2847 0 
L 2847 2094 
Q 2847 2600 2669 2842 
Q 2491 3084 2119 3084 
Q 1678 3084 1418 2786 
Q 1159 2488 1159 1978 
L 1159 0 
L 581 0 
L 581 3500 
L 1159 3500 
L 1159 2956 
Q 1356 3278 1631 3431 
Q 1906 3584 2284 3584 
Q 2666 3584 2933 3390 
Q 3200 3197 3328 2828 
z
" transform="scale(0.015625)"/>
       <path id="DejaVuSans-65" d="M 3597 1894 
L 3597 1613 
L 953 1613 
Q 991 1019 1311 708 
Q 1631 397 2203 397 
Q 2534 397 2845 478 
Q 3156 559 3463 722 
L 3463 178 
Q 3153 47 2828 -22 
Q 2503 -91 2169 -91 
Q 1331 -91 842 396 
Q 353 884 353 1716 
Q 353 2575 817 3079 
Q 1281 3584 2069 3584 
Q 2775 3584 3186 3129 
Q 3597 2675 3597 1894 
z
M 3022 2063 
Q 3016 2534 2758 2815 
Q 2500 3097 2075 3097 
Q 1594 3097 1305 2825 
Q 1016 2553 972 2059 
L 3022 2063 
z
" transform="scale(0.015625)"/>
       <path id="DejaVuSans-20" transform="scale(0.015625)"/>
       <path id="DejaVuSans-28" d="M 1984 4856 
Q 1566 4138 1362 3434 
Q 1159 2731 1159 2009 
Q 1159 1288 1364 580 
Q 1569 -128 1984 -844 
L 1484 -844 
Q 1016 -109 783 600 
Q 550 1309 550 2009 
Q 550 2706 781 3412 
Q 1013 4119 1484 4856 
L 1984 4856 
z
" transform="scale(0.015625)"/>
       <path id="DejaVuSans-6e" d="M 3513 2113 
L 3513 0 
L 2938 0 
L 2938 2094 
Q 2938 2591 2744 2837 
Q 2550 3084 2163 3084 
Q 1697 3084 1428 2787 
Q 1159 2491 1159 1978 
L 1159 0 
L 581 0 
L 581 3500 
L 1159 3500 
L 1159 2956 
Q 1366 3272 1645 3428 
Q 1925 3584 2291 3584 
Q 2894 3584 3203 3211 
Q 3513 2838 3513 2113 
z
" transform="scale(0.015625)"/>
       <path id="DejaVuSans-73" d="M 2834 3397 
L 2834 2853 
Q 2591 2978 2328 3040 
Q 2066 3103 1784 3103 
Q 1356 3103 1142 2972 
Q 928 2841 928 2578 
Q 928 2378 1081 2264 
Q 1234 2150 1697 2047 
L 1894 2003 
Q 2506 1872 2764 1633 
Q 3022 1394 3022 966 
Q 3022 478 2636 193 
Q 2250 -91 1575 -91 
Q 1294 -91 989 -36 
Q 684 19 347 128 
L 347 722 
Q 666 556 975 473 
Q 1284 391 1588 391 
Q 1994 391 2212 530 
Q 2431 669 2431 922 
Q 2431 1156 2273 1281 
Q 2116 1406 1581 1522 
L 1381 1569 
Q 847 1681 609 1914 
Q 372 2147 372 2553 
Q 372 3047 722 3315 
Q 1072 3584 1716 3584 
Q 2034 3584 2315 3537 
Q 2597 3491 2834 3397 
z
" transform="scale(0.015625)"/>
       <path id="DejaVuSans-29" d="M 513 4856 
L 1013 4856 
Q 1481 4119 1714 3412 
Q 1947 2706 1947 2009 
Q 1947 1309 1714 600 
Q 1481 -109 1013 -844 
L 513 -844 
Q 928 -128 1133 580 
Q 1338 1288 1338 2009 
Q 1338 2731 1133 3434 
Q 928 4138 513 4856 
z
" transform="scale(0.015625)"/>
      </defs>
      <use xlink:href="#DejaVuSans-54"/>
      <use xlink:href="#DejaVuSans-69" x="57.958984"/>
      <use xlink:href="#DejaVuSans-6d" x="85.742188"/>
      <use xlink:href="#DejaVuSans-65" x="183.154297"/>
      <use xlink:href="#DejaVuSans-20" x="244.677734"/>
      <use xlink:href="#DejaVuSans-28" x="276.464844"/>
      <use xlink:href="#DejaVuSans-6e" x="315.478516"/>
      <use xlink:href="#DejaVuSans-73" x="378.857422"/>
      <use xlink:href="#DejaVuSans-29" x="430.957031"/>
     </g>
    </g>
    <g id="text_8">
     <!-- 1e9 -->
     <g transform="translate(395.841875 334.860562)scale(0.1 -0.1)">
      <defs>
       <path id="DejaVuSans-39" d="M 703 97 
L 703 672 
Q 941 559 1184 500 
Q 1428 441 1663 441 
Q 2288 441 2617 861 
Q 2947 1281 2994 2138 
Q 2813 1869 2534 1725 
Q 2256 1581 1919 1581 
Q 1219 1581 811 2004 
Q 403 2428 403 3163 
Q 403 3881 828 4315 
Q 1253 4750 1959 4750 
Q 2769 4750 3195 4129 
Q 3622 3509 3622 2328 
Q 3622 1225 3098 567 
Q 2575 -91 1691 -91 
Q 1453 -91 1209 -44 
Q 966 3 703 97 
z
M 1959 2075 
Q 2384 2075 2632 2365 
Q 2881 2656 2881 3163 
Q 2881 3666 2632 3958 
Q 2384 4250 1959 4250 
Q 1534 4250 1286 3958 
Q 1038 3666 1038 3163 
Q 1038 2656 1286 2365 
Q 1534 2075 1959 2075 
z
" transform="scale(0.015625)"/>
      </defs>
      <use xlink:href="#DejaVuSans-31"/>
      <use xlink:href="#DejaVuSans-65" x="63.623047"/>
      <use xlink:href="#DejaVuSans-39" x="125.146484"/>
     </g>
    </g>
   </g>
   <g id="matplotlib.axis_2">
    <g id="ytick_1">
     <g id="line2d_7">
      <defs>
       <path id="m4a57bf927f" d="M 0 0 
L -3.5 0 
" style="stroke: #000000; stroke-width: 0.8"/>
      </defs>
      <g>
       <use xlink:href="#m4a57bf927f" x="57.6" y="301.697425" style="stroke: #000000; stroke-width: 0.8"/>
      </g>
     </g>
     <g id="text_9">
      <!-- 0 -->
      <g transform="translate(44.2375 305.496644)scale(0.1 -0.1)">
       <use xlink:href="#DejaVuSans-30"/>
      </g>
     </g>
    </g>
    <g id="ytick_2">
     <g id="line2d_8">
      <g>
       <use xlink:href="#m4a57bf927f" x="57.6" y="265.920604" style="stroke: #000000; stroke-width: 0.8"/>
      </g>
     </g>
     <g id="text_10">
      <!-- 25000 -->
      <g transform="translate(18.7875 269.719823)scale(0.1 -0.1)">
       <defs>
        <path id="DejaVuSans-35" d="M 691 4666 
L 3169 4666 
L 3169 4134 
L 1269 4134 
L 1269 2991 
Q 1406 3038 1543 3061 
Q 1681 3084 1819 3084 
Q 2600 3084 3056 2656 
Q 3513 2228 3513 1497 
Q 3513 744 3044 326 
Q 2575 -91 1722 -91 
Q 1428 -91 1123 -41 
Q 819 9 494 109 
L 494 744 
Q 775 591 1075 516 
Q 1375 441 1709 441 
Q 2250 441 2565 725 
Q 2881 1009 2881 1497 
Q 2881 1984 2565 2268 
Q 2250 2553 1709 2553 
Q 1456 2553 1204 2497 
Q 953 2441 691 2322 
L 691 4666 
z
" transform="scale(0.015625)"/>
       </defs>
       <use xlink:href="#DejaVuSans-32"/>
       <use xlink:href="#DejaVuSans-35" x="63.623047"/>
       <use xlink:href="#DejaVuSans-30" x="127.246094"/>
       <use xlink:href="#DejaVuSans-30" x="190.869141"/>
       <use xlink:href="#DejaVuSans-30" x="254.492188"/>
      </g>
     </g>
    </g>
    <g id="ytick_3">
     <g id="line2d_9">
      <g>
       <use xlink:href="#m4a57bf927f" x="57.6" y="230.143783" style="stroke: #000000; stroke-width: 0.8"/>
      </g>
     </g>
     <g id="text_11">
      <!-- 50000 -->
      <g transform="translate(18.7875 233.943002)scale(0.1 -0.1)">
       <use xlink:href="#DejaVuSans-35"/>
       <use xlink:href="#DejaVuSans-30" x="63.623047"/>
       <use xlink:href="#DejaVuSans-30" x="127.246094"/>
       <use xlink:href="#DejaVuSans-30" x="190.869141"/>
       <use xlink:href="#DejaVuSans-30" x="254.492188"/>
      </g>
     </g>
    </g>
    <g id="ytick_4">
     <g id="line2d_10">
      <g>
       <use xlink:href="#m4a57bf927f" x="57.6" y="194.366963" style="stroke: #000000; stroke-width: 0.8"/>
      </g>
     </g>
     <g id="text_12">
      <!-- 75000 -->
      <g transform="translate(18.7875 198.166181)scale(0.1 -0.1)">
       <defs>
        <path id="DejaVuSans-37" d="M 525 4666 
L 3525 4666 
L 3525 4397 
L 1831 0 
L 1172 0 
L 2766 4134 
L 525 4134 
L 525 4666 
z
" transform="scale(0.015625)"/>
       </defs>
       <use xlink:href="#DejaVuSans-37"/>
       <use xlink:href="#DejaVuSans-35" x="63.623047"/>
       <use xlink:href="#DejaVuSans-30" x="127.246094"/>
       <use xlink:href="#DejaVuSans-30" x="190.869141"/>
       <use xlink:href="#DejaVuSans-30" x="254.492188"/>
      </g>
     </g>
    </g>
    <g id="ytick_5">
     <g id="line2d_11">
      <g>
       <use xlink:href="#m4a57bf927f" x="57.6" y="158.590142" style="stroke: #000000; stroke-width: 0.8"/>
      </g>
     </g>
     <g id="text_13">
      <!-- 100000 -->
      <g transform="translate(12.425 162.389361)scale(0.1 -0.1)">
       <use xlink:href="#DejaVuSans-31"/>
       <use xlink:href="#DejaVuSans-30" x="63.623047"/>
       <use xlink:href="#DejaVuSans-30" x="127.246094"/>
       <use xlink:href="#DejaVuSans-30" x="190.869141"/>
       <use xlink:href="#DejaVuSans-30" x="254.492188"/>
       <use xlink:href="#DejaVuSans-30" x="318.115234"/>
      </g>
     </g>
    </g>
    <g id="ytick_6">
     <g id="line2d_12">
      <g>
       <use xlink:href="#m4a57bf927f" x="57.6" y="122.813321" style="stroke: #000000; stroke-width: 0.8"/>
      </g>
     </g>
     <g id="text_14">
      <!-- 125000 -->
      <g transform="translate(12.425 126.61254)scale(0.1 -0.1)">
       <use xlink:href="#DejaVuSans-31"/>
       <use xlink:href="#DejaVuSans-32" x="63.623047"/>
       <use xlink:href="#DejaVuSans-35" x="127.246094"/>
       <use xlink:href="#DejaVuSans-30" x="190.869141"/>
       <use xlink:href="#DejaVuSans-30" x="254.492188"/>
       <use xlink:href="#DejaVuSans-30" x="318.115234"/>
      </g>
     </g>
    </g>
    <g id="ytick_7">
     <g id="line2d_13">
      <g>
       <use xlink:href="#m4a57bf927f" x="57.6" y="87.0365" style="stroke: #000000; stroke-width: 0.8"/>
      </g>
     </g>
     <g id="text_15">
      <!-- 150000 -->
      <g transform="translate(12.425 90.835719)scale(0.1 -0.1)">
       <use xlink:href="#DejaVuSans-31"/>
       <use xlink:href="#DejaVuSans-35" x="63.623047"/>
       <use xlink:href="#DejaVuSans-30" x="127.246094"/>
       <use xlink:href="#DejaVuSans-30" x="190.869141"/>
       <use xlink:href="#DejaVuSans-30" x="254.492188"/>
       <use xlink:href="#DejaVuSans-30" x="318.115234"/>
      </g>
     </g>
    </g>
    <g id="ytick_8">
     <g id="line2d_14">
      <g>
       <use xlink:href="#m4a57bf927f" x="57.6" y="51.25968" style="stroke: #000000; stroke-width: 0.8"/>
      </g>
     </g>
     <g id="text_16">
      <!-- 175000 -->
      <g transform="translate(12.425 55.058898)scale(0.1 -0.1)">
       <use xlink:href="#DejaVuSans-31"/>
       <use xlink:href="#DejaVuSans-37" x="63.623047"/>
       <use xlink:href="#DejaVuSans-35" x="127.246094"/>
       <use xlink:href="#DejaVuSans-30" x="190.869141"/>
       <use xlink:href="#DejaVuSans-30" x="254.492188"/>
       <use xlink:href="#DejaVuSans-30" x="318.115234"/>
      </g>
     </g>
    </g>
    <g id="text_17">
     <!-- Latency (ns) -->
     <g transform="translate(6.345312 205.556125)rotate(-90)scale(0.1 -0.1)">
      <defs>
       <path id="DejaVuSans-4c" d="M 628 4666 
L 1259 4666 
L 1259 531 
L 3531 531 
L 3531 0 
L 628 0 
L 628 4666 
z
" transform="scale(0.015625)"/>
       <path id="DejaVuSans-61" d="M 2194 1759 
Q 1497 1759 1228 1600 
Q 959 1441 959 1056 
Q 959 750 1161 570 
Q 1363 391 1709 391 
Q 2188 391 2477 730 
Q 2766 1069 2766 1631 
L 2766 1759 
L 2194 1759 
z
M 3341 1997 
L 3341 0 
L 2766 0 
L 2766 531 
Q 2569 213 2275 61 
Q 1981 -91 1556 -91 
Q 1019 -91 701 211 
Q 384 513 384 1019 
Q 384 1609 779 1909 
Q 1175 2209 1959 2209 
L 2766 2209 
L 2766 2266 
Q 2766 2663 2505 2880 
Q 2244 3097 1772 3097 
Q 1472 3097 1187 3025 
Q 903 2953 641 2809 
L 641 3341 
Q 956 3463 1253 3523 
Q 1550 3584 1831 3584 
Q 2591 3584 2966 3190 
Q 3341 2797 3341 1997 
z
" transform="scale(0.015625)"/>
       <path id="DejaVuSans-74" d="M 1172 4494 
L 1172 3500 
L 2356 3500 
L 2356 3053 
L 1172 3053 
L 1172 1153 
Q 1172 725 1289 603 
Q 1406 481 1766 481 
L 2356 481 
L 2356 0 
L 1766 0 
Q 1100 0 847 248 
Q 594 497 594 1153 
L 594 3053 
L 172 3053 
L 172 3500 
L 594 3500 
L 594 4494 
L 1172 4494 
z
" transform="scale(0.015625)"/>
       <path id="DejaVuSans-63" d="M 3122 3366 
L 3122 2828 
Q 2878 2963 2633 3030 
Q 2388 3097 2138 3097 
Q 1578 3097 1268 2742 
Q 959 2388 959 1747 
Q 959 1106 1268 751 
Q 1578 397 2138 397 
Q 2388 397 2633 464 
Q 2878 531 3122 666 
L 3122 134 
Q 2881 22 2623 -34 
Q 2366 -91 2075 -91 
Q 1284 -91 818 406 
Q 353 903 353 1747 
Q 353 2603 823 3093 
Q 1294 3584 2113 3584 
Q 2378 3584 2631 3529 
Q 2884 3475 3122 3366 
z
" transform="scale(0.015625)"/>
       <path id="DejaVuSans-79" d="M 2059 -325 
Q 1816 -950 1584 -1140 
Q 1353 -1331 966 -1331 
L 506 -1331 
L 506 -850 
L 844 -850 
Q 1081 -850 1212 -737 
Q 1344 -625 1503 -206 
L 1606 56 
L 191 3500 
L 800 3500 
L 1894 763 
L 2988 3500 
L 3597 3500 
L 2059 -325 
z
" transform="scale(0.015625)"/>
      </defs>
      <use xlink:href="#DejaVuSans-4c"/>
      <use xlink:href="#DejaVuSans-61" x="55.712891"/>
      <use xlink:href="#DejaVuSans-74" x="116.992188"/>
      <use xlink:href="#DejaVuSans-65" x="156.201172"/>
      <use xlink:href="#DejaVuSans-6e" x="217.724609"/>
      <use xlink:href="#DejaVuSans-63" x="281.103516"/>
      <use xlink:href="#DejaVuSans-79" x="336.083984"/>
      <use xlink:href="#DejaVuSans-20" x="395.263672"/>
      <use xlink:href="#DejaVuSans-28" x="427.050781"/>
      <use xlink:href="#DejaVuSans-6e" x="466.064453"/>
      <use xlink:href="#DejaVuSans-73" x="529.443359"/>
      <use xlink:href="#DejaVuSans-29" x="581.542969"/>
     </g>
    </g>
   </g>
   <g id="line2d_15">
    <path d="M 73.832727 279.223857 
L 74.157707 115.861169 
L 74.482686 71.490756 
L 74.807666 152.117399 
L 75.132645 151.935653 
L 75.457625 108.109048 
L 75.782604 86.180719 
L 76.107584 223.845632 
L 76.432563 105.026517 
L 76.757543 104.922049 
L 77.082523 72.17624 
L 77.407502 103.146087 
L 77.732482 106.786736 
L 78.057461 251.339403 
L 78.382441 73.613037 
L 78.70742 106.646491 
L 79.0324 215.340766 
L 79.357379 104.369654 
L 79.682359 77.349568 
L 80.007338 107.475082 
L 80.332318 101.653478 
L 80.657297 105.940972 
L 80.982277 248.110903 
L 81.307256 249.208536 
L 81.632236 106.839686 
L 81.957215 106.081218 
L 82.282195 246.339235 
L 82.607174 104.501313 
L 82.932154 106.208583 
L 83.257133 103.811536 
L 83.582113 78.122348 
L 83.907093 106.656509 
L 84.232072 251.077517 
L 84.882031 76.974627 
L 85.53199 158.459914 
L 85.85697 83.566149 
L 86.181949 53.568 
L 86.506929 78.358475 
L 86.831908 82.916442 
L 87.156888 85.903091 
L 87.481867 61.272896 
L 87.806847 84.95572 
L 88.131826 146.365918 
L 88.456806 88.514799 
L 88.781785 243.912135 
L 89.106765 131.754664 
L 89.431744 87.593188 
L 89.756724 74.378661 
L 90.081704 96.54741 
L 90.406683 147.841354 
L 90.731663 144.242206 
L 91.056642 144.257947 
L 91.381622 137.430299 
L 91.706601 144.433969 
L 92.031581 243.053491 
L 92.35656 156.745489 
L 92.68154 157.292159 
L 93.006519 156.170198 
L 93.331499 157.868881 
L 93.656478 169.212996 
L 93.981458 163.942354 
L 94.306437 171.120616 
L 94.631417 144.923396 
L 94.956396 129.008435 
L 95.281376 126.380986 
L 95.606355 170.78002 
L 95.931335 295.20751 
L 96.581294 295.488 
L 96.906274 134.344906 
L 97.231253 147.575174 
L 97.556233 144.924827 
L 97.881212 137.375918 
L 98.206192 294.739549 
L 98.531171 133.201479 
L 98.856151 140.322497 
L 99.18113 240.348764 
L 99.50611 216.109252 
L 99.831089 149.458466 
L 100.156069 149.200873 
L 100.481048 137.574837 
L 100.806028 152.772831 
L 101.131007 155.381677 
L 101.455987 145.574534 
L 101.780966 143.762796 
L 102.105946 152.058725 
L 102.430925 154.813541 
L 102.755905 151.938515 
L 103.080885 231.225675 
L 103.405864 196.130044 
L 103.730844 145.256836 
L 104.055823 148.928969 
L 104.380803 123.448717 
L 104.705782 149.657385 
L 105.030762 146.068255 
L 105.355741 152.396459 
L 105.680721 134.908749 
L 106.33068 160.391863 
L 106.655659 240.934073 
L 106.980639 119.720773 
L 107.305618 141.661981 
L 107.630598 144.753099 
L 107.955577 180.378226 
L 108.280557 155.071134 
L 108.605536 144.751668 
L 108.930516 179.337836 
L 109.255495 180.654423 
L 109.580475 154.146661 
L 109.905455 174.095816 
L 110.230434 205.135786 
L 110.555414 179.761433 
L 110.880393 119.843845 
L 111.205373 144.657217 
L 111.530352 183.0114 
L 111.855332 181.055123 
L 112.505291 141.421561 
L 112.83027 273.79866 
L 113.15525 275.153886 
L 113.480229 274.660166 
L 113.805209 235.956801 
L 114.130188 137.809533 
L 114.455168 267.676531 
L 114.780147 234.694595 
L 115.105127 235.241265 
L 115.430106 237.395029 
L 115.755086 144.76884 
L 116.080066 274.338175 
L 116.405045 275.175352 
L 116.730025 234.013404 
L 117.055004 238.207879 
L 117.379984 113.558573 
L 117.704963 181.97101 
L 118.029943 172.943802 
L 118.354922 143.217558 
L 118.679902 159.242711 
L 119.004881 143.040104 
L 119.329861 181.381408 
L 119.65484 183.685435 
L 119.97982 207.680233 
L 120.304799 143.486599 
L 120.629779 189.163582 
L 120.954758 143.812884 
L 121.279738 169.869858 
L 121.604717 140.213736 
L 121.929697 190.832213 
L 122.254676 143.246179 
L 122.579656 159.613359 
L 123.229615 212.683264 
L 123.554595 127.681831 
L 123.879574 270.593057 
L 124.204554 213.630634 
L 124.529533 233.50108 
L 124.854513 276.088377 
L 125.179492 118.521534 
L 125.504472 270.505762 
L 125.829451 234.439864 
L 126.154431 274.827602 
L 126.47941 274.021908 
L 126.80439 129.718248 
L 127.129369 190.80216 
L 127.454349 142.998603 
L 127.779328 168.068137 
L 128.104308 140.479915 
L 128.429287 153.494092 
L 129.079247 131.488485 
L 129.404226 215.960421 
L 129.729206 153.519851 
L 130.054185 188.239109 
L 130.379165 105.35137 
L 130.704144 267.244347 
L 131.029124 276.363143 
L 131.354103 276.161361 
L 131.679083 275.302718 
L 132.004062 141.703482 
L 132.329042 182.094082 
L 132.654021 154.153816 
L 132.979001 207.730321 
L 133.30398 131.461294 
L 133.62896 271.122554 
L 133.953939 235.677742 
L 134.278919 234.973654 
L 134.603898 238.350986 
L 134.928878 141.158244 
L 135.253857 182.573491 
L 135.578837 119.23707 
L 135.903817 193.79024 
L 136.228796 173.587785 
L 136.878755 120.729679 
L 137.203735 187.779734 
L 137.528714 143.383562 
L 137.853694 142.431899 
L 138.178673 131.306738 
L 138.503653 150.972541 
L 138.828632 159.520339 
L 139.153612 201.472239 
L 139.478591 132.591842 
L 139.803571 145.487239 
L 140.12855 138.533656 
L 140.45353 145.268285 
L 140.778509 132.507408 
L 141.103489 143.539549 
L 141.428468 146.732272 
L 141.753448 136.407082 
L 142.078428 119.172672 
L 142.403407 187.889927 
L 142.728387 185.760491 
L 143.053366 148.592667 
L 143.378346 133.57642 
L 143.703325 146.016736 
L 144.028305 138.808422 
L 144.353284 136.907957 
L 144.678264 127.551603 
L 145.003243 146.790946 
L 145.328223 149.374033 
L 145.653202 129.678177 
L 145.978182 213.768017 
L 146.628141 145.533033 
L 146.95312 133.489124 
L 147.2781 131.361119 
L 147.928059 147.403446 
L 148.253038 134.794263 
L 148.578018 128.820965 
L 148.902998 147.831336 
L 149.227977 176.55583 
L 149.552957 157.6671 
L 149.877936 124.801081 
L 150.202916 145.969511 
L 150.527895 148.430956 
L 150.852875 146.082565 
L 151.177854 132.85659 
L 151.827813 145.890802 
L 152.152793 145.600294 
L 152.477772 107.211765 
L 152.802752 140.859149 
L 153.127731 188.279179 
L 153.452711 165.961598 
L 153.77769 131.488485 
L 154.10267 144.74165 
L 154.427649 150.259867 
L 154.752629 146.247139 
L 155.077609 173.446109 
L 155.402588 189.585748 
L 155.727568 186.570478 
L 156.052547 135.319467 
L 156.377527 112.2334 
L 156.702506 189.766064 
L 157.027486 218.135651 
L 157.352465 188.845884 
L 157.677445 180.598611 
L 158.002424 189.332448 
L 158.327404 191.134169 
L 158.652383 187.069922 
L 158.977363 174.907234 
L 159.302342 173.48761 
L 159.627322 258.162758 
L 159.952301 152.99894 
L 160.277281 211.848948 
L 160.60226 193.355194 
L 160.92724 138.19163 
L 161.252219 142.836892 
L 161.577199 136.123729 
L 161.902179 134.090175 
L 162.227158 147.40917 
L 162.552138 140.694576 
L 162.877117 129.26746 
L 163.202097 144.956311 
L 163.527076 145.271147 
L 163.852056 153.39821 
L 164.177035 210.417876 
L 164.826994 142.530643 
L 165.151974 145.938027 
L 165.476953 128.74798 
L 165.801933 147.472137 
L 166.126912 146.673598 
L 166.776871 131.840529 
L 167.101851 147.623831 
L 167.42683 145.218197 
L 167.75181 158.577262 
L 168.07679 207.946413 
L 168.401769 144.979208 
L 168.726749 133.02975 
L 169.051728 145.36846 
L 169.376708 140.853425 
L 169.701687 146.576285 
L 170.026667 140.630178 
L 170.351646 144.27512 
L 170.676626 131.950721 
L 171.001605 188.890247 
L 171.326585 169.071319 
L 171.651564 138.200216 
L 171.976544 130.209105 
L 172.301523 147.427774 
L 172.626503 145.907974 
L 172.951482 147.867113 
L 173.276462 121.658445 
L 173.601441 146.602045 
L 173.926421 140.869167 
L 174.2514 127.29401 
L 174.57638 212.807767 
L 174.90136 182.849689 
L 175.226339 142.336017 
L 175.551319 144.575646 
L 175.876298 120.546502 
L 176.201278 143.831488 
L 176.526257 142.334586 
L 176.851237 135.803169 
L 177.176216 132.972507 
L 177.501196 142.011163 
L 177.826175 145.869335 
L 178.151155 209.63651 
L 178.476134 205.784062 
L 178.801114 143.23473 
L 179.126093 134.170315 
L 179.451073 147.250321 
L 179.776052 131.342515 
L 180.101032 146.036771 
L 180.426011 149.311066 
L 180.750991 145.11516 
L 181.075971 128.45461 
L 181.40095 155.632114 
L 181.72593 192.124472 
L 182.050909 147.357651 
L 182.375889 124.5993 
L 182.700868 140.746095 
L 183.025848 145.42141 
L 183.350827 146.083996 
L 183.675807 129.3476 
L 184.000786 146.789515 
L 184.325766 136.681848 
L 184.650745 248.541656 
L 184.975725 285.393212 
L 185.300704 146.861069 
L 185.625684 149.003385 
L 185.950663 134.128814 
L 186.275643 130.699963 
L 186.925602 144.703011 
L 187.250581 148.10324 
L 187.575561 99.232103 
L 187.900541 184.71867 
L 188.875479 128.202741 
L 189.200459 142.658008 
L 189.525438 149.306772 
L 189.850418 144.640044 
L 190.175397 123.760691 
L 190.500377 146.783791 
L 190.825356 146.823861 
L 191.150336 189.409726 
L 191.800295 137.330124 
L 192.125274 147.756921 
L 192.450254 141.09957 
L 192.775233 131.418362 
L 193.425192 143.907335 
L 193.750172 143.950267 
L 194.075152 122.910634 
L 194.400131 146.198482 
L 194.725111 187.489227 
L 195.05009 168.630549 
L 195.37507 124.637939 
L 195.700049 146.722255 
L 196.025029 147.881424 
L 196.350008 132.531737 
L 196.674988 126.429642 
L 196.999967 151.414743 
L 197.324947 147.63671 
L 197.649926 142.559264 
L 197.974906 111.88708 
L 198.624865 186.576202 
L 198.949844 147.618106 
L 199.274824 128.018133 
L 199.599803 147.067143 
L 199.924783 141.823693 
L 200.249762 146.331572 
L 200.574742 124.750994 
L 200.899722 145.42141 
L 201.224701 146.881104 
L 201.549681 140.378309 
L 201.87466 215.272075 
L 202.19964 147.313288 
L 202.524619 146.112618 
L 202.849599 142.056957 
L 203.174578 131.693128 
L 203.499558 143.492324 
L 203.824537 143.153159 
L 204.149517 145.789195 
L 204.474496 123.663378 
L 204.799476 147.768369 
L 205.124455 156.525104 
L 205.449435 194.28396 
L 205.774414 137.51187 
L 206.099394 146.494714 
L 206.749353 138.563709 
L 207.074333 130.312143 
L 207.399312 148.692842 
L 207.724292 146.557682 
L 208.049271 149.117871 
L 208.374251 115.962775 
L 209.02421 173.202827 
L 209.349189 145.27544 
L 209.674169 130.807294 
L 209.999148 146.134084 
L 210.324128 142.514901 
L 210.649107 141.816537 
L 210.974087 131.996515 
L 211.299066 143.83435 
L 211.624046 146.081134 
L 211.949025 130.496751 
L 212.274005 208.946733 
L 212.598984 186.093931 
L 212.923964 148.598391 
L 213.248943 149.212322 
L 213.573923 131.040559 
L 213.898903 147.63671 
L 214.223882 139.084619 
L 214.548862 147.127248 
L 214.873841 128.795206 
L 215.198821 178.400483 
L 215.5238 285.560648 
L 215.84878 239.873648 
L 216.173759 114.656206 
L 216.498739 142.072699 
L 216.823718 145.885077 
L 217.148698 188.078829 
L 217.473677 131.660213 
L 217.798657 140.08637 
L 218.123636 145.623191 
L 218.448616 214.110043 
L 218.773595 209.052632 
L 219.098575 142.079855 
L 219.423554 136.540172 
L 219.748534 144.973484 
L 220.073514 144.372433 
L 220.398493 185.324013 
L 220.723473 188.784348 
L 221.048452 189.285223 
L 221.373432 176.292513 
L 221.698411 187.838408 
L 222.023391 215.481011 
L 222.67335 157.432404 
L 222.998329 177.787984 
L 223.323309 189.580024 
L 223.648288 192.200318 
L 223.973268 176.359773 
L 224.623227 190.020794 
L 224.948206 189.728856 
L 225.273186 126.305139 
L 225.598165 214.562262 
L 225.923145 145.594569 
L 226.248124 141.900971 
L 226.573104 131.014799 
L 227.223063 144.20786 
L 227.548043 146.311537 
L 227.873022 131.572918 
L 228.198002 149.821959 
L 228.522981 145.907974 
L 228.847961 127.209577 
L 229.17294 206.033068 
L 229.49792 189.421175 
L 229.822899 148.604116 
L 230.147879 145.713349 
L 230.472858 127.522982 
L 230.797838 134.304836 
L 231.122817 133.998586 
L 231.447797 142.915601 
L 231.772776 132.003671 
L 232.097756 151.254463 
L 232.422735 124.314516 
L 232.747715 157.356557 
L 233.072695 208.524566 
L 233.397674 136.445721 
L 233.722654 145.500119 
L 234.047633 147.671056 
L 234.372613 120.806957 
L 234.697592 146.95552 
L 235.022572 142.466244 
L 235.347551 145.108005 
L 235.672531 134.842919 
L 235.99751 145.696176 
L 236.32249 212.268253 
L 236.647469 205.918583 
L 236.972449 268.12875 
L 237.297428 222.945487 
L 237.622408 224.438096 
L 237.947387 142.712389 
L 238.272367 132.048034 
L 238.597346 130.4023 
L 238.922326 143.664052 
L 239.247305 146.467524 
L 239.572285 208.878041 
L 239.897265 158.706059 
L 240.222244 208.963906 
L 240.547224 144.054735 
L 240.872203 121.15757 
L 241.197183 146.559113 
L 241.522162 157.917538 
L 241.847142 138.67247 
L 242.172121 132.878056 
L 242.497101 146.287209 
L 242.82208 146.944071 
L 243.14706 203.139439 
L 243.472039 137.546216 
L 243.797019 182.689408 
L 244.121998 154.040761 
L 244.446978 146.845327 
L 244.771957 134.562429 
L 245.096937 146.732272 
L 245.421916 140.773285 
L 245.746896 146.871086 
L 246.071876 128.331538 
L 246.396855 144.204998 
L 246.721835 145.531602 
L 247.046814 127.833525 
L 247.371794 207.79615 
L 247.696773 167.834872 
L 248.021753 147.549415 
L 248.346732 147.988754 
L 248.671712 125.473685 
L 248.996691 148.161914 
L 249.321671 136.199576 
L 249.64665 140.132164 
L 249.97163 119.166948 
L 250.296609 146.879673 
L 250.621589 127.906509 
L 251.271548 169.503503 
L 251.596527 141.943903 
L 251.921507 135.259362 
L 252.246486 148.974764 
L 252.571466 118.698987 
L 252.896446 141.663412 
L 253.221425 146.045357 
L 253.546405 146.722255 
L 253.871384 127.286855 
L 254.196364 146.740859 
L 254.521343 190.105228 
L 254.846323 177.447389 
L 255.171302 126.85324 
L 255.496282 134.661173 
L 255.821261 149.562934 
L 256.146241 144.326639 
L 256.47122 133.09701 
L 257.121179 147.02278 
L 257.446159 149.004816 
L 257.771138 115.102701 
L 258.096118 185.064989 
L 258.421097 172.669036 
L 259.071057 117.519783 
L 259.721016 166.078946 
L 260.370975 125.482272 
L 260.695954 141.211193 
L 261.020934 144.88762 
L 261.345913 278.833174 
L 261.670893 263.941431 
L 261.995872 131.764682 
L 262.320852 144.691563 
L 262.645831 147.620969 
L 262.970811 131.057732 
L 263.29579 148.578356 
L 263.62077 145.614605 
L 263.945749 145.309786 
L 264.270729 125.051519 
L 264.595708 144.136306 
L 264.920688 147.651021 
L 265.245667 277.462207 
L 265.570647 121.993316 
L 265.895627 146.805257 
L 266.220606 147.267494 
L 266.545586 142.715251 
L 266.870565 132.079518 
L 267.195545 135.084771 
L 267.520524 146.979848 
L 267.845504 139.362247 
L 268.170483 121.808708 
L 268.495463 278.472544 
L 268.820442 199.510238 
L 269.145422 147.562295 
L 269.470401 124.323103 
L 269.795381 141.085259 
L 270.12036 147.845647 
L 270.44534 145.710486 
L 270.770319 124.114166 
L 271.095299 146.374504 
L 271.420278 130.17476 
L 271.745258 140.829097 
L 272.070238 278.591323 
L 272.720197 148.166207 
L 273.045176 141.388646 
L 273.370156 125.17316 
L 273.695135 146.823861 
L 274.020115 135.340933 
L 274.345094 141.981111 
L 274.670074 120.195889 
L 274.995053 148.193398 
L 275.320033 140.667386 
L 275.645012 278.53408 
L 276.294971 146.739428 
L 276.619951 147.210251 
L 277.26991 128.68072 
L 277.919869 148.126137 
L 278.244848 140.511399 
L 278.569828 130.035946 
L 278.894808 156.396307 
L 279.219787 278.566995 
L 279.869746 136.713332 
L 280.194726 145.419979 
L 280.519705 142.647991 
L 280.844685 148.373713 
L 281.169664 127.063607 
L 281.494644 144.12772 
L 281.819623 140.93929 
L 282.469582 133.099873 
L 282.794562 142.742441 
L 283.119541 282.264887 
L 283.444521 286.028609 
L 284.09448 285.413247 
L 284.744439 225.611576 
L 285.069419 224.013067 
L 285.394398 147.413463 
L 285.719378 140.338239 
L 286.044357 147.327599 
L 286.369337 129.642401 
L 286.694316 142.072699 
L 287.019296 146.385953 
L 287.344275 186.670653 
L 287.994234 142.062682 
L 288.319214 142.577868 
L 288.644193 148.11612 
L 288.969173 131.758957 
L 289.294152 143.968871 
L 289.619132 137.453196 
L 289.944111 143.907335 
L 290.269091 131.738922 
L 290.59407 189.644422 
L 290.91905 210.437911 
L 291.244029 191.192843 
L 291.569009 159.360059 
L 291.893989 187.095682 
L 292.218968 181.352786 
L 292.543948 191.36171 
L 292.868927 169.022663 
L 293.193907 184.967676 
L 293.518886 189.2151 
L 293.843866 135.966311 
L 294.168845 119.411661 
L 294.493825 186.152605 
L 294.818804 214.69249 
L 295.143784 189.837617 
L 295.468763 144.455436 
L 296.118722 146.87538 
L 296.443702 145.112298 
L 296.768681 131.030541 
L 297.41864 146.803826 
L 297.74362 136.113712 
L 298.0686 215.712845 
L 298.393579 190.016501 
L 298.718559 142.288791 
L 299.043538 144.206429 
L 299.368518 116.274749 
L 299.693497 145.880784 
L 300.018477 139.838795 
L 300.343456 146.841034 
L 300.668436 127.402772 
L 300.993415 146.866793 
L 301.318395 146.322986 
L 301.643374 190.687674 
L 301.968354 131.685973 
L 302.293333 135.345226 
L 302.618313 145.596001 
L 302.943292 141.298489 
L 303.268272 132.68343 
L 303.593251 287.183484 
L 303.918231 284.969615 
L 304.24321 152.749934 
L 304.56819 215.65274 
L 304.89317 143.578188 
L 305.218149 141.803658 
L 305.543129 145.086539 
L 305.868108 120.778336 
L 306.193088 147.349065 
L 306.518067 147.938667 
L 306.843047 141.311369 
L 307.168026 130.762931 
L 307.493006 148.061739 
L 307.817985 183.128748 
L 308.142965 141.029447 
L 308.467944 132.76357 
L 308.792924 133.021164 
L 309.117903 144.172083 
L 309.442883 148.226312 
L 309.767862 120.009849 
L 310.092842 146.258587 
L 310.417821 141.32711 
L 310.742801 122.773251 
L 311.067781 209.194308 
L 311.39276 185.017764 
L 311.71774 143.792849 
L 312.042719 139.150449 
L 312.367699 128.148361 
L 312.692678 138.3791 
L 313.017658 134.911611 
L 313.342637 149.422689 
L 313.667617 125.950233 
L 313.992596 143.626844 
L 314.317576 141.474511 
L 314.642555 213.055343 
L 314.967535 215.307851 
L 315.292514 195.752241 
L 315.617494 135.833222 
L 315.942473 146.428885 
L 316.267453 131.373999 
L 316.592432 144.651492 
L 316.917412 141.475942 
L 317.242391 214.483553 
L 317.892351 141.654826 
L 318.21733 155.301537 
L 318.54231 150.674878 
L 318.867289 159.714965 
L 319.192269 131.25522 
L 319.842228 147.346203 
L 320.167207 113.655886 
L 320.492187 145.654675 
L 320.817166 141.614756 
L 321.142146 141.048051 
L 321.467125 138.55226 
L 321.792105 189.195065 
L 322.117084 177.410181 
L 322.442064 150.133933 
L 322.767043 135.318035 
L 323.417002 146.672167 
L 323.741982 145.646088 
L 324.066962 130.709981 
L 324.391941 145.523016 
L 324.716921 137.194172 
L 325.36688 180.70451 
L 325.691859 146.98271 
L 326.016839 139.588357 
L 326.341818 145.837852 
L 326.666798 132.417251 
L 326.991777 140.110698 
L 327.316757 137.686461 
L 327.641736 147.161594 
L 327.966716 130.330747 
L 328.291695 185.299685 
L 328.616675 175.257847 
L 328.941654 145.150937 
L 329.266634 129.469241 
L 329.591613 145.699038 
L 329.916593 151.709544 
L 330.241572 147.623831 
L 330.566552 127.558759 
L 330.891532 147.098627 
L 331.216511 145.339839 
L 331.541491 146.02246 
L 331.86647 211.101928 
L 332.19145 137.841017 
L 332.516429 138.746886 
L 332.841409 142.42045 
L 333.166388 131.899202 
L 333.491368 140.298169 
L 334.141327 147.044246 
L 334.466306 125.831454 
L 335.116265 185.105059 
L 335.441245 145.913699 
L 335.766224 132.573238 
L 336.416183 143.128831 
L 336.741163 143.752779 
L 337.066143 129.84132 
L 337.391122 135.700132 
L 337.716102 147.751196 
L 338.041081 154.724814 
L 338.366061 213.440301 
L 338.69104 148.031687 
L 339.01602 146.594889 
L 339.340999 146.234259 
L 339.665979 123.003654 
L 339.990958 146.527629 
L 340.315938 130.964712 
L 340.640917 147.090041 
L 340.965897 125.988872 
L 341.615856 192.569535 
L 341.940835 135.744495 
L 342.265815 137.083979 
L 342.590794 148.793017 
L 342.915774 147.450671 
L 343.240753 142.652284 
L 343.565733 131.65592 
L 343.890713 146.280053 
L 344.215692 144.245068 
L 344.540672 154.777764 
L 344.865651 210.163145 
L 345.190631 145.823541 
L 345.51561 141.573255 
L 345.84059 139.681377 
L 346.165569 133.822564 
L 346.490549 146.410281 
L 347.140508 146.083996 
L 347.465487 131.355395 
L 347.790467 146.863931 
L 348.115446 174.031418 
L 348.440426 134.198937 
L 348.765405 137.184154 
L 349.090385 145.392788 
L 349.415364 142.097027 
L 349.740344 146.07541 
L 350.065324 127.338373 
L 350.390303 146.845327 
L 350.715283 141.909557 
L 351.040262 152.46515 
L 351.365242 206.040224 
L 351.690221 144.854705 
L 352.015201 147.6224 
L 352.66516 126.648596 
L 352.990139 141.755001 
L 353.315119 138.867096 
L 353.640098 149.867753 
L 353.965078 133.141374 
L 354.290057 150.740707 
L 354.615037 192.502275 
L 354.940016 146.365918 
L 355.264996 128.713634 
L 355.914955 185.054972 
L 356.239934 186.580495 
L 356.564914 170.266265 
L 356.889894 189.456952 
L 357.214873 186.324333 
L 357.539853 188.880229 
L 357.864832 209.609319 
L 358.189812 187.904238 
L 358.514791 185.890718 
L 358.839771 187.334671 
L 359.16475 173.550577 
L 359.48973 190.304147 
L 359.814709 183.928717 
L 360.139689 189.956396 
L 360.789648 156.091489 
L 361.114627 213.959781 
L 361.439607 144.330932 
L 361.764586 136.920837 
L 362.089566 147.383411 
L 362.414545 138.81844 
L 362.739525 148.01022 
L 363.064505 121.797259 
L 363.389484 141.16683 
L 363.714464 147.724006 
L 364.039443 144.551317 
L 364.364423 204.863882 
L 364.689402 215.134692 
L 365.014382 134.907318 
L 365.339361 143.609671 
L 365.664341 125.804263 
L 365.98932 148.220588 
L 366.3143 148.914658 
L 366.639279 145.936596 
L 366.964259 130.5082 
L 367.614218 146.820999 
L 367.939197 190.739193 
L 368.589156 149.547193 
L 368.914136 140.074922 
L 369.239115 144.830377 
L 369.564095 127.673244 
L 369.889075 146.049651 
L 370.214054 148.576925 
L 370.539034 144.713029 
L 370.864013 120.925736 
L 371.188993 189.2151 
L 371.513972 174.200284 
L 371.838952 144.040424 
L 372.163931 137.443179 
L 372.488911 135.969174 
L 373.13887 155.526215 
L 373.463849 125.127366 
L 373.788829 146.873949 
L 374.113808 143.824332 
L 374.438788 152.163194 
L 374.763767 177.249901 
L 375.088747 140.866305 
L 375.413726 146.446058 
L 375.738706 157.101826 
L 376.063686 139.566891 
L 376.388665 146.294364 
L 376.713645 147.892872 
L 377.038624 153.421107 
L 377.363604 236.962845 
L 377.688583 281.002681 
L 378.013563 265.210792 
L 378.338542 137.924019 
L 378.663522 131.684542 
L 378.988501 146.712237 
L 379.313481 144.412503 
L 379.63846 146.417436 
L 379.96344 121.048808 
L 380.288419 145.845007 
L 380.613399 128.763722 
L 380.938378 155.099755 
L 381.263358 211.232156 
L 381.588337 205.951497 
L 381.913317 145.040744 
L 382.563276 133.489124 
L 382.888256 147.879993 
L 383.213235 145.14235 
L 383.538215 157.222036 
L 383.863194 128.015271 
L 384.188174 147.054264 
L 384.513153 149.163665 
L 384.838133 190.813609 
L 385.163112 120.708213 
L 385.488092 145.485808 
L 385.813071 142.424743 
L 386.138051 153.133461 
L 386.46303 122.187942 
L 386.78801 145.580259 
L 387.112989 146.086859 
L 387.437969 137.212776 
L 387.762948 208.398632 
L 388.087928 202.026064 
L 388.412907 146.544802 
L 388.737887 157.393765 
L 389.062867 132.484511 
L 389.387846 144.585663 
L 389.712826 140.21946 
L 390.037805 144.970622 
L 390.362785 136.714763 
L 390.687764 147.231717 
L 391.012744 175.886088 
L 391.337723 183.052901 
L 391.662703 134.825746 
L 391.987682 143.067295 
L 392.312662 145.613173 
L 392.637641 134.417891 
L 392.962621 133.758166 
L 393.2876 141.795071 
L 393.937559 150.527478 
L 394.262539 212.387032 
L 394.587518 186.544719 
L 394.912498 134.191781 
L 395.237477 143.236161 
L 395.562457 133.2301 
L 395.887437 216.787581 
L 396.212416 149.799061 
L 396.537396 148.722895 
L 396.862375 129.755455 
L 397.187355 140.741802 
L 397.512334 147.364807 
L 397.837314 187.935721 
L 398.487273 141.968231 
L 398.487273 141.968231 
" clip-path="url(#p6d288bfc30)" style="fill: none; stroke: #1f77b4; stroke-width: 1.5; stroke-linecap: square"/>
   </g>
   <g id="patch_3">
    <path d="M 57.6 307.584 
L 57.6 41.472 
" style="fill: none; stroke: #000000; stroke-width: 0.8; stroke-linejoin: miter; stroke-linecap: square"/>
   </g>
   <g id="patch_4">
    <path d="M 414.72 307.584 
L 414.72 41.472 
" style="fill: none; stroke: #000000; stroke-width: 0.8; stroke-linejoin: miter; stroke-linecap: square"/>
   </g>
   <g id="patch_5">
    <path d="M 57.6 307.584 
L 414.72 307.584 
" style="fill: none; stroke: #000000; stroke-width: 0.8; stroke-linejoin: miter; stroke-linecap: square"/>
   </g>
   <g id="patch_6">
    <path d="M 57.6 41.472 
L 414.72 41.472 
" style="fill: none; stroke: #000000; stroke-width: 0.8; stroke-linejoin: miter; stroke-linecap: square"/>
   </g>
   <g id="text_18">
    <!-- Scheduling latency vs. time for: /home/thomas/Desktop/ros2_pendulum_benchmark//2022-08-08_15:56:34/demo/0_stress/rr/results.csv -->
    <g transform="translate(-171.571875 35.472)scale(0.12 -0.12)">
     <defs>
      <path id="DejaVuSans-53" d="M 3425 4513 
L 3425 3897 
Q 3066 4069 2747 4153 
Q 2428 4238 2131 4238 
Q 1616 4238 1336 4038 
Q 1056 3838 1056 3469 
Q 1056 3159 1242 3001 
Q 1428 2844 1947 2747 
L 2328 2669 
Q 3034 2534 3370 2195 
Q 3706 1856 3706 1288 
Q 3706 609 3251 259 
Q 2797 -91 1919 -91 
Q 1588 -91 1214 -16 
Q 841 59 441 206 
L 441 856 
Q 825 641 1194 531 
Q 1563 422 1919 422 
Q 2459 422 2753 634 
Q 3047 847 3047 1241 
Q 3047 1584 2836 1778 
Q 2625 1972 2144 2069 
L 1759 2144 
Q 1053 2284 737 2584 
Q 422 2884 422 3419 
Q 422 4038 858 4394 
Q 1294 4750 2059 4750 
Q 2388 4750 2728 4690 
Q 3069 4631 3425 4513 
z
" transform="scale(0.015625)"/>
      <path id="DejaVuSans-68" d="M 3513 2113 
L 3513 0 
L 2938 0 
L 2938 2094 
Q 2938 2591 2744 2837 
Q 2550 3084 2163 3084 
Q 1697 3084 1428 2787 
Q 1159 2491 1159 1978 
L 1159 0 
L 581 0 
L 581 4863 
L 1159 4863 
L 1159 2956 
Q 1366 3272 1645 3428 
Q 1925 3584 2291 3584 
Q 2894 3584 3203 3211 
Q 3513 2838 3513 2113 
z
" transform="scale(0.015625)"/>
      <path id="DejaVuSans-64" d="M 2906 2969 
L 2906 4863 
L 3481 4863 
L 3481 0 
L 2906 0 
L 2906 525 
Q 2725 213 2448 61 
Q 2172 -91 1784 -91 
Q 1150 -91 751 415 
Q 353 922 353 1747 
Q 353 2572 751 3078 
Q 1150 3584 1784 3584 
Q 2172 3584 2448 3432 
Q 2725 3281 2906 2969 
z
M 947 1747 
Q 947 1113 1208 752 
Q 1469 391 1925 391 
Q 2381 391 2643 752 
Q 2906 1113 2906 1747 
Q 2906 2381 2643 2742 
Q 2381 3103 1925 3103 
Q 1469 3103 1208 2742 
Q 947 2381 947 1747 
z
" transform="scale(0.015625)"/>
      <path id="DejaVuSans-75" d="M 544 1381 
L 544 3500 
L 1119 3500 
L 1119 1403 
Q 1119 906 1312 657 
Q 1506 409 1894 409 
Q 2359 409 2629 706 
Q 2900 1003 2900 1516 
L 2900 3500 
L 3475 3500 
L 3475 0 
L 2900 0 
L 2900 538 
Q 2691 219 2414 64 
Q 2138 -91 1772 -91 
Q 1169 -91 856 284 
Q 544 659 544 1381 
z
M 1991 3584 
L 1991 3584 
z
" transform="scale(0.015625)"/>
      <path id="DejaVuSans-6c" d="M 603 4863 
L 1178 4863 
L 1178 0 
L 603 0 
L 603 4863 
z
" transform="scale(0.015625)"/>
      <path id="DejaVuSans-67" d="M 2906 1791 
Q 2906 2416 2648 2759 
Q 2391 3103 1925 3103 
Q 1463 3103 1205 2759 
Q 947 2416 947 1791 
Q 947 1169 1205 825 
Q 1463 481 1925 481 
Q 2391 481 2648 825 
Q 2906 1169 2906 1791 
z
M 3481 434 
Q 3481 -459 3084 -895 
Q 2688 -1331 1869 -1331 
Q 1566 -1331 1297 -1286 
Q 1028 -1241 775 -1147 
L 775 -588 
Q 1028 -725 1275 -790 
Q 1522 -856 1778 -856 
Q 2344 -856 2625 -561 
Q 2906 -266 2906 331 
L 2906 616 
Q 2728 306 2450 153 
Q 2172 0 1784 0 
Q 1141 0 747 490 
Q 353 981 353 1791 
Q 353 2603 747 3093 
Q 1141 3584 1784 3584 
Q 2172 3584 2450 3431 
Q 2728 3278 2906 2969 
L 2906 3500 
L 3481 3500 
L 3481 434 
z
" transform="scale(0.015625)"/>
      <path id="DejaVuSans-76" d="M 191 3500 
L 800 3500 
L 1894 563 
L 2988 3500 
L 3597 3500 
L 2284 0 
L 1503 0 
L 191 3500 
z
" transform="scale(0.015625)"/>
      <path id="DejaVuSans-66" d="M 2375 4863 
L 2375 4384 
L 1825 4384 
Q 1516 4384 1395 4259 
Q 1275 4134 1275 3809 
L 1275 3500 
L 2222 3500 
L 2222 3053 
L 1275 3053 
L 1275 0 
L 697 0 
L 697 3053 
L 147 3053 
L 147 3500 
L 697 3500 
L 697 3744 
Q 697 4328 969 4595 
Q 1241 4863 1831 4863 
L 2375 4863 
z
" transform="scale(0.015625)"/>
      <path id="DejaVuSans-6f" d="M 1959 3097 
Q 1497 3097 1228 2736 
Q 959 2375 959 1747 
Q 959 1119 1226 758 
Q 1494 397 1959 397 
Q 2419 397 2687 759 
Q 2956 1122 2956 1747 
Q 2956 2369 2687 2733 
Q 2419 3097 1959 3097 
z
M 1959 3584 
Q 2709 3584 3137 3096 
Q 3566 2609 3566 1747 
Q 3566 888 3137 398 
Q 2709 -91 1959 -91 
Q 1206 -91 779 398 
Q 353 888 353 1747 
Q 353 2609 779 3096 
Q 1206 3584 1959 3584 
z
" transform="scale(0.015625)"/>
      <path id="DejaVuSans-72" d="M 2631 2963 
Q 2534 3019 2420 3045 
Q 2306 3072 2169 3072 
Q 1681 3072 1420 2755 
Q 1159 2438 1159 1844 
L 1159 0 
L 581 0 
L 581 3500 
L 1159 3500 
L 1159 2956 
Q 1341 3275 1631 3429 
Q 1922 3584 2338 3584 
Q 2397 3584 2469 3576 
Q 2541 3569 2628 3553 
L 2631 2963 
z
" transform="scale(0.015625)"/>
      <path id="DejaVuSans-3a" d="M 750 794 
L 1409 794 
L 1409 0 
L 750 0 
L 750 794 
z
M 750 3309 
L 1409 3309 
L 1409 2516 
L 750 2516 
L 750 3309 
z
" transform="scale(0.015625)"/>
      <path id="DejaVuSans-2f" d="M 1625 4666 
L 2156 4666 
L 531 -594 
L 0 -594 
L 1625 4666 
z
" transform="scale(0.015625)"/>
      <path id="DejaVuSans-44" d="M 1259 4147 
L 1259 519 
L 2022 519 
Q 2988 519 3436 956 
Q 3884 1394 3884 2338 
Q 3884 3275 3436 3711 
Q 2988 4147 2022 4147 
L 1259 4147 
z
M 628 4666 
L 1925 4666 
Q 3281 4666 3915 4102 
Q 4550 3538 4550 2338 
Q 4550 1131 3912 565 
Q 3275 0 1925 0 
L 628 0 
L 628 4666 
z
" transform="scale(0.015625)"/>
      <path id="DejaVuSans-6b" d="M 581 4863 
L 1159 4863 
L 1159 1991 
L 2875 3500 
L 3609 3500 
L 1753 1863 
L 3688 0 
L 2938 0 
L 1159 1709 
L 1159 0 
L 581 0 
L 581 4863 
z
" transform="scale(0.015625)"/>
      <path id="DejaVuSans-70" d="M 1159 525 
L 1159 -1331 
L 581 -1331 
L 581 3500 
L 1159 3500 
L 1159 2969 
Q 1341 3281 1617 3432 
Q 1894 3584 2278 3584 
Q 2916 3584 3314 3078 
Q 3713 2572 3713 1747 
Q 3713 922 3314 415 
Q 2916 -91 2278 -91 
Q 1894 -91 1617 61 
Q 1341 213 1159 525 
z
M 3116 1747 
Q 3116 2381 2855 2742 
Q 2594 3103 2138 3103 
Q 1681 3103 1420 2742 
Q 1159 2381 1159 1747 
Q 1159 1113 1420 752 
Q 1681 391 2138 391 
Q 2594 391 2855 752 
Q 3116 1113 3116 1747 
z
" transform="scale(0.015625)"/>
      <path id="DejaVuSans-5f" d="M 3263 -1063 
L 3263 -1509 
L -63 -1509 
L -63 -1063 
L 3263 -1063 
z
" transform="scale(0.015625)"/>
      <path id="DejaVuSans-62" d="M 3116 1747 
Q 3116 2381 2855 2742 
Q 2594 3103 2138 3103 
Q 1681 3103 1420 2742 
Q 1159 2381 1159 1747 
Q 1159 1113 1420 752 
Q 1681 391 2138 391 
Q 2594 391 2855 752 
Q 3116 1113 3116 1747 
z
M 1159 2969 
Q 1341 3281 1617 3432 
Q 1894 3584 2278 3584 
Q 2916 3584 3314 3078 
Q 3713 2572 3713 1747 
Q 3713 922 3314 415 
Q 2916 -91 2278 -91 
Q 1894 -91 1617 61 
Q 1341 213 1159 525 
L 1159 0 
L 581 0 
L 581 4863 
L 1159 4863 
L 1159 2969 
z
" transform="scale(0.015625)"/>
      <path id="DejaVuSans-2d" d="M 313 2009 
L 1997 2009 
L 1997 1497 
L 313 1497 
L 313 2009 
z
" transform="scale(0.015625)"/>
      <path id="DejaVuSans-33" d="M 2597 2516 
Q 3050 2419 3304 2112 
Q 3559 1806 3559 1356 
Q 3559 666 3084 287 
Q 2609 -91 1734 -91 
Q 1441 -91 1130 -33 
Q 819 25 488 141 
L 488 750 
Q 750 597 1062 519 
Q 1375 441 1716 441 
Q 2309 441 2620 675 
Q 2931 909 2931 1356 
Q 2931 1769 2642 2001 
Q 2353 2234 1838 2234 
L 1294 2234 
L 1294 2753 
L 1863 2753 
Q 2328 2753 2575 2939 
Q 2822 3125 2822 3475 
Q 2822 3834 2567 4026 
Q 2313 4219 1838 4219 
Q 1578 4219 1281 4162 
Q 984 4106 628 3988 
L 628 4550 
Q 988 4650 1302 4700 
Q 1616 4750 1894 4750 
Q 2613 4750 3031 4423 
Q 3450 4097 3450 3541 
Q 3450 3153 3228 2886 
Q 3006 2619 2597 2516 
z
" transform="scale(0.015625)"/>
     </defs>
     <use xlink:href="#DejaVuSans-53"/>
     <use xlink:href="#DejaVuSans-63" x="63.476562"/>
     <use xlink:href="#DejaVuSans-68" x="118.457031"/>
     <use xlink:href="#DejaVuSans-65" x="181.835938"/>
     <use xlink:href="#DejaVuSans-64" x="243.359375"/>
     <use xlink:href="#DejaVuSans-75" x="306.835938"/>
     <use xlink:href="#DejaVuSans-6c" x="370.214844"/>
     <use xlink:href="#DejaVuSans-69" x="397.998047"/>
     <use xlink:href="#DejaVuSans-6e" x="425.78125"/>
     <use xlink:href="#DejaVuSans-67" x="489.160156"/>
     <use xlink:href="#DejaVuSans-20" x="552.636719"/>
     <use xlink:href="#DejaVuSans-6c" x="584.423828"/>
     <use xlink:href="#DejaVuSans-61" x="612.207031"/>
     <use xlink:href="#DejaVuSans-74" x="673.486328"/>
     <use xlink:href="#DejaVuSans-65" x="712.695312"/>
     <use xlink:href="#DejaVuSans-6e" x="774.21875"/>
     <use xlink:href="#DejaVuSans-63" x="837.597656"/>
     <use xlink:href="#DejaVuSans-79" x="892.578125"/>
     <use xlink:href="#DejaVuSans-20" x="951.757812"/>
     <use xlink:href="#DejaVuSans-76" x="983.544922"/>
     <use xlink:href="#DejaVuSans-73" x="1042.724609"/>
     <use xlink:href="#DejaVuSans-2e" x="1094.824219"/>
     <use xlink:href="#DejaVuSans-20" x="1126.611328"/>
     <use xlink:href="#DejaVuSans-74" x="1158.398438"/>
     <use xlink:href="#DejaVuSans-69" x="1197.607422"/>
     <use xlink:href="#DejaVuSans-6d" x="1225.390625"/>
     <use xlink:href="#DejaVuSans-65" x="1322.802734"/>
     <use xlink:href="#DejaVuSans-20" x="1384.326172"/>
     <use xlink:href="#DejaVuSans-66" x="1416.113281"/>
     <use xlink:href="#DejaVuSans-6f" x="1451.318359"/>
     <use xlink:href="#DejaVuSans-72" x="1512.5"/>
     <use xlink:href="#DejaVuSans-3a" x="1551.863281"/>
     <use xlink:href="#DejaVuSans-20" x="1585.554688"/>
     <use xlink:href="#DejaVuSans-2f" x="1617.341797"/>
     <use xlink:href="#DejaVuSans-68" x="1651.033203"/>
     <use xlink:href="#DejaVuSans-6f" x="1714.412109"/>
     <use xlink:href="#DejaVuSans-6d" x="1775.59375"/>
     <use xlink:href="#DejaVuSans-65" x="1873.005859"/>
     <use xlink:href="#DejaVuSans-2f" x="1934.529297"/>
     <use xlink:href="#DejaVuSans-74" x="1968.220703"/>
     <use xlink:href="#DejaVuSans-68" x="2007.429688"/>
     <use xlink:href="#DejaVuSans-6f" x="2070.808594"/>
     <use xlink:href="#DejaVuSans-6d" x="2131.990234"/>
     <use xlink:href="#DejaVuSans-61" x="2229.402344"/>
     <use xlink:href="#DejaVuSans-73" x="2290.681641"/>
     <use xlink:href="#DejaVuSans-2f" x="2342.78125"/>
     <use xlink:href="#DejaVuSans-44" x="2376.472656"/>
     <use xlink:href="#DejaVuSans-65" x="2453.474609"/>
     <use xlink:href="#DejaVuSans-73" x="2514.998047"/>
     <use xlink:href="#DejaVuSans-6b" x="2567.097656"/>
     <use xlink:href="#DejaVuSans-74" x="2625.007812"/>
     <use xlink:href="#DejaVuSans-6f" x="2664.216797"/>
     <use xlink:href="#DejaVuSans-70" x="2725.398438"/>
     <use xlink:href="#DejaVuSans-2f" x="2788.875"/>
     <use xlink:href="#DejaVuSans-72" x="2822.566406"/>
     <use xlink:href="#DejaVuSans-6f" x="2861.429688"/>
     <use xlink:href="#DejaVuSans-73" x="2922.611328"/>
     <use xlink:href="#DejaVuSans-32" x="2974.710938"/>
     <use xlink:href="#DejaVuSans-5f" x="3038.333984"/>
     <use xlink:href="#DejaVuSans-70" x="3088.333984"/>
     <use xlink:href="#DejaVuSans-65" x="3151.810547"/>
     <use xlink:href="#DejaVuSans-6e" x="3213.333984"/>
     <use xlink:href="#DejaVuSans-64" x="3276.712891"/>
     <use xlink:href="#DejaVuSans-75" x="3340.189453"/>
     <use xlink:href="#DejaVuSans-6c" x="3403.568359"/>
     <use xlink:href="#DejaVuSans-75" x="3431.351562"/>
     <use xlink:href="#DejaVuSans-6d" x="3494.730469"/>
     <use xlink:href="#DejaVuSans-5f" x="3592.142578"/>
     <use xlink:href="#DejaVuSans-62" x="3642.142578"/>
     <use xlink:href="#DejaVuSans-65" x="3705.619141"/>
     <use xlink:href="#DejaVuSans-6e" x="3767.142578"/>
     <use xlink:href="#DejaVuSans-63" x="3830.521484"/>
     <use xlink:href="#DejaVuSans-68" x="3885.501953"/>
     <use xlink:href="#DejaVuSans-6d" x="3948.880859"/>
     <use xlink:href="#DejaVuSans-61" x="4046.292969"/>
     <use xlink:href="#DejaVuSans-72" x="4107.572266"/>
     <use xlink:href="#DejaVuSans-6b" x="4148.685547"/>
     <use xlink:href="#DejaVuSans-2f" x="4206.595703"/>
     <use xlink:href="#DejaVuSans-2f" x="4240.287109"/>
     <use xlink:href="#DejaVuSans-32" x="4273.978516"/>
     <use xlink:href="#DejaVuSans-30" x="4337.601562"/>
     <use xlink:href="#DejaVuSans-32" x="4401.224609"/>
     <use xlink:href="#DejaVuSans-32" x="4464.847656"/>
     <use xlink:href="#DejaVuSans-2d" x="4528.470703"/>
     <use xlink:href="#DejaVuSans-30" x="4564.554688"/>
     <use xlink:href="#DejaVuSans-38" x="4628.177734"/>
     <use xlink:href="#DejaVuSans-2d" x="4691.800781"/>
     <use xlink:href="#DejaVuSans-30" x="4727.884766"/>
     <use xlink:href="#DejaVuSans-38" x="4791.507812"/>
     <use xlink:href="#DejaVuSans-5f" x="4855.130859"/>
     <use xlink:href="#DejaVuSans-31" x="4905.130859"/>
     <use xlink:href="#DejaVuSans-35" x="4968.753906"/>
     <use xlink:href="#DejaVuSans-3a" x="5032.376953"/>
     <use xlink:href="#DejaVuSans-35" x="5066.068359"/>
     <use xlink:href="#DejaVuSans-36" x="5129.691406"/>
     <use xlink:href="#DejaVuSans-3a" x="5193.314453"/>
     <use xlink:href="#DejaVuSans-33" x="5227.005859"/>
     <use xlink:href="#DejaVuSans-34" x="5290.628906"/>
     <use xlink:href="#DejaVuSans-2f" x="5354.251953"/>
     <use xlink:href="#DejaVuSans-64" x="5387.943359"/>
     <use xlink:href="#DejaVuSans-65" x="5451.419922"/>
     <use xlink:href="#DejaVuSans-6d" x="5512.943359"/>
     <use xlink:href="#DejaVuSans-6f" x="5610.355469"/>
     <use xlink:href="#DejaVuSans-2f" x="5671.537109"/>
     <use xlink:href="#DejaVuSans-30" x="5705.228516"/>
     <use xlink:href="#DejaVuSans-5f" x="5768.851562"/>
     <use xlink:href="#DejaVuSans-73" x="5818.851562"/>
     <use xlink:href="#DejaVuSans-74" x="5870.951172"/>
     <use xlink:href="#DejaVuSans-72" x="5910.160156"/>
     <use xlink:href="#DejaVuSans-65" x="5949.023438"/>
     <use xlink:href="#DejaVuSans-73" x="6010.546875"/>
     <use xlink:href="#DejaVuSans-73" x="6062.646484"/>
     <use xlink:href="#DejaVuSans-2f" x="6114.746094"/>
     <use xlink:href="#DejaVuSans-72" x="6148.4375"/>
     <use xlink:href="#DejaVuSans-72" x="6187.800781"/>
     <use xlink:href="#DejaVuSans-2f" x="6228.914062"/>
     <use xlink:href="#DejaVuSans-72" x="6262.605469"/>
     <use xlink:href="#DejaVuSans-65" x="6301.46875"/>
     <use xlink:href="#DejaVuSans-73" x="6362.992188"/>
     <use xlink:href="#DejaVuSans-75" x="6415.091797"/>
     <use xlink:href="#DejaVuSans-6c" x="6478.470703"/>
     <use xlink:href="#DejaVuSans-74" x="6506.253906"/>
     <use xlink:href="#DejaVuSans-73" x="6545.462891"/>
     <use xlink:href="#DejaVuSans-2e" x="6597.5625"/>
     <use xlink:href="#DejaVuSans-63" x="6629.349609"/>
     <use xlink:href="#DejaVuSans-73" x="6684.330078"/>
     <use xlink:href="#DejaVuSans-76" x="6736.429688"/>
    </g>
   </g>
  </g>
 </g>
 <defs>
  <clipPath id="p6d288bfc30">
   <rect x="57.6" y="41.472" width="357.12" height="266.112"/>
  </clipPath>
 </defs>
</svg>
