<?xml version="1.0" encoding="utf-8" standalone="no"?>
<!DOCTYPE svg PUBLIC "-//W3C//DTD SVG 1.1//EN"
  "http://www.w3.org/Graphics/SVG/1.1/DTD/svg11.dtd">
<svg xmlns:xlink="http://www.w3.org/1999/xlink" width="460.8pt" height="345.6pt" viewBox="0 0 460.8 345.6" xmlns="http://www.w3.org/2000/svg" version="1.1">
 <metadata>
  <rdf:RDF xmlns:dc="http://purl.org/dc/elements/1.1/" xmlns:cc="http://creativecommons.org/ns#" xmlns:rdf="http://www.w3.org/1999/02/22-rdf-syntax-ns#">
   <cc:Work>
    <dc:type rdf:resource="http://purl.org/dc/dcmitype/StillImage"/>
    <dc:date>2022-08-08T15:57:14.686784</dc:date>
    <dc:format>image/svg+xml</dc:format>
    <dc:creator>
     <cc:Agent>
      <dc:title>Matplotlib v3.5.1, https://matplotlib.org/</dc:title>
     </cc:Agent>
    </dc:creator>
   </cc:Work>
  </rdf:RDF>
 </metadata>
 <defs>
  <style type="text/css">*{stroke-linejoin: round; stroke-linecap: butt}</style>
 </defs>
 <g id="figure_1">
  <g id="patch_1">
   <path d="M 0 345.6 
L 460.8 345.6 
L 460.8 0 
L 0 0 
z
" style="fill: #ffffff"/>
  </g>
  <g id="axes_1">
   <g id="patch_2">
    <path d="M 57.6 307.584 
L 414.72 307.584 
L 414.72 41.472 
L 57.6 41.472 
z
" style="fill: #ffffff"/>
   </g>
   <g id="matplotlib.axis_1">
    <g id="xtick_1">
     <g id="line2d_1">
      <defs>
       <path id="m26fd9a2caa" d="M 0 0 
L 0 3.5 
" style="stroke: #000000; stroke-width: 0.8"/>
      </defs>
      <g>
       <use xlink:href="#m26fd9a2caa" x="73.832727" y="307.584" style="stroke: #000000; stroke-width: 0.8"/>
      </g>
     </g>
     <g id="text_1">
      <!-- 0.0 -->
      <g transform="translate(65.881165 322.182437)scale(0.1 -0.1)">
       <defs>
        <path id="DejaVuSans-30" d="M 2034 4250 
Q 1547 4250 1301 3770 
Q 1056 3291 1056 2328 
Q 1056 1369 1301 889 
Q 1547 409 2034 409 
Q 2525 409 2770 889 
Q 3016 1369 3016 2328 
Q 3016 3291 2770 3770 
Q 2525 4250 2034 4250 
z
M 2034 4750 
Q 2819 4750 3233 4129 
Q 3647 3509 3647 2328 
Q 3647 1150 3233 529 
Q 2819 -91 2034 -91 
Q 1250 -91 836 529 
Q 422 1150 422 2328 
Q 422 3509 836 4129 
Q 1250 4750 2034 4750 
z
" transform="scale(0.015625)"/>
        <path id="DejaVuSans-2e" d="M 684 794 
L 1344 794 
L 1344 0 
L 684 0 
L 684 794 
z
" transform="scale(0.015625)"/>
       </defs>
       <use xlink:href="#DejaVuSans-30"/>
       <use xlink:href="#DejaVuSans-2e" x="63.623047"/>
       <use xlink:href="#DejaVuSans-30" x="95.410156"/>
      </g>
     </g>
    </g>
    <g id="xtick_2">
     <g id="line2d_2">
      <g>
       <use xlink:href="#m26fd9a2caa" x="138.828632" y="307.584" style="stroke: #000000; stroke-width: 0.8"/>
      </g>
     </g>
     <g id="text_2">
      <!-- 0.2 -->
      <g transform="translate(130.87707 322.182437)scale(0.1 -0.1)">
       <defs>
        <path id="DejaVuSans-32" d="M 1228 531 
L 3431 531 
L 3431 0 
L 469 0 
L 469 531 
Q 828 903 1448 1529 
Q 2069 2156 2228 2338 
Q 2531 2678 2651 2914 
Q 2772 3150 2772 3378 
Q 2772 3750 2511 3984 
Q 2250 4219 1831 4219 
Q 1534 4219 1204 4116 
Q 875 4013 500 3803 
L 500 4441 
Q 881 4594 1212 4672 
Q 1544 4750 1819 4750 
Q 2544 4750 2975 4387 
Q 3406 4025 3406 3419 
Q 3406 3131 3298 2873 
Q 3191 2616 2906 2266 
Q 2828 2175 2409 1742 
Q 1991 1309 1228 531 
z
" transform="scale(0.015625)"/>
       </defs>
       <use xlink:href="#DejaVuSans-30"/>
       <use xlink:href="#DejaVuSans-2e" x="63.623047"/>
       <use xlink:href="#DejaVuSans-32" x="95.410156"/>
      </g>
     </g>
    </g>
    <g id="xtick_3">
     <g id="line2d_3">
      <g>
       <use xlink:href="#m26fd9a2caa" x="203.824537" y="307.584" style="stroke: #000000; stroke-width: 0.8"/>
      </g>
     </g>
     <g id="text_3">
      <!-- 0.4 -->
      <g transform="translate(195.872975 322.182437)scale(0.1 -0.1)">
       <defs>
        <path id="DejaVuSans-34" d="M 2419 4116 
L 825 1625 
L 2419 1625 
L 2419 4116 
z
M 2253 4666 
L 3047 4666 
L 3047 1625 
L 3713 1625 
L 3713 1100 
L 3047 1100 
L 3047 0 
L 2419 0 
L 2419 1100 
L 313 1100 
L 313 1709 
L 2253 4666 
z
" transform="scale(0.015625)"/>
       </defs>
       <use xlink:href="#DejaVuSans-30"/>
       <use xlink:href="#DejaVuSans-2e" x="63.623047"/>
       <use xlink:href="#DejaVuSans-34" x="95.410156"/>
      </g>
     </g>
    </g>
    <g id="xtick_4">
     <g id="line2d_4">
      <g>
       <use xlink:href="#m26fd9a2caa" x="268.820442" y="307.584" style="stroke: #000000; stroke-width: 0.8"/>
      </g>
     </g>
     <g id="text_4">
      <!-- 0.6 -->
      <g transform="translate(260.86888 322.182437)scale(0.1 -0.1)">
       <defs>
        <path id="DejaVuSans-36" d="M 2113 2584 
Q 1688 2584 1439 2293 
Q 1191 2003 1191 1497 
Q 1191 994 1439 701 
Q 1688 409 2113 409 
Q 2538 409 2786 701 
Q 3034 994 3034 1497 
Q 3034 2003 2786 2293 
Q 2538 2584 2113 2584 
z
M 3366 4563 
L 3366 3988 
Q 3128 4100 2886 4159 
Q 2644 4219 2406 4219 
Q 1781 4219 1451 3797 
Q 1122 3375 1075 2522 
Q 1259 2794 1537 2939 
Q 1816 3084 2150 3084 
Q 2853 3084 3261 2657 
Q 3669 2231 3669 1497 
Q 3669 778 3244 343 
Q 2819 -91 2113 -91 
Q 1303 -91 875 529 
Q 447 1150 447 2328 
Q 447 3434 972 4092 
Q 1497 4750 2381 4750 
Q 2619 4750 2861 4703 
Q 3103 4656 3366 4563 
z
" transform="scale(0.015625)"/>
       </defs>
       <use xlink:href="#DejaVuSans-30"/>
       <use xlink:href="#DejaVuSans-2e" x="63.623047"/>
       <use xlink:href="#DejaVuSans-36" x="95.410156"/>
      </g>
     </g>
    </g>
    <g id="xtick_5">
     <g id="line2d_5">
      <g>
       <use xlink:href="#m26fd9a2caa" x="333.816347" y="307.584" style="stroke: #000000; stroke-width: 0.8"/>
      </g>
     </g>
     <g id="text_5">
      <!-- 0.8 -->
      <g transform="translate(325.864785 322.182437)scale(0.1 -0.1)">
       <defs>
        <path id="DejaVuSans-38" d="M 2034 2216 
Q 1584 2216 1326 1975 
Q 1069 1734 1069 1313 
Q 1069 891 1326 650 
Q 1584 409 2034 409 
Q 2484 409 2743 651 
Q 3003 894 3003 1313 
Q 3003 1734 2745 1975 
Q 2488 2216 2034 2216 
z
M 1403 2484 
Q 997 2584 770 2862 
Q 544 3141 544 3541 
Q 544 4100 942 4425 
Q 1341 4750 2034 4750 
Q 2731 4750 3128 4425 
Q 3525 4100 3525 3541 
Q 3525 3141 3298 2862 
Q 3072 2584 2669 2484 
Q 3125 2378 3379 2068 
Q 3634 1759 3634 1313 
Q 3634 634 3220 271 
Q 2806 -91 2034 -91 
Q 1263 -91 848 271 
Q 434 634 434 1313 
Q 434 1759 690 2068 
Q 947 2378 1403 2484 
z
M 1172 3481 
Q 1172 3119 1398 2916 
Q 1625 2713 2034 2713 
Q 2441 2713 2670 2916 
Q 2900 3119 2900 3481 
Q 2900 3844 2670 4047 
Q 2441 4250 2034 4250 
Q 1625 4250 1398 4047 
Q 1172 3844 1172 3481 
z
" transform="scale(0.015625)"/>
       </defs>
       <use xlink:href="#DejaVuSans-30"/>
       <use xlink:href="#DejaVuSans-2e" x="63.623047"/>
       <use xlink:href="#DejaVuSans-38" x="95.410156"/>
      </g>
     </g>
    </g>
    <g id="xtick_6">
     <g id="line2d_6">
      <g>
       <use xlink:href="#m26fd9a2caa" x="398.812252" y="307.584" style="stroke: #000000; stroke-width: 0.8"/>
      </g>
     </g>
     <g id="text_6">
      <!-- 1.0 -->
      <g transform="translate(390.86069 322.182437)scale(0.1 -0.1)">
       <defs>
        <path id="DejaVuSans-31" d="M 794 531 
L 1825 531 
L 1825 4091 
L 703 3866 
L 703 4441 
L 1819 4666 
L 2450 4666 
L 2450 531 
L 3481 531 
L 3481 0 
L 794 0 
L 794 531 
z
" transform="scale(0.015625)"/>
       </defs>
       <use xlink:href="#DejaVuSans-31"/>
       <use xlink:href="#DejaVuSans-2e" x="63.623047"/>
       <use xlink:href="#DejaVuSans-30" x="95.410156"/>
      </g>
     </g>
    </g>
    <g id="text_7">
     <!-- Time (ns) -->
     <g transform="translate(212.662344 335.860562)scale(0.1 -0.1)">
      <defs>
       <path id="DejaVuSans-54" d="M -19 4666 
L 3928 4666 
L 3928 4134 
L 2272 4134 
L 2272 0 
L 1638 0 
L 1638 4134 
L -19 4134 
L -19 4666 
z
" transform="scale(0.015625)"/>
       <path id="DejaVuSans-69" d="M 603 3500 
L 1178 3500 
L 1178 0 
L 603 0 
L 603 3500 
z
M 603 4863 
L 1178 4863 
L 1178 4134 
L 603 4134 
L 603 4863 
z
" transform="scale(0.015625)"/>
       <path id="DejaVuSans-6d" d="M 3328 2828 
Q 3544 3216 3844 3400 
Q 4144 3584 4550 3584 
Q 5097 3584 5394 3201 
Q 5691 2819 5691 2113 
L 5691 0 
L 5113 0 
L 5113 2094 
Q 5113 2597 4934 2840 
Q 4756 3084 4391 3084 
Q 3944 3084 3684 2787 
Q 3425 2491 3425 1978 
L 3425 0 
L 2847 0 
L 2847 2094 
Q 2847 2600 2669 2842 
Q 2491 3084 2119 3084 
Q 1678 3084 1418 2786 
Q 1159 2488 1159 1978 
L 1159 0 
L 581 0 
L 581 3500 
L 1159 3500 
L 1159 2956 
Q 1356 3278 1631 3431 
Q 1906 3584 2284 3584 
Q 2666 3584 2933 3390 
Q 3200 3197 3328 2828 
z
" transform="scale(0.015625)"/>
       <path id="DejaVuSans-65" d="M 3597 1894 
L 3597 1613 
L 953 1613 
Q 991 1019 1311 708 
Q 1631 397 2203 397 
Q 2534 397 2845 478 
Q 3156 559 3463 722 
L 3463 178 
Q 3153 47 2828 -22 
Q 2503 -91 2169 -91 
Q 1331 -91 842 396 
Q 353 884 353 1716 
Q 353 2575 817 3079 
Q 1281 3584 2069 3584 
Q 2775 3584 3186 3129 
Q 3597 2675 3597 1894 
z
M 3022 2063 
Q 3016 2534 2758 2815 
Q 2500 3097 2075 3097 
Q 1594 3097 1305 2825 
Q 1016 2553 972 2059 
L 3022 2063 
z
" transform="scale(0.015625)"/>
       <path id="DejaVuSans-20" transform="scale(0.015625)"/>
       <path id="DejaVuSans-28" d="M 1984 4856 
Q 1566 4138 1362 3434 
Q 1159 2731 1159 2009 
Q 1159 1288 1364 580 
Q 1569 -128 1984 -844 
L 1484 -844 
Q 1016 -109 783 600 
Q 550 1309 550 2009 
Q 550 2706 781 3412 
Q 1013 4119 1484 4856 
L 1984 4856 
z
" transform="scale(0.015625)"/>
       <path id="DejaVuSans-6e" d="M 3513 2113 
L 3513 0 
L 2938 0 
L 2938 2094 
Q 2938 2591 2744 2837 
Q 2550 3084 2163 3084 
Q 1697 3084 1428 2787 
Q 1159 2491 1159 1978 
L 1159 0 
L 581 0 
L 581 3500 
L 1159 3500 
L 1159 2956 
Q 1366 3272 1645 3428 
Q 1925 3584 2291 3584 
Q 2894 3584 3203 3211 
Q 3513 2838 3513 2113 
z
" transform="scale(0.015625)"/>
       <path id="DejaVuSans-73" d="M 2834 3397 
L 2834 2853 
Q 2591 2978 2328 3040 
Q 2066 3103 1784 3103 
Q 1356 3103 1142 2972 
Q 928 2841 928 2578 
Q 928 2378 1081 2264 
Q 1234 2150 1697 2047 
L 1894 2003 
Q 2506 1872 2764 1633 
Q 3022 1394 3022 966 
Q 3022 478 2636 193 
Q 2250 -91 1575 -91 
Q 1294 -91 989 -36 
Q 684 19 347 128 
L 347 722 
Q 666 556 975 473 
Q 1284 391 1588 391 
Q 1994 391 2212 530 
Q 2431 669 2431 922 
Q 2431 1156 2273 1281 
Q 2116 1406 1581 1522 
L 1381 1569 
Q 847 1681 609 1914 
Q 372 2147 372 2553 
Q 372 3047 722 3315 
Q 1072 3584 1716 3584 
Q 2034 3584 2315 3537 
Q 2597 3491 2834 3397 
z
" transform="scale(0.015625)"/>
       <path id="DejaVuSans-29" d="M 513 4856 
L 1013 4856 
Q 1481 4119 1714 3412 
Q 1947 2706 1947 2009 
Q 1947 1309 1714 600 
Q 1481 -109 1013 -844 
L 513 -844 
Q 928 -128 1133 580 
Q 1338 1288 1338 2009 
Q 1338 2731 1133 3434 
Q 928 4138 513 4856 
z
" transform="scale(0.015625)"/>
      </defs>
      <use xlink:href="#DejaVuSans-54"/>
      <use xlink:href="#DejaVuSans-69" x="57.958984"/>
      <use xlink:href="#DejaVuSans-6d" x="85.742188"/>
      <use xlink:href="#DejaVuSans-65" x="183.154297"/>
      <use xlink:href="#DejaVuSans-20" x="244.677734"/>
      <use xlink:href="#DejaVuSans-28" x="276.464844"/>
      <use xlink:href="#DejaVuSans-6e" x="315.478516"/>
      <use xlink:href="#DejaVuSans-73" x="378.857422"/>
      <use xlink:href="#DejaVuSans-29" x="430.957031"/>
     </g>
    </g>
    <g id="text_8">
     <!-- 1e9 -->
     <g transform="translate(395.841875 334.860562)scale(0.1 -0.1)">
      <defs>
       <path id="DejaVuSans-39" d="M 703 97 
L 703 672 
Q 941 559 1184 500 
Q 1428 441 1663 441 
Q 2288 441 2617 861 
Q 2947 1281 2994 2138 
Q 2813 1869 2534 1725 
Q 2256 1581 1919 1581 
Q 1219 1581 811 2004 
Q 403 2428 403 3163 
Q 403 3881 828 4315 
Q 1253 4750 1959 4750 
Q 2769 4750 3195 4129 
Q 3622 3509 3622 2328 
Q 3622 1225 3098 567 
Q 2575 -91 1691 -91 
Q 1453 -91 1209 -44 
Q 966 3 703 97 
z
M 1959 2075 
Q 2384 2075 2632 2365 
Q 2881 2656 2881 3163 
Q 2881 3666 2632 3958 
Q 2384 4250 1959 4250 
Q 1534 4250 1286 3958 
Q 1038 3666 1038 3163 
Q 1038 2656 1286 2365 
Q 1534 2075 1959 2075 
z
" transform="scale(0.015625)"/>
      </defs>
      <use xlink:href="#DejaVuSans-31"/>
      <use xlink:href="#DejaVuSans-65" x="63.623047"/>
      <use xlink:href="#DejaVuSans-39" x="125.146484"/>
     </g>
    </g>
   </g>
   <g id="matplotlib.axis_2">
    <g id="ytick_1">
     <g id="line2d_7">
      <defs>
       <path id="m1b680f188f" d="M 0 0 
L -3.5 0 
" style="stroke: #000000; stroke-width: 0.8"/>
      </defs>
      <g>
       <use xlink:href="#m1b680f188f" x="57.6" y="306.449254" style="stroke: #000000; stroke-width: 0.8"/>
      </g>
     </g>
     <g id="text_9">
      <!-- 0 -->
      <g transform="translate(44.2375 310.248472)scale(0.1 -0.1)">
       <use xlink:href="#DejaVuSans-30"/>
      </g>
     </g>
    </g>
    <g id="ytick_2">
     <g id="line2d_8">
      <g>
       <use xlink:href="#m1b680f188f" x="57.6" y="261.800563" style="stroke: #000000; stroke-width: 0.8"/>
      </g>
     </g>
     <g id="text_10">
      <!-- 10000 -->
      <g transform="translate(18.7875 265.599782)scale(0.1 -0.1)">
       <use xlink:href="#DejaVuSans-31"/>
       <use xlink:href="#DejaVuSans-30" x="63.623047"/>
       <use xlink:href="#DejaVuSans-30" x="127.246094"/>
       <use xlink:href="#DejaVuSans-30" x="190.869141"/>
       <use xlink:href="#DejaVuSans-30" x="254.492188"/>
      </g>
     </g>
    </g>
    <g id="ytick_3">
     <g id="line2d_9">
      <g>
       <use xlink:href="#m1b680f188f" x="57.6" y="217.151872" style="stroke: #000000; stroke-width: 0.8"/>
      </g>
     </g>
     <g id="text_11">
      <!-- 20000 -->
      <g transform="translate(18.7875 220.951091)scale(0.1 -0.1)">
       <use xlink:href="#DejaVuSans-32"/>
       <use xlink:href="#DejaVuSans-30" x="63.623047"/>
       <use xlink:href="#DejaVuSans-30" x="127.246094"/>
       <use xlink:href="#DejaVuSans-30" x="190.869141"/>
       <use xlink:href="#DejaVuSans-30" x="254.492188"/>
      </g>
     </g>
    </g>
    <g id="ytick_4">
     <g id="line2d_10">
      <g>
       <use xlink:href="#m1b680f188f" x="57.6" y="172.503182" style="stroke: #000000; stroke-width: 0.8"/>
      </g>
     </g>
     <g id="text_12">
      <!-- 30000 -->
      <g transform="translate(18.7875 176.302401)scale(0.1 -0.1)">
       <defs>
        <path id="DejaVuSans-33" d="M 2597 2516 
Q 3050 2419 3304 2112 
Q 3559 1806 3559 1356 
Q 3559 666 3084 287 
Q 2609 -91 1734 -91 
Q 1441 -91 1130 -33 
Q 819 25 488 141 
L 488 750 
Q 750 597 1062 519 
Q 1375 441 1716 441 
Q 2309 441 2620 675 
Q 2931 909 2931 1356 
Q 2931 1769 2642 2001 
Q 2353 2234 1838 2234 
L 1294 2234 
L 1294 2753 
L 1863 2753 
Q 2328 2753 2575 2939 
Q 2822 3125 2822 3475 
Q 2822 3834 2567 4026 
Q 2313 4219 1838 4219 
Q 1578 4219 1281 4162 
Q 984 4106 628 3988 
L 628 4550 
Q 988 4650 1302 4700 
Q 1616 4750 1894 4750 
Q 2613 4750 3031 4423 
Q 3450 4097 3450 3541 
Q 3450 3153 3228 2886 
Q 3006 2619 2597 2516 
z
" transform="scale(0.015625)"/>
       </defs>
       <use xlink:href="#DejaVuSans-33"/>
       <use xlink:href="#DejaVuSans-30" x="63.623047"/>
       <use xlink:href="#DejaVuSans-30" x="127.246094"/>
       <use xlink:href="#DejaVuSans-30" x="190.869141"/>
       <use xlink:href="#DejaVuSans-30" x="254.492188"/>
      </g>
     </g>
    </g>
    <g id="ytick_5">
     <g id="line2d_11">
      <g>
       <use xlink:href="#m1b680f188f" x="57.6" y="127.854491" style="stroke: #000000; stroke-width: 0.8"/>
      </g>
     </g>
     <g id="text_13">
      <!-- 40000 -->
      <g transform="translate(18.7875 131.65371)scale(0.1 -0.1)">
       <use xlink:href="#DejaVuSans-34"/>
       <use xlink:href="#DejaVuSans-30" x="63.623047"/>
       <use xlink:href="#DejaVuSans-30" x="127.246094"/>
       <use xlink:href="#DejaVuSans-30" x="190.869141"/>
       <use xlink:href="#DejaVuSans-30" x="254.492188"/>
      </g>
     </g>
    </g>
    <g id="ytick_6">
     <g id="line2d_12">
      <g>
       <use xlink:href="#m1b680f188f" x="57.6" y="83.205801" style="stroke: #000000; stroke-width: 0.8"/>
      </g>
     </g>
     <g id="text_14">
      <!-- 50000 -->
      <g transform="translate(18.7875 87.00502)scale(0.1 -0.1)">
       <defs>
        <path id="DejaVuSans-35" d="M 691 4666 
L 3169 4666 
L 3169 4134 
L 1269 4134 
L 1269 2991 
Q 1406 3038 1543 3061 
Q 1681 3084 1819 3084 
Q 2600 3084 3056 2656 
Q 3513 2228 3513 1497 
Q 3513 744 3044 326 
Q 2575 -91 1722 -91 
Q 1428 -91 1123 -41 
Q 819 9 494 109 
L 494 744 
Q 775 591 1075 516 
Q 1375 441 1709 441 
Q 2250 441 2565 725 
Q 2881 1009 2881 1497 
Q 2881 1984 2565 2268 
Q 2250 2553 1709 2553 
Q 1456 2553 1204 2497 
Q 953 2441 691 2322 
L 691 4666 
z
" transform="scale(0.015625)"/>
       </defs>
       <use xlink:href="#DejaVuSans-35"/>
       <use xlink:href="#DejaVuSans-30" x="63.623047"/>
       <use xlink:href="#DejaVuSans-30" x="127.246094"/>
       <use xlink:href="#DejaVuSans-30" x="190.869141"/>
       <use xlink:href="#DejaVuSans-30" x="254.492188"/>
      </g>
     </g>
    </g>
    <g id="text_15">
     <!-- Latency (ns) -->
     <g transform="translate(12.707812 205.556125)rotate(-90)scale(0.1 -0.1)">
      <defs>
       <path id="DejaVuSans-4c" d="M 628 4666 
L 1259 4666 
L 1259 531 
L 3531 531 
L 3531 0 
L 628 0 
L 628 4666 
z
" transform="scale(0.015625)"/>
       <path id="DejaVuSans-61" d="M 2194 1759 
Q 1497 1759 1228 1600 
Q 959 1441 959 1056 
Q 959 750 1161 570 
Q 1363 391 1709 391 
Q 2188 391 2477 730 
Q 2766 1069 2766 1631 
L 2766 1759 
L 2194 1759 
z
M 3341 1997 
L 3341 0 
L 2766 0 
L 2766 531 
Q 2569 213 2275 61 
Q 1981 -91 1556 -91 
Q 1019 -91 701 211 
Q 384 513 384 1019 
Q 384 1609 779 1909 
Q 1175 2209 1959 2209 
L 2766 2209 
L 2766 2266 
Q 2766 2663 2505 2880 
Q 2244 3097 1772 3097 
Q 1472 3097 1187 3025 
Q 903 2953 641 2809 
L 641 3341 
Q 956 3463 1253 3523 
Q 1550 3584 1831 3584 
Q 2591 3584 2966 3190 
Q 3341 2797 3341 1997 
z
" transform="scale(0.015625)"/>
       <path id="DejaVuSans-74" d="M 1172 4494 
L 1172 3500 
L 2356 3500 
L 2356 3053 
L 1172 3053 
L 1172 1153 
Q 1172 725 1289 603 
Q 1406 481 1766 481 
L 2356 481 
L 2356 0 
L 1766 0 
Q 1100 0 847 248 
Q 594 497 594 1153 
L 594 3053 
L 172 3053 
L 172 3500 
L 594 3500 
L 594 4494 
L 1172 4494 
z
" transform="scale(0.015625)"/>
       <path id="DejaVuSans-63" d="M 3122 3366 
L 3122 2828 
Q 2878 2963 2633 3030 
Q 2388 3097 2138 3097 
Q 1578 3097 1268 2742 
Q 959 2388 959 1747 
Q 959 1106 1268 751 
Q 1578 397 2138 397 
Q 2388 397 2633 464 
Q 2878 531 3122 666 
L 3122 134 
Q 2881 22 2623 -34 
Q 2366 -91 2075 -91 
Q 1284 -91 818 406 
Q 353 903 353 1747 
Q 353 2603 823 3093 
Q 1294 3584 2113 3584 
Q 2378 3584 2631 3529 
Q 2884 3475 3122 3366 
z
" transform="scale(0.015625)"/>
       <path id="DejaVuSans-79" d="M 2059 -325 
Q 1816 -950 1584 -1140 
Q 1353 -1331 966 -1331 
L 506 -1331 
L 506 -850 
L 844 -850 
Q 1081 -850 1212 -737 
Q 1344 -625 1503 -206 
L 1606 56 
L 191 3500 
L 800 3500 
L 1894 763 
L 2988 3500 
L 3597 3500 
L 2059 -325 
z
" transform="scale(0.015625)"/>
      </defs>
      <use xlink:href="#DejaVuSans-4c"/>
      <use xlink:href="#DejaVuSans-61" x="55.712891"/>
      <use xlink:href="#DejaVuSans-74" x="116.992188"/>
      <use xlink:href="#DejaVuSans-65" x="156.201172"/>
      <use xlink:href="#DejaVuSans-6e" x="217.724609"/>
      <use xlink:href="#DejaVuSans-63" x="281.103516"/>
      <use xlink:href="#DejaVuSans-79" x="336.083984"/>
      <use xlink:href="#DejaVuSans-20" x="395.263672"/>
      <use xlink:href="#DejaVuSans-28" x="427.050781"/>
      <use xlink:href="#DejaVuSans-6e" x="466.064453"/>
      <use xlink:href="#DejaVuSans-73" x="529.443359"/>
      <use xlink:href="#DejaVuSans-29" x="581.542969"/>
     </g>
    </g>
   </g>
   <g id="line2d_13">
    <path d="M 73.832727 222.35791 
L 74.157707 291.969683 
L 74.807666 292.402775 
L 75.132645 144.950475 
L 75.457625 285.709937 
L 75.782604 144.530777 
L 76.107584 140.999066 
L 76.432563 142.659997 
L 76.757543 285.442045 
L 77.082523 119.558765 
L 77.407502 112.504272 
L 77.732482 123.64412 
L 78.057461 285.651893 
L 78.382441 125.52383 
L 79.0324 127.39461 
L 79.357379 285.540272 
L 79.682359 116.080632 
L 80.007338 123.929871 
L 80.332318 114.59383 
L 80.657297 285.884067 
L 80.982277 149.960058 
L 81.307256 140.771358 
L 81.632236 149.0269 
L 81.957215 285.509018 
L 82.282195 148.196435 
L 82.607174 149.259074 
L 82.932154 143.59762 
L 83.257133 286.026942 
L 83.582113 292.527792 
L 83.907093 120.139198 
L 84.232072 292.389381 
L 84.557052 285.656358 
L 84.882031 292.884981 
L 85.207011 122.925276 
L 85.53199 292.567976 
L 85.85697 285.58492 
L 86.181949 292.621554 
L 86.506929 289.580978 
L 86.831908 124.237947 
L 87.156888 287.937906 
L 87.481867 284.808033 
L 87.806847 288.647821 
L 88.131826 122.670778 
L 88.456806 287.544998 
L 88.781785 111.01747 
L 89.106765 288.004879 
L 89.431744 286.053732 
L 89.756724 288.370999 
L 90.081704 117.339725 
L 90.406683 123.206563 
L 90.731663 113.892846 
L 91.056642 286.009083 
L 91.381622 107.807229 
L 91.706601 140.717779 
L 92.031581 125.3497 
L 92.35656 285.901926 
L 92.68154 123.117265 
L 93.006519 116.745897 
L 93.331499 126.488241 
L 93.656478 287.250317 
L 93.981458 118.138936 
L 94.306437 126.20249 
L 94.631417 104.190685 
L 94.956396 282.00856 
L 95.281376 113.879451 
L 95.606355 126.903474 
L 95.931335 115.080501 
L 96.256314 286.089451 
L 96.581294 125.876554 
L 96.906274 119.639132 
L 97.231253 123.077081 
L 97.556233 286.076056 
L 97.881212 119.18818 
L 98.206192 117.924623 
L 98.531171 124.367429 
L 98.856151 286.031407 
L 99.18113 126.398944 
L 99.50611 123.045827 
L 99.831089 106.949974 
L 100.156069 286.169818 
L 100.481048 116.884308 
L 100.806028 127.408004 
L 101.131007 115.634145 
L 101.455987 285.92425 
L 101.780966 125.8453 
L 102.105946 117.50939 
L 102.430925 125.921203 
L 102.755905 286.397527 
L 103.080885 124.237947 
L 103.405864 114.808144 
L 103.730844 125.943527 
L 104.055823 285.656358 
L 104.380803 121.496518 
L 105.030762 129.019822 
L 105.355741 281.883544 
L 105.680721 152.09873 
L 106.0057 158.675482 
L 106.33068 292.166137 
L 106.655659 291.599099 
L 106.980639 115.852923 
L 107.305618 117.50046 
L 107.630598 126.814177 
L 107.955577 287.83075 
L 108.280557 156.71987 
L 108.605536 117.487065 
L 108.930516 125.139851 
L 109.255495 286.111775 
L 109.580475 125.831906 
L 109.905455 127.707151 
L 110.230434 105.90966 
L 110.555414 286.138564 
L 110.880393 115.687723 
L 111.205373 286.10731 
L 111.530352 292.335802 
L 111.855332 291.228515 
L 112.180311 292.166137 
L 112.505291 288.125431 
L 112.83027 289.447032 
L 113.15525 285.964434 
L 113.480229 124.82731 
L 114.130188 109.686939 
L 114.455168 285.959969 
L 114.780147 125.849765 
L 115.105127 127.117788 
L 115.430106 105.181886 
L 115.755086 287.835214 
L 116.080066 292.737641 
L 116.405045 286.616305 
L 116.730025 292.670668 
L 117.055004 293.447555 
L 117.379984 291.741975 
L 117.704963 288.545129 
L 118.029943 123.045827 
L 118.354922 285.839418 
L 118.679902 123.403017 
L 119.004881 114.004468 
L 119.329861 148.227689 
L 119.65484 285.692077 
L 119.97982 148.044629 
L 120.304799 145.932746 
L 120.629779 130.461975 
L 120.954758 285.857277 
L 121.279738 292.710851 
L 121.604717 149.656447 
L 121.929697 292.487608 
L 122.254676 285.817094 
L 122.579656 92.452545 
L 122.904636 118.000525 
L 123.229615 292.603695 
L 123.554595 285.884067 
L 123.879574 292.179532 
L 124.204554 115.875248 
L 124.529533 122.518973 
L 124.854513 286.071591 
L 125.179492 125.050554 
L 125.504472 123.202098 
L 125.829451 130.685218 
L 126.154431 286.759181 
L 126.47941 292.228646 
L 126.80439 291.657142 
L 127.129369 148.834911 
L 127.454349 286.009083 
L 127.779328 292.617089 
L 128.104308 291.643748 
L 128.429287 123.094941 
L 128.754267 286.040337 
L 129.079247 292.657273 
L 129.404226 291.947359 
L 129.729206 125.063948 
L 130.054185 285.901926 
L 130.379165 292.420635 
L 130.704144 295.488 
L 131.029124 106.128439 
L 131.354103 285.870672 
L 131.679083 116.205648 
L 132.004062 126.372155 
L 132.329042 111.084443 
L 132.654021 285.60278 
L 132.979001 122.804724 
L 133.30398 154.33563 
L 133.62896 160.331949 
L 133.953939 291.38925 
L 134.278919 292.157208 
L 134.603898 294.081566 
L 134.928878 291.250839 
L 135.253857 294.233372 
L 135.578837 123.13959 
L 135.903817 126.582004 
L 136.228796 108.070657 
L 136.553776 285.852813 
L 136.878755 117.134341 
L 137.203735 119.840051 
L 137.528714 153.255131 
L 137.853694 289.639022 
L 138.178673 159.840813 
L 138.503653 292.264365 
L 138.828632 292.478678 
L 139.153612 291.697326 
L 139.478591 116.611951 
L 139.803571 117.924623 
L 140.12855 124.800521 
L 140.45353 289.844406 
L 140.778509 293.121619 
L 141.103489 126.742739 
L 141.428468 107.289304 
L 141.753448 285.982294 
L 142.078428 117.375444 
L 142.403407 293.001068 
L 142.728387 292.965349 
L 143.053366 286.071591 
L 143.378346 124.278131 
L 143.703325 292.800149 
L 144.028305 292.492073 
L 144.353284 288.612102 
L 144.678264 171.110143 
L 145.003243 290.018535 
L 145.653202 286.29037 
L 145.978182 126.87222 
L 146.303161 123.586077 
L 146.628141 106.485628 
L 146.95312 286.236791 
L 147.2781 292.934095 
L 147.603079 292.157208 
L 147.928059 116.013659 
L 148.253038 286.049267 
L 148.578018 292.648343 
L 148.902998 292.429565 
L 149.227977 286.312694 
L 149.552957 293.251101 
L 149.877936 292.501003 
L 150.202916 292.108094 
L 150.527895 124.376358 
L 150.852875 291.500872 
L 151.177854 293.076971 
L 151.502834 292.679597 
L 151.827813 293.135014 
L 152.152793 285.531342 
L 152.477772 102.569938 
L 152.802752 101.886813 
L 153.127731 92.140004 
L 153.452711 285.665288 
L 153.77769 89.197655 
L 154.10267 106.820493 
L 154.427649 100.498239 
L 154.752629 288.009344 
L 155.077609 292.161673 
L 155.402588 291.112428 
L 156.052547 285.959969 
L 156.377527 105.414059 
L 156.702506 94.028643 
L 157.027486 100.328574 
L 157.352465 285.803699 
L 157.677445 291.706256 
L 158.002424 290.786493 
L 158.327404 115.11622 
L 158.652383 285.357212 
L 158.977363 292.07684 
L 159.302342 291.099034 
L 159.627322 124.796056 
L 159.952301 285.26345 
L 160.277281 291.840202 
L 160.60226 291.116893 
L 160.92724 102.543149 
L 161.252219 285.214336 
L 161.577199 103.061073 
L 161.902179 105.146167 
L 162.227158 101.373353 
L 162.552138 285.692077 
L 162.877117 101.851094 
L 163.527076 95.314526 
L 163.852056 286.044802 
L 164.177035 125.519365 
L 164.826994 129.377012 
L 165.151974 285.727796 
L 165.476953 292.237575 
L 165.801933 291.420504 
L 166.126912 120.90269 
L 166.451892 285.589385 
L 166.776871 291.983078 
L 167.101851 291.04099 
L 167.42683 104.972037 
L 167.75181 283.620378 
L 168.07679 102.395808 
L 168.401769 104.324631 
L 168.726749 95.064493 
L 169.051728 285.834953 
L 169.376708 105.972168 
L 169.701687 97.622863 
L 170.026667 60.943964 
L 170.351646 285.723331 
L 170.676626 292.362592 
L 171.001605 290.822212 
L 171.326585 120.023111 
L 171.651564 285.553666 
L 171.976544 292.215251 
L 172.301523 291.04992 
L 172.626503 128.153638 
L 172.951482 285.08932 
L 173.276462 101.167969 
L 173.601441 292.371521 
L 173.926421 291.308883 
L 174.2514 285.410791 
L 174.57638 106.025747 
L 174.90136 106.012352 
L 175.226339 102.32437 
L 175.551319 285.799234 
L 175.876298 102.619051 
L 176.201278 92.032847 
L 176.526257 103.083398 
L 176.851237 285.522412 
L 177.176216 124.367429 
L 177.501196 130.055672 
L 177.826175 127.546415 
L 178.151155 285.696542 
L 178.476134 103.815636 
L 178.801114 291.91164 
L 179.126093 291.433899 
L 179.451073 285.817094 
L 179.776052 85.43377 
L 180.101032 104.815767 
L 180.426011 100.944726 
L 180.750991 285.446509 
L 181.075971 59.903649 
L 181.40095 92.809734 
L 181.72593 76.754065 
L 182.050909 285.687612 
L 182.375889 102.650306 
L 182.700868 103.958512 
L 183.025848 103.896004 
L 183.350827 285.687612 
L 183.675807 84.60777 
L 184.000786 292.009867 
L 184.325766 291.523196 
L 184.650745 285.464369 
L 184.975725 162.189334 
L 185.300704 116.000264 
L 185.625684 123.233352 
L 185.950663 285.709937 
L 186.275643 102.181494 
L 186.600622 92.300739 
L 186.925602 90.7425 
L 187.250581 285.575991 
L 187.575561 103.958512 
L 187.900541 104.083528 
L 188.22552 105.324762 
L 188.5505 282.803307 
L 188.875479 79.861614 
L 189.200459 94.399228 
L 189.525438 93.613411 
L 189.850418 285.562596 
L 190.175397 127.358891 
L 190.500377 120.661587 
L 190.825356 127.903605 
L 191.150336 285.727796 
L 191.475315 127.975043 
L 191.800295 113.968749 
L 192.125274 124.760337 
L 192.450254 285.446509 
L 192.775233 102.583332 
L 193.100213 292.018797 
L 193.425192 291.250839 
L 193.750172 285.660823 
L 194.075152 100.868823 
L 194.400131 103.074468 
L 194.725111 95.613672 
L 195.05009 284.651763 
L 195.37507 282.222874 
L 195.700049 289.045194 
L 196.025029 100.078541 
L 196.350008 285.879602 
L 196.674988 126.631117 
L 196.999967 118.433618 
L 197.324947 128.488503 
L 197.649926 285.651893 
L 197.974906 126.318576 
L 198.624865 120.014181 
L 198.949844 290.782028 
L 199.274824 288.478156 
L 199.599803 99.265935 
L 199.924783 90.21118 
L 200.249762 285.517947 
L 200.574742 104.105853 
L 200.899722 101.364423 
L 201.224701 102.869084 
L 201.549681 285.486693 
L 201.87466 103.87368 
L 202.19964 97.296928 
L 202.524619 102.721743 
L 202.849599 285.857277 
L 203.174578 128.827833 
L 203.499558 125.483646 
L 203.824537 127.510696 
L 204.149517 285.504553 
L 204.474496 289.348805 
L 204.799476 128.979638 
L 205.124455 128.131313 
L 205.449435 285.575991 
L 205.774414 292.492073 
L 206.099394 291.023131 
L 206.424373 105.329227 
L 206.749353 285.075925 
L 207.074333 103.199484 
L 207.399312 94.265281 
L 207.724292 97.560355 
L 208.049271 285.745656 
L 208.374251 103.458447 
L 208.69923 79.83036 
L 209.02421 105.04794 
L 209.349189 285.910856 
L 209.674169 125.787257 
L 210.324128 129.015357 
L 210.649107 285.727796 
L 210.974087 291.826807 
L 211.299066 129.61365 
L 211.624046 292.291154 
L 211.949025 286.062661 
L 212.274005 102.364554 
L 212.598984 92.354317 
L 212.923964 98.658713 
L 213.248943 285.317028 
L 213.573923 103.922793 
L 213.898903 105.91859 
L 214.223882 100.828639 
L 214.548862 285.634034 
L 214.873841 289.237183 
L 215.198821 105.525681 
L 215.5238 90.822867 
L 215.84878 285.442045 
L 216.173759 291.603564 
L 216.498739 290.987412 
L 216.823718 129.010892 
L 217.148698 285.513483 
L 217.473677 294.751297 
L 217.798657 113.745505 
L 218.123636 125.751538 
L 218.448616 285.575991 
L 218.773595 103.663831 
L 219.098575 105.75339 
L 219.423554 104.355885 
L 219.748534 285.504553 
L 220.073514 80.107182 
L 220.398493 95.716364 
L 220.723473 96.953133 
L 221.048452 285.642964 
L 221.373432 104.096923 
L 221.698411 102.561008 
L 222.023391 104.413929 
L 222.34837 285.562596 
L 222.67335 126.425733 
L 222.998329 118.393434 
L 223.323309 126.974912 
L 223.648288 285.736726 
L 223.973268 119.741824 
L 224.623227 127.90807 
L 224.948206 291.107963 
L 225.273186 288.518339 
L 225.598165 101.909137 
L 225.923145 96.511111 
L 226.248124 284.495492 
L 226.573104 106.704407 
L 227.223063 105.083659 
L 227.548043 284.017751 
L 227.873022 73.012505 
L 228.198002 94.99752 
L 228.522981 105.378341 
L 228.847961 285.665288 
L 229.17294 109.995015 
L 229.49792 128.461714 
L 229.822899 124.300456 
L 230.147879 286.562727 
L 230.472858 125.528295 
L 230.797838 128.452784 
L 231.122817 111.955093 
L 231.447797 285.60278 
L 231.772776 84.147888 
L 232.097756 104.896135 
L 232.422735 97.238884 
L 232.747715 285.24559 
L 233.072695 95.452937 
L 233.397674 94.028643 
L 233.722654 91.546176 
L 234.047633 285.571526 
L 234.372613 289.18807 
L 234.697592 101.386748 
L 235.022572 100.614325 
L 235.347551 285.78584 
L 235.672531 292.179532 
L 235.99751 291.273164 
L 236.32249 115.580566 
L 236.647469 285.955505 
L 236.972449 291.853597 
L 237.297428 291.465153 
L 237.622408 125.162175 
L 237.947387 285.76798 
L 238.272367 98.707826 
L 238.597346 290.572179 
L 238.922326 291.000807 
L 239.247305 285.718867 
L 239.572285 105.708741 
L 239.897265 102.069873 
L 240.222244 100.449125 
L 240.547224 285.75905 
L 240.872203 80.759053 
L 241.197183 103.400404 
L 241.522162 82.20567 
L 241.847142 285.794769 
L 242.172121 291.813413 
L 242.497101 291.174936 
L 242.82208 128.408135 
L 243.14706 285.406326 
L 243.472039 292.000937 
L 243.797019 291.621423 
L 244.121998 122.398421 
L 244.446978 285.647429 
L 244.771957 291.599099 
L 245.096937 291.130288 
L 245.421916 102.208283 
L 245.746896 285.727796 
L 246.071876 101.025093 
L 246.396855 103.33343 
L 246.721835 96.8683 
L 247.046814 285.723331 
L 247.371794 105.172957 
L 247.696773 96.564689 
L 248.021753 106.280244 
L 248.346732 285.299169 
L 248.671712 129.158233 
L 248.996691 113.428499 
L 249.321671 128.180427 
L 249.64665 285.477764 
L 249.97163 236.667815 
L 250.296609 291.898245 
L 250.621589 112.785558 
L 250.946568 282.722939 
L 251.271548 101.069742 
L 251.596527 95.176115 
L 251.921507 168.489265 
L 252.246486 285.129504 
L 252.571466 58.961562 
L 252.896446 103.266457 
L 253.221425 102.154705 
L 253.546405 285.763515 
L 253.871384 102.627981 
L 254.196364 116.692319 
L 254.521343 90.434424 
L 254.846323 285.830488 
L 255.171302 292.326873 
L 255.496282 291.23298 
L 255.821261 127.149042 
L 256.146241 285.509018 
L 256.47122 292.045586 
L 256.7962 291.308883 
L 257.121179 79.727668 
L 257.446159 285.718867 
L 257.771138 292.014332 
L 258.096118 291.143682 
L 258.421097 104.931854 
L 258.746077 285.129504 
L 259.071057 101.261731 
L 259.396036 93.157994 
L 259.721016 104.132642 
L 260.045995 285.794769 
L 260.370975 104.766653 
L 260.695954 102.962846 
L 261.020934 102.587797 
L 261.345913 291.24191 
L 261.670893 288.388858 
L 261.995872 128.707281 
L 262.320852 127.198156 
L 262.645831 285.424185 
L 262.970811 292.175067 
L 263.29579 291.442829 
L 263.62077 129.385941 
L 263.945749 285.455439 
L 264.270729 292.228646 
L 264.595708 291.438364 
L 264.920688 64.12295 
L 265.245667 285.504553 
L 265.570647 77.017492 
L 265.895627 91.644403 
L 266.220606 93.662524 
L 266.545586 285.754585 
L 266.870565 101.105461 
L 267.195545 93.157994 
L 267.520524 96.220894 
L 267.845504 285.660823 
L 268.495463 291.518731 
L 268.820442 126.671301 
L 269.145422 285.558131 
L 269.470401 126.510566 
L 269.795381 115.526988 
L 270.12036 127.153507 
L 270.44534 285.553666 
L 270.770319 292.125954 
L 271.095299 290.866861 
L 271.420278 101.230477 
L 271.745258 288.688004 
L 272.070238 101.346564 
L 272.395217 103.918328 
L 272.720197 92.528447 
L 273.045176 285.723331 
L 273.370156 85.116765 
L 273.695135 105.320297 
L 274.020115 105.967703 
L 274.345094 285.660823 
L 274.670074 127.537486 
L 274.995053 118.268417 
L 275.320033 127.099928 
L 275.645012 285.741191 
L 275.969992 119.531975 
L 276.294971 292.304548 
L 276.619951 291.107963 
L 276.94493 285.919786 
L 277.26991 101.002769 
L 277.594889 97.305857 
L 277.919869 92.314134 
L 278.244848 285.334888 
L 278.569828 69.60581 
L 278.894808 96.493251 
L 279.219787 102.918198 
L 279.544767 285.77691 
L 279.869746 101.386748 
L 280.194726 94.783206 
L 280.519705 102.114521 
L 280.844685 285.901926 
L 281.169664 128.117919 
L 281.494644 126.300717 
L 281.819623 127.528556 
L 282.144603 285.535807 
L 282.469582 292.367057 
L 282.794562 123.340509 
L 283.119541 129.850288 
L 283.444521 285.732261 
L 283.7695 291.688396 
L 284.09448 291.116893 
L 284.419459 97.90415 
L 284.744439 285.75905 
L 285.069419 106.155228 
L 285.394398 94.193844 
L 285.719378 102.020759 
L 286.044357 286.026942 
L 286.369337 105.90073 
L 286.694316 104.619313 
L 287.019296 103.896004 
L 287.344275 291.250839 
L 287.669255 288.312955 
L 287.994234 130.011023 
L 288.319214 127.983973 
L 288.644193 285.450974 
L 288.969173 125.702424 
L 289.294152 126.564144 
L 289.619132 124.193299 
L 289.944111 285.558131 
L 290.269091 99.511503 
L 290.59407 96.756678 
L 290.91905 105.981098 
L 291.244029 285.638499 
L 291.569009 106.387401 
L 291.893989 106.802634 
L 292.218968 101.882348 
L 292.543948 288.777302 
L 292.868927 100.083006 
L 293.193907 105.498892 
L 293.518886 96.261078 
L 293.843866 285.866207 
L 294.168845 119.933814 
L 294.493825 124.144185 
L 294.818804 119.161391 
L 295.143784 284.522282 
L 295.468763 284.633903 
L 295.793743 290.871325 
L 296.118722 292.724246 
L 296.443702 292.228646 
L 296.768681 102.087732 
L 297.093661 101.020628 
L 297.41864 292.335802 
L 297.74362 285.303634 
L 298.0686 59.930438 
L 298.393579 98.305988 
L 298.718559 93.850049 
L 299.043538 285.705472 
L 299.368518 102.873549 
L 299.693497 99.060551 
L 300.018477 63.002268 
L 300.343456 283.620378 
L 300.668436 129.234136 
L 300.993415 113.240975 
L 301.318395 127.858956 
L 301.643374 285.781375 
L 301.968354 291.822343 
L 302.293333 291.291023 
L 302.618313 125.059483 
L 302.943292 285.477764 
L 303.268272 291.884851 
L 303.593251 291.250839 
L 303.918231 94.238492 
L 304.24321 285.459904 
L 304.56819 91.122014 
L 304.89317 88.572573 
L 305.218149 105.22207 
L 305.543129 286.084986 
L 305.868108 97.685371 
L 306.193088 96.850441 
L 306.518067 103.105722 
L 306.843047 285.495623 
L 307.168026 291.822343 
L 307.493006 291.174936 
L 307.817985 126.278393 
L 308.142965 285.901926 
L 308.467944 292.340267 
L 308.792924 291.291023 
L 309.117903 129.765455 
L 309.442883 285.727796 
L 309.767862 106.659758 
L 310.417821 80.205409 
L 310.742801 285.482228 
L 311.067781 104.271053 
L 311.39276 92.073031 
L 311.71774 100.886682 
L 312.042719 285.834953 
L 312.367699 100.779525 
L 312.692678 99.770465 
L 313.017658 101.721613 
L 313.342637 285.736726 
L 313.667617 292.143813 
L 313.992596 291.291023 
L 314.317576 105.503357 
L 314.642555 285.370607 
L 314.967535 292.050051 
L 315.292514 120.268679 
L 315.617494 125.215754 
L 315.942473 285.620639 
L 316.267453 291.925034 
L 316.592432 291.103499 
L 316.917412 102.806576 
L 317.242391 288.067388 
L 317.567371 100.717017 
L 317.892351 92.59542 
L 318.21733 104.945248 
L 318.54231 285.491158 
L 318.867289 102.123451 
L 319.192269 103.016425 
L 319.517248 94.042038 
L 319.842228 285.495623 
L 320.167207 127.466048 
L 320.492187 129.359152 
L 320.817166 128.497432 
L 321.142146 285.526877 
L 321.467125 291.889316 
L 321.792105 291.24191 
L 322.117084 129.756526 
L 322.442064 285.812629 
L 322.767043 291.74644 
L 323.092023 290.969553 
L 323.417002 101.650175 
L 323.741982 290.411444 
L 324.066962 291.393715 
L 324.391941 102.766392 
L 324.716921 95.225228 
L 325.0419 285.504553 
L 325.36688 104.686286 
L 325.691859 104.141572 
L 326.016839 106.266849 
L 326.341818 289.116632 
L 326.666798 292.045586 
L 326.991777 291.39818 
L 327.316757 126.229279 
L 327.641736 285.41972 
L 327.966716 292.264365 
L 328.291695 291.237445 
L 328.616675 126.858826 
L 328.941654 285.392931 
L 329.266634 292.2599 
L 329.591613 291.322277 
L 329.916593 91.782814 
L 330.241572 285.348282 
L 330.566552 89.965613 
L 330.891532 99.94906 
L 331.216511 104.101388 
L 331.541491 285.826023 
L 331.86647 106.668688 
L 332.19145 95.734223 
L 332.516429 99.841903 
L 332.841409 285.866207 
L 333.166388 292.050051 
L 333.491368 291.237445 
L 333.816347 126.555214 
L 334.141327 285.330423 
L 334.466306 291.978613 
L 334.791286 291.24191 
L 335.116265 113.535656 
L 335.441245 286.616305 
L 335.766224 102.744068 
L 336.091204 292.228646 
L 336.416183 291.063315 
L 336.741163 285.26345 
L 337.066143 104.851486 
L 337.391122 97.185306 
L 337.716102 105.869476 
L 338.041081 288.031669 
L 338.366061 101.181364 
L 338.69104 102.400273 
L 339.01602 101.775191 
L 339.340999 285.821558 
L 339.665979 288.893388 
L 339.990958 125.693495 
L 340.315938 292.157208 
L 340.640917 285.442045 
L 340.965897 292.072375 
L 341.290876 129.296644 
L 341.615856 292.313478 
L 341.940835 285.187547 
L 342.265815 106.119509 
L 342.590794 60.095639 
L 342.915774 104.154966 
L 343.240753 285.165223 
L 343.565733 103.87368 
L 343.890713 53.568 
L 344.215692 102.15024 
L 344.540672 285.754585 
L 344.865651 101.949321 
L 345.190631 103.878145 
L 345.51561 86.277631 
L 345.84059 285.339353 
L 346.165569 125.568478 
L 346.490549 292.41617 
L 346.815528 290.826677 
L 347.140508 285.42865 
L 347.465487 129.716342 
L 347.790467 116.138675 
L 348.115446 126.023895 
L 348.440426 285.531342 
L 348.765405 291.925034 
L 349.090385 105.463173 
L 349.415364 292.081305 
L 349.740344 285.183082 
L 350.065324 99.993708 
L 350.390303 100.060681 
L 350.715283 92.381107 
L 351.040262 285.901926 
L 351.365242 88.148411 
L 351.690221 106.874072 
L 352.015201 106.106114 
L 352.34018 285.709937 
L 352.66516 127.850026 
L 352.990139 115.928826 
L 353.315119 114.745636 
L 353.640098 285.294704 
L 353.965078 128.341162 
L 354.290057 126.278393 
L 354.615037 126.331971 
L 354.940016 285.714402 
L 355.264996 80.075928 
L 355.589975 105.306903 
L 355.914955 91.724771 
L 356.239934 285.459904 
L 356.564914 88.108227 
L 356.889894 105.391735 
L 357.214873 104.266588 
L 357.539853 286.013548 
L 357.864832 104.507691 
L 358.189812 96.078018 
L 358.514791 100.583071 
L 358.839771 289.210394 
L 359.16475 127.059745 
L 359.48973 124.144185 
L 359.814709 126.398944 
L 360.139689 285.486693 
L 360.464668 124.813916 
L 360.789648 129.077865 
L 361.114627 104.605918 
L 361.439607 285.61171 
L 361.764586 102.297581 
L 362.089566 291.875921 
L 362.414545 291.139218 
L 362.739525 285.513483 
L 363.064505 104.119247 
L 363.389484 91.389906 
L 363.714464 101.81091 
L 364.039443 285.77691 
L 364.364423 97.993447 
L 364.689402 97.917544 
L 365.014382 83.871066 
L 365.339361 285.361677 
L 365.664341 292.050051 
L 365.98932 291.295488 
L 366.3143 129.08233 
L 366.639279 285.504553 
L 366.964259 292.541186 
L 367.289238 291.826807 
L 367.614218 118.647931 
L 367.939197 285.642964 
L 368.264177 292.041121 
L 368.589156 291.237445 
L 368.914136 92.702577 
L 369.239115 285.294704 
L 369.564095 106.427585 
L 369.889075 95.283272 
L 370.214054 104.396069 
L 370.539034 285.937645 
L 370.864013 102.020759 
L 371.188993 104.373745 
L 371.513972 95.930678 
L 371.838952 285.388466 
L 372.163931 126.041754 
L 372.488911 115.812739 
L 372.81389 128.564406 
L 373.13887 285.227731 
L 373.463849 292.237575 
L 373.788829 291.116893 
L 374.113808 125.220219 
L 374.438788 285.750121 
L 374.763767 105.400665 
L 375.088747 104.887205 
L 375.413726 104.007626 
L 375.738706 285.348282 
L 376.063686 99.511503 
L 376.388665 104.668426 
L 376.713645 96.600408 
L 377.038624 285.500088 
L 377.363604 62.484344 
L 377.688583 103.574533 
L 378.013563 105.043475 
L 378.338542 285.317028 
L 378.663522 126.751669 
L 378.988501 292.134883 
L 379.313481 291.585704 
L 379.63846 284.785709 
L 379.96344 91.997128 
L 380.288419 129.073401 
L 380.613399 86.661609 
L 380.938378 285.415255 
L 381.263358 292.326873 
L 381.588337 291.090104 
L 381.913317 96.707565 
L 382.238296 285.008952 
L 382.563276 102.770857 
L 382.888256 105.55247 
L 383.213235 104.811302 
L 383.538215 285.60278 
L 383.863194 104.949713 
L 384.188174 96.390559 
L 384.513153 103.909399 
L 384.838133 285.361677 
L 385.163112 123.487849 
L 385.488092 127.778589 
L 385.813071 88.594898 
L 386.138051 285.526877 
L 386.46303 124.773732 
L 386.78801 129.122514 
L 387.112989 128.193821 
L 387.437969 285.075925 
L 387.762948 292.228646 
L 388.087928 291.643748 
L 388.412907 106.708871 
L 388.737887 285.870672 
L 389.062867 104.480902 
L 389.387846 90.809473 
L 389.712826 103.065538 
L 390.037805 285.553666 
L 390.362785 101.159039 
L 390.687764 92.95261 
L 391.012744 102.034154 
L 391.337723 285.861742 
L 391.662703 124.921072 
L 391.987682 292.170602 
L 392.312662 291.103499 
L 392.637641 285.544737 
L 392.962621 126.88115 
L 393.2876 292.398311 
L 393.61258 291.094569 
L 393.937559 263.122164 
L 394.262539 99.832973 
L 394.587518 96.377164 
L 394.912498 105.548006 
L 395.237477 284.93305 
L 395.562457 62.180732 
L 395.887437 102.592262 
L 396.212416 104.244264 
L 396.537396 285.78584 
L 396.862375 102.244002 
L 397.187355 98.288128 
L 397.512334 97.439803 
L 397.837314 285.826023 
L 398.162293 292.058981 
L 398.487273 291.433899 
L 398.487273 291.433899 
" clip-path="url(#pab5bad6545)" style="fill: none; stroke: #1f77b4; stroke-width: 1.5; stroke-linecap: square"/>
   </g>
   <g id="patch_3">
    <path d="M 57.6 307.584 
L 57.6 41.472 
" style="fill: none; stroke: #000000; stroke-width: 0.8; stroke-linejoin: miter; stroke-linecap: square"/>
   </g>
   <g id="patch_4">
    <path d="M 414.72 307.584 
L 414.72 41.472 
" style="fill: none; stroke: #000000; stroke-width: 0.8; stroke-linejoin: miter; stroke-linecap: square"/>
   </g>
   <g id="patch_5">
    <path d="M 57.6 307.584 
L 414.72 307.584 
" style="fill: none; stroke: #000000; stroke-width: 0.8; stroke-linejoin: miter; stroke-linecap: square"/>
   </g>
   <g id="patch_6">
    <path d="M 57.6 41.472 
L 414.72 41.472 
" style="fill: none; stroke: #000000; stroke-width: 0.8; stroke-linejoin: miter; stroke-linecap: square"/>
   </g>
   <g id="text_16">
    <!-- Scheduling latency vs. time for: /home/thomas/Desktop/ros2_pendulum_benchmark//2022-08-08_15:56:34/demo/1_stress/fifo/results.csv -->
    <g transform="translate(-176.30625 35.472)scale(0.12 -0.12)">
     <defs>
      <path id="DejaVuSans-53" d="M 3425 4513 
L 3425 3897 
Q 3066 4069 2747 4153 
Q 2428 4238 2131 4238 
Q 1616 4238 1336 4038 
Q 1056 3838 1056 3469 
Q 1056 3159 1242 3001 
Q 1428 2844 1947 2747 
L 2328 2669 
Q 3034 2534 3370 2195 
Q 3706 1856 3706 1288 
Q 3706 609 3251 259 
Q 2797 -91 1919 -91 
Q 1588 -91 1214 -16 
Q 841 59 441 206 
L 441 856 
Q 825 641 1194 531 
Q 1563 422 1919 422 
Q 2459 422 2753 634 
Q 3047 847 3047 1241 
Q 3047 1584 2836 1778 
Q 2625 1972 2144 2069 
L 1759 2144 
Q 1053 2284 737 2584 
Q 422 2884 422 3419 
Q 422 4038 858 4394 
Q 1294 4750 2059 4750 
Q 2388 4750 2728 4690 
Q 3069 4631 3425 4513 
z
" transform="scale(0.015625)"/>
      <path id="DejaVuSans-68" d="M 3513 2113 
L 3513 0 
L 2938 0 
L 2938 2094 
Q 2938 2591 2744 2837 
Q 2550 3084 2163 3084 
Q 1697 3084 1428 2787 
Q 1159 2491 1159 1978 
L 1159 0 
L 581 0 
L 581 4863 
L 1159 4863 
L 1159 2956 
Q 1366 3272 1645 3428 
Q 1925 3584 2291 3584 
Q 2894 3584 3203 3211 
Q 3513 2838 3513 2113 
z
" transform="scale(0.015625)"/>
      <path id="DejaVuSans-64" d="M 2906 2969 
L 2906 4863 
L 3481 4863 
L 3481 0 
L 2906 0 
L 2906 525 
Q 2725 213 2448 61 
Q 2172 -91 1784 -91 
Q 1150 -91 751 415 
Q 353 922 353 1747 
Q 353 2572 751 3078 
Q 1150 3584 1784 3584 
Q 2172 3584 2448 3432 
Q 2725 3281 2906 2969 
z
M 947 1747 
Q 947 1113 1208 752 
Q 1469 391 1925 391 
Q 2381 391 2643 752 
Q 2906 1113 2906 1747 
Q 2906 2381 2643 2742 
Q 2381 3103 1925 3103 
Q 1469 3103 1208 2742 
Q 947 2381 947 1747 
z
" transform="scale(0.015625)"/>
      <path id="DejaVuSans-75" d="M 544 1381 
L 544 3500 
L 1119 3500 
L 1119 1403 
Q 1119 906 1312 657 
Q 1506 409 1894 409 
Q 2359 409 2629 706 
Q 2900 1003 2900 1516 
L 2900 3500 
L 3475 3500 
L 3475 0 
L 2900 0 
L 2900 538 
Q 2691 219 2414 64 
Q 2138 -91 1772 -91 
Q 1169 -91 856 284 
Q 544 659 544 1381 
z
M 1991 3584 
L 1991 3584 
z
" transform="scale(0.015625)"/>
      <path id="DejaVuSans-6c" d="M 603 4863 
L 1178 4863 
L 1178 0 
L 603 0 
L 603 4863 
z
" transform="scale(0.015625)"/>
      <path id="DejaVuSans-67" d="M 2906 1791 
Q 2906 2416 2648 2759 
Q 2391 3103 1925 3103 
Q 1463 3103 1205 2759 
Q 947 2416 947 1791 
Q 947 1169 1205 825 
Q 1463 481 1925 481 
Q 2391 481 2648 825 
Q 2906 1169 2906 1791 
z
M 3481 434 
Q 3481 -459 3084 -895 
Q 2688 -1331 1869 -1331 
Q 1566 -1331 1297 -1286 
Q 1028 -1241 775 -1147 
L 775 -588 
Q 1028 -725 1275 -790 
Q 1522 -856 1778 -856 
Q 2344 -856 2625 -561 
Q 2906 -266 2906 331 
L 2906 616 
Q 2728 306 2450 153 
Q 2172 0 1784 0 
Q 1141 0 747 490 
Q 353 981 353 1791 
Q 353 2603 747 3093 
Q 1141 3584 1784 3584 
Q 2172 3584 2450 3431 
Q 2728 3278 2906 2969 
L 2906 3500 
L 3481 3500 
L 3481 434 
z
" transform="scale(0.015625)"/>
      <path id="DejaVuSans-76" d="M 191 3500 
L 800 3500 
L 1894 563 
L 2988 3500 
L 3597 3500 
L 2284 0 
L 1503 0 
L 191 3500 
z
" transform="scale(0.015625)"/>
      <path id="DejaVuSans-66" d="M 2375 4863 
L 2375 4384 
L 1825 4384 
Q 1516 4384 1395 4259 
Q 1275 4134 1275 3809 
L 1275 3500 
L 2222 3500 
L 2222 3053 
L 1275 3053 
L 1275 0 
L 697 0 
L 697 3053 
L 147 3053 
L 147 3500 
L 697 3500 
L 697 3744 
Q 697 4328 969 4595 
Q 1241 4863 1831 4863 
L 2375 4863 
z
" transform="scale(0.015625)"/>
      <path id="DejaVuSans-6f" d="M 1959 3097 
Q 1497 3097 1228 2736 
Q 959 2375 959 1747 
Q 959 1119 1226 758 
Q 1494 397 1959 397 
Q 2419 397 2687 759 
Q 2956 1122 2956 1747 
Q 2956 2369 2687 2733 
Q 2419 3097 1959 3097 
z
M 1959 3584 
Q 2709 3584 3137 3096 
Q 3566 2609 3566 1747 
Q 3566 888 3137 398 
Q 2709 -91 1959 -91 
Q 1206 -91 779 398 
Q 353 888 353 1747 
Q 353 2609 779 3096 
Q 1206 3584 1959 3584 
z
" transform="scale(0.015625)"/>
      <path id="DejaVuSans-72" d="M 2631 2963 
Q 2534 3019 2420 3045 
Q 2306 3072 2169 3072 
Q 1681 3072 1420 2755 
Q 1159 2438 1159 1844 
L 1159 0 
L 581 0 
L 581 3500 
L 1159 3500 
L 1159 2956 
Q 1341 3275 1631 3429 
Q 1922 3584 2338 3584 
Q 2397 3584 2469 3576 
Q 2541 3569 2628 3553 
L 2631 2963 
z
" transform="scale(0.015625)"/>
      <path id="DejaVuSans-3a" d="M 750 794 
L 1409 794 
L 1409 0 
L 750 0 
L 750 794 
z
M 750 3309 
L 1409 3309 
L 1409 2516 
L 750 2516 
L 750 3309 
z
" transform="scale(0.015625)"/>
      <path id="DejaVuSans-2f" d="M 1625 4666 
L 2156 4666 
L 531 -594 
L 0 -594 
L 1625 4666 
z
" transform="scale(0.015625)"/>
      <path id="DejaVuSans-44" d="M 1259 4147 
L 1259 519 
L 2022 519 
Q 2988 519 3436 956 
Q 3884 1394 3884 2338 
Q 3884 3275 3436 3711 
Q 2988 4147 2022 4147 
L 1259 4147 
z
M 628 4666 
L 1925 4666 
Q 3281 4666 3915 4102 
Q 4550 3538 4550 2338 
Q 4550 1131 3912 565 
Q 3275 0 1925 0 
L 628 0 
L 628 4666 
z
" transform="scale(0.015625)"/>
      <path id="DejaVuSans-6b" d="M 581 4863 
L 1159 4863 
L 1159 1991 
L 2875 3500 
L 3609 3500 
L 1753 1863 
L 3688 0 
L 2938 0 
L 1159 1709 
L 1159 0 
L 581 0 
L 581 4863 
z
" transform="scale(0.015625)"/>
      <path id="DejaVuSans-70" d="M 1159 525 
L 1159 -1331 
L 581 -1331 
L 581 3500 
L 1159 3500 
L 1159 2969 
Q 1341 3281 1617 3432 
Q 1894 3584 2278 3584 
Q 2916 3584 3314 3078 
Q 3713 2572 3713 1747 
Q 3713 922 3314 415 
Q 2916 -91 2278 -91 
Q 1894 -91 1617 61 
Q 1341 213 1159 525 
z
M 3116 1747 
Q 3116 2381 2855 2742 
Q 2594 3103 2138 3103 
Q 1681 3103 1420 2742 
Q 1159 2381 1159 1747 
Q 1159 1113 1420 752 
Q 1681 391 2138 391 
Q 2594 391 2855 752 
Q 3116 1113 3116 1747 
z
" transform="scale(0.015625)"/>
      <path id="DejaVuSans-5f" d="M 3263 -1063 
L 3263 -1509 
L -63 -1509 
L -63 -1063 
L 3263 -1063 
z
" transform="scale(0.015625)"/>
      <path id="DejaVuSans-62" d="M 3116 1747 
Q 3116 2381 2855 2742 
Q 2594 3103 2138 3103 
Q 1681 3103 1420 2742 
Q 1159 2381 1159 1747 
Q 1159 1113 1420 752 
Q 1681 391 2138 391 
Q 2594 391 2855 752 
Q 3116 1113 3116 1747 
z
M 1159 2969 
Q 1341 3281 1617 3432 
Q 1894 3584 2278 3584 
Q 2916 3584 3314 3078 
Q 3713 2572 3713 1747 
Q 3713 922 3314 415 
Q 2916 -91 2278 -91 
Q 1894 -91 1617 61 
Q 1341 213 1159 525 
L 1159 0 
L 581 0 
L 581 4863 
L 1159 4863 
L 1159 2969 
z
" transform="scale(0.015625)"/>
      <path id="DejaVuSans-2d" d="M 313 2009 
L 1997 2009 
L 1997 1497 
L 313 1497 
L 313 2009 
z
" transform="scale(0.015625)"/>
     </defs>
     <use xlink:href="#DejaVuSans-53"/>
     <use xlink:href="#DejaVuSans-63" x="63.476562"/>
     <use xlink:href="#DejaVuSans-68" x="118.457031"/>
     <use xlink:href="#DejaVuSans-65" x="181.835938"/>
     <use xlink:href="#DejaVuSans-64" x="243.359375"/>
     <use xlink:href="#DejaVuSans-75" x="306.835938"/>
     <use xlink:href="#DejaVuSans-6c" x="370.214844"/>
     <use xlink:href="#DejaVuSans-69" x="397.998047"/>
     <use xlink:href="#DejaVuSans-6e" x="425.78125"/>
     <use xlink:href="#DejaVuSans-67" x="489.160156"/>
     <use xlink:href="#DejaVuSans-20" x="552.636719"/>
     <use xlink:href="#DejaVuSans-6c" x="584.423828"/>
     <use xlink:href="#DejaVuSans-61" x="612.207031"/>
     <use xlink:href="#DejaVuSans-74" x="673.486328"/>
     <use xlink:href="#DejaVuSans-65" x="712.695312"/>
     <use xlink:href="#DejaVuSans-6e" x="774.21875"/>
     <use xlink:href="#DejaVuSans-63" x="837.597656"/>
     <use xlink:href="#DejaVuSans-79" x="892.578125"/>
     <use xlink:href="#DejaVuSans-20" x="951.757812"/>
     <use xlink:href="#DejaVuSans-76" x="983.544922"/>
     <use xlink:href="#DejaVuSans-73" x="1042.724609"/>
     <use xlink:href="#DejaVuSans-2e" x="1094.824219"/>
     <use xlink:href="#DejaVuSans-20" x="1126.611328"/>
     <use xlink:href="#DejaVuSans-74" x="1158.398438"/>
     <use xlink:href="#DejaVuSans-69" x="1197.607422"/>
     <use xlink:href="#DejaVuSans-6d" x="1225.390625"/>
     <use xlink:href="#DejaVuSans-65" x="1322.802734"/>
     <use xlink:href="#DejaVuSans-20" x="1384.326172"/>
     <use xlink:href="#DejaVuSans-66" x="1416.113281"/>
     <use xlink:href="#DejaVuSans-6f" x="1451.318359"/>
     <use xlink:href="#DejaVuSans-72" x="1512.5"/>
     <use xlink:href="#DejaVuSans-3a" x="1551.863281"/>
     <use xlink:href="#DejaVuSans-20" x="1585.554688"/>
     <use xlink:href="#DejaVuSans-2f" x="1617.341797"/>
     <use xlink:href="#DejaVuSans-68" x="1651.033203"/>
     <use xlink:href="#DejaVuSans-6f" x="1714.412109"/>
     <use xlink:href="#DejaVuSans-6d" x="1775.59375"/>
     <use xlink:href="#DejaVuSans-65" x="1873.005859"/>
     <use xlink:href="#DejaVuSans-2f" x="1934.529297"/>
     <use xlink:href="#DejaVuSans-74" x="1968.220703"/>
     <use xlink:href="#DejaVuSans-68" x="2007.429688"/>
     <use xlink:href="#DejaVuSans-6f" x="2070.808594"/>
     <use xlink:href="#DejaVuSans-6d" x="2131.990234"/>
     <use xlink:href="#DejaVuSans-61" x="2229.402344"/>
     <use xlink:href="#DejaVuSans-73" x="2290.681641"/>
     <use xlink:href="#DejaVuSans-2f" x="2342.78125"/>
     <use xlink:href="#DejaVuSans-44" x="2376.472656"/>
     <use xlink:href="#DejaVuSans-65" x="2453.474609"/>
     <use xlink:href="#DejaVuSans-73" x="2514.998047"/>
     <use xlink:href="#DejaVuSans-6b" x="2567.097656"/>
     <use xlink:href="#DejaVuSans-74" x="2625.007812"/>
     <use xlink:href="#DejaVuSans-6f" x="2664.216797"/>
     <use xlink:href="#DejaVuSans-70" x="2725.398438"/>
     <use xlink:href="#DejaVuSans-2f" x="2788.875"/>
     <use xlink:href="#DejaVuSans-72" x="2822.566406"/>
     <use xlink:href="#DejaVuSans-6f" x="2861.429688"/>
     <use xlink:href="#DejaVuSans-73" x="2922.611328"/>
     <use xlink:href="#DejaVuSans-32" x="2974.710938"/>
     <use xlink:href="#DejaVuSans-5f" x="3038.333984"/>
     <use xlink:href="#DejaVuSans-70" x="3088.333984"/>
     <use xlink:href="#DejaVuSans-65" x="3151.810547"/>
     <use xlink:href="#DejaVuSans-6e" x="3213.333984"/>
     <use xlink:href="#DejaVuSans-64" x="3276.712891"/>
     <use xlink:href="#DejaVuSans-75" x="3340.189453"/>
     <use xlink:href="#DejaVuSans-6c" x="3403.568359"/>
     <use xlink:href="#DejaVuSans-75" x="3431.351562"/>
     <use xlink:href="#DejaVuSans-6d" x="3494.730469"/>
     <use xlink:href="#DejaVuSans-5f" x="3592.142578"/>
     <use xlink:href="#DejaVuSans-62" x="3642.142578"/>
     <use xlink:href="#DejaVuSans-65" x="3705.619141"/>
     <use xlink:href="#DejaVuSans-6e" x="3767.142578"/>
     <use xlink:href="#DejaVuSans-63" x="3830.521484"/>
     <use xlink:href="#DejaVuSans-68" x="3885.501953"/>
     <use xlink:href="#DejaVuSans-6d" x="3948.880859"/>
     <use xlink:href="#DejaVuSans-61" x="4046.292969"/>
     <use xlink:href="#DejaVuSans-72" x="4107.572266"/>
     <use xlink:href="#DejaVuSans-6b" x="4148.685547"/>
     <use xlink:href="#DejaVuSans-2f" x="4206.595703"/>
     <use xlink:href="#DejaVuSans-2f" x="4240.287109"/>
     <use xlink:href="#DejaVuSans-32" x="4273.978516"/>
     <use xlink:href="#DejaVuSans-30" x="4337.601562"/>
     <use xlink:href="#DejaVuSans-32" x="4401.224609"/>
     <use xlink:href="#DejaVuSans-32" x="4464.847656"/>
     <use xlink:href="#DejaVuSans-2d" x="4528.470703"/>
     <use xlink:href="#DejaVuSans-30" x="4564.554688"/>
     <use xlink:href="#DejaVuSans-38" x="4628.177734"/>
     <use xlink:href="#DejaVuSans-2d" x="4691.800781"/>
     <use xlink:href="#DejaVuSans-30" x="4727.884766"/>
     <use xlink:href="#DejaVuSans-38" x="4791.507812"/>
     <use xlink:href="#DejaVuSans-5f" x="4855.130859"/>
     <use xlink:href="#DejaVuSans-31" x="4905.130859"/>
     <use xlink:href="#DejaVuSans-35" x="4968.753906"/>
     <use xlink:href="#DejaVuSans-3a" x="5032.376953"/>
     <use xlink:href="#DejaVuSans-35" x="5066.068359"/>
     <use xlink:href="#DejaVuSans-36" x="5129.691406"/>
     <use xlink:href="#DejaVuSans-3a" x="5193.314453"/>
     <use xlink:href="#DejaVuSans-33" x="5227.005859"/>
     <use xlink:href="#DejaVuSans-34" x="5290.628906"/>
     <use xlink:href="#DejaVuSans-2f" x="5354.251953"/>
     <use xlink:href="#DejaVuSans-64" x="5387.943359"/>
     <use xlink:href="#DejaVuSans-65" x="5451.419922"/>
     <use xlink:href="#DejaVuSans-6d" x="5512.943359"/>
     <use xlink:href="#DejaVuSans-6f" x="5610.355469"/>
     <use xlink:href="#DejaVuSans-2f" x="5671.537109"/>
     <use xlink:href="#DejaVuSans-31" x="5705.228516"/>
     <use xlink:href="#DejaVuSans-5f" x="5768.851562"/>
     <use xlink:href="#DejaVuSans-73" x="5818.851562"/>
     <use xlink:href="#DejaVuSans-74" x="5870.951172"/>
     <use xlink:href="#DejaVuSans-72" x="5910.160156"/>
     <use xlink:href="#DejaVuSans-65" x="5949.023438"/>
     <use xlink:href="#DejaVuSans-73" x="6010.546875"/>
     <use xlink:href="#DejaVuSans-73" x="6062.646484"/>
     <use xlink:href="#DejaVuSans-2f" x="6114.746094"/>
     <use xlink:href="#DejaVuSans-66" x="6148.4375"/>
     <use xlink:href="#DejaVuSans-69" x="6183.642578"/>
     <use xlink:href="#DejaVuSans-66" x="6211.425781"/>
     <use xlink:href="#DejaVuSans-6f" x="6246.630859"/>
     <use xlink:href="#DejaVuSans-2f" x="6307.8125"/>
     <use xlink:href="#DejaVuSans-72" x="6341.503906"/>
     <use xlink:href="#DejaVuSans-65" x="6380.367188"/>
     <use xlink:href="#DejaVuSans-73" x="6441.890625"/>
     <use xlink:href="#DejaVuSans-75" x="6493.990234"/>
     <use xlink:href="#DejaVuSans-6c" x="6557.369141"/>
     <use xlink:href="#DejaVuSans-74" x="6585.152344"/>
     <use xlink:href="#DejaVuSans-73" x="6624.361328"/>
     <use xlink:href="#DejaVuSans-2e" x="6676.460938"/>
     <use xlink:href="#DejaVuSans-63" x="6708.248047"/>
     <use xlink:href="#DejaVuSans-73" x="6763.228516"/>
     <use xlink:href="#DejaVuSans-76" x="6815.328125"/>
    </g>
   </g>
  </g>
 </g>
 <defs>
  <clipPath id="pab5bad6545">
   <rect x="57.6" y="41.472" width="357.12" height="266.112"/>
  </clipPath>
 </defs>
</svg>
