<?xml version="1.0" encoding="utf-8" standalone="no"?>
<!DOCTYPE svg PUBLIC "-//W3C//DTD SVG 1.1//EN"
  "http://www.w3.org/Graphics/SVG/1.1/DTD/svg11.dtd">
<svg xmlns:xlink="http://www.w3.org/1999/xlink" width="460.8pt" height="345.6pt" viewBox="0 0 460.8 345.6" xmlns="http://www.w3.org/2000/svg" version="1.1">
 <metadata>
  <rdf:RDF xmlns:dc="http://purl.org/dc/elements/1.1/" xmlns:cc="http://creativecommons.org/ns#" xmlns:rdf="http://www.w3.org/1999/02/22-rdf-syntax-ns#">
   <cc:Work>
    <dc:type rdf:resource="http://purl.org/dc/dcmitype/StillImage"/>
    <dc:date>2022-08-08T15:57:39.307197</dc:date>
    <dc:format>image/svg+xml</dc:format>
    <dc:creator>
     <cc:Agent>
      <dc:title>Matplotlib v3.5.1, https://matplotlib.org/</dc:title>
     </cc:Agent>
    </dc:creator>
   </cc:Work>
  </rdf:RDF>
 </metadata>
 <defs>
  <style type="text/css">*{stroke-linejoin: round; stroke-linecap: butt}</style>
 </defs>
 <g id="figure_1">
  <g id="patch_1">
   <path d="M 0 345.6 
L 460.8 345.6 
L 460.8 0 
L 0 0 
z
" style="fill: #ffffff"/>
  </g>
  <g id="axes_1">
   <g id="patch_2">
    <path d="M 57.6 307.584 
L 414.72 307.584 
L 414.72 41.472 
L 57.6 41.472 
z
" style="fill: #ffffff"/>
   </g>
   <g id="matplotlib.axis_1">
    <g id="xtick_1">
     <g id="line2d_1">
      <defs>
       <path id="m26dd1a7492" d="M 0 0 
L 0 3.5 
" style="stroke: #000000; stroke-width: 0.8"/>
      </defs>
      <g>
       <use xlink:href="#m26dd1a7492" x="73.832727" y="307.584" style="stroke: #000000; stroke-width: 0.8"/>
      </g>
     </g>
     <g id="text_1">
      <!-- 0.0 -->
      <g transform="translate(65.881165 322.182437)scale(0.1 -0.1)">
       <defs>
        <path id="DejaVuSans-30" d="M 2034 4250 
Q 1547 4250 1301 3770 
Q 1056 3291 1056 2328 
Q 1056 1369 1301 889 
Q 1547 409 2034 409 
Q 2525 409 2770 889 
Q 3016 1369 3016 2328 
Q 3016 3291 2770 3770 
Q 2525 4250 2034 4250 
z
M 2034 4750 
Q 2819 4750 3233 4129 
Q 3647 3509 3647 2328 
Q 3647 1150 3233 529 
Q 2819 -91 2034 -91 
Q 1250 -91 836 529 
Q 422 1150 422 2328 
Q 422 3509 836 4129 
Q 1250 4750 2034 4750 
z
" transform="scale(0.015625)"/>
        <path id="DejaVuSans-2e" d="M 684 794 
L 1344 794 
L 1344 0 
L 684 0 
L 684 794 
z
" transform="scale(0.015625)"/>
       </defs>
       <use xlink:href="#DejaVuSans-30"/>
       <use xlink:href="#DejaVuSans-2e" x="63.623047"/>
       <use xlink:href="#DejaVuSans-30" x="95.410156"/>
      </g>
     </g>
    </g>
    <g id="xtick_2">
     <g id="line2d_2">
      <g>
       <use xlink:href="#m26dd1a7492" x="138.828632" y="307.584" style="stroke: #000000; stroke-width: 0.8"/>
      </g>
     </g>
     <g id="text_2">
      <!-- 0.2 -->
      <g transform="translate(130.87707 322.182437)scale(0.1 -0.1)">
       <defs>
        <path id="DejaVuSans-32" d="M 1228 531 
L 3431 531 
L 3431 0 
L 469 0 
L 469 531 
Q 828 903 1448 1529 
Q 2069 2156 2228 2338 
Q 2531 2678 2651 2914 
Q 2772 3150 2772 3378 
Q 2772 3750 2511 3984 
Q 2250 4219 1831 4219 
Q 1534 4219 1204 4116 
Q 875 4013 500 3803 
L 500 4441 
Q 881 4594 1212 4672 
Q 1544 4750 1819 4750 
Q 2544 4750 2975 4387 
Q 3406 4025 3406 3419 
Q 3406 3131 3298 2873 
Q 3191 2616 2906 2266 
Q 2828 2175 2409 1742 
Q 1991 1309 1228 531 
z
" transform="scale(0.015625)"/>
       </defs>
       <use xlink:href="#DejaVuSans-30"/>
       <use xlink:href="#DejaVuSans-2e" x="63.623047"/>
       <use xlink:href="#DejaVuSans-32" x="95.410156"/>
      </g>
     </g>
    </g>
    <g id="xtick_3">
     <g id="line2d_3">
      <g>
       <use xlink:href="#m26dd1a7492" x="203.824537" y="307.584" style="stroke: #000000; stroke-width: 0.8"/>
      </g>
     </g>
     <g id="text_3">
      <!-- 0.4 -->
      <g transform="translate(195.872975 322.182437)scale(0.1 -0.1)">
       <defs>
        <path id="DejaVuSans-34" d="M 2419 4116 
L 825 1625 
L 2419 1625 
L 2419 4116 
z
M 2253 4666 
L 3047 4666 
L 3047 1625 
L 3713 1625 
L 3713 1100 
L 3047 1100 
L 3047 0 
L 2419 0 
L 2419 1100 
L 313 1100 
L 313 1709 
L 2253 4666 
z
" transform="scale(0.015625)"/>
       </defs>
       <use xlink:href="#DejaVuSans-30"/>
       <use xlink:href="#DejaVuSans-2e" x="63.623047"/>
       <use xlink:href="#DejaVuSans-34" x="95.410156"/>
      </g>
     </g>
    </g>
    <g id="xtick_4">
     <g id="line2d_4">
      <g>
       <use xlink:href="#m26dd1a7492" x="268.820442" y="307.584" style="stroke: #000000; stroke-width: 0.8"/>
      </g>
     </g>
     <g id="text_4">
      <!-- 0.6 -->
      <g transform="translate(260.86888 322.182437)scale(0.1 -0.1)">
       <defs>
        <path id="DejaVuSans-36" d="M 2113 2584 
Q 1688 2584 1439 2293 
Q 1191 2003 1191 1497 
Q 1191 994 1439 701 
Q 1688 409 2113 409 
Q 2538 409 2786 701 
Q 3034 994 3034 1497 
Q 3034 2003 2786 2293 
Q 2538 2584 2113 2584 
z
M 3366 4563 
L 3366 3988 
Q 3128 4100 2886 4159 
Q 2644 4219 2406 4219 
Q 1781 4219 1451 3797 
Q 1122 3375 1075 2522 
Q 1259 2794 1537 2939 
Q 1816 3084 2150 3084 
Q 2853 3084 3261 2657 
Q 3669 2231 3669 1497 
Q 3669 778 3244 343 
Q 2819 -91 2113 -91 
Q 1303 -91 875 529 
Q 447 1150 447 2328 
Q 447 3434 972 4092 
Q 1497 4750 2381 4750 
Q 2619 4750 2861 4703 
Q 3103 4656 3366 4563 
z
" transform="scale(0.015625)"/>
       </defs>
       <use xlink:href="#DejaVuSans-30"/>
       <use xlink:href="#DejaVuSans-2e" x="63.623047"/>
       <use xlink:href="#DejaVuSans-36" x="95.410156"/>
      </g>
     </g>
    </g>
    <g id="xtick_5">
     <g id="line2d_5">
      <g>
       <use xlink:href="#m26dd1a7492" x="333.816347" y="307.584" style="stroke: #000000; stroke-width: 0.8"/>
      </g>
     </g>
     <g id="text_5">
      <!-- 0.8 -->
      <g transform="translate(325.864785 322.182437)scale(0.1 -0.1)">
       <defs>
        <path id="DejaVuSans-38" d="M 2034 2216 
Q 1584 2216 1326 1975 
Q 1069 1734 1069 1313 
Q 1069 891 1326 650 
Q 1584 409 2034 409 
Q 2484 409 2743 651 
Q 3003 894 3003 1313 
Q 3003 1734 2745 1975 
Q 2488 2216 2034 2216 
z
M 1403 2484 
Q 997 2584 770 2862 
Q 544 3141 544 3541 
Q 544 4100 942 4425 
Q 1341 4750 2034 4750 
Q 2731 4750 3128 4425 
Q 3525 4100 3525 3541 
Q 3525 3141 3298 2862 
Q 3072 2584 2669 2484 
Q 3125 2378 3379 2068 
Q 3634 1759 3634 1313 
Q 3634 634 3220 271 
Q 2806 -91 2034 -91 
Q 1263 -91 848 271 
Q 434 634 434 1313 
Q 434 1759 690 2068 
Q 947 2378 1403 2484 
z
M 1172 3481 
Q 1172 3119 1398 2916 
Q 1625 2713 2034 2713 
Q 2441 2713 2670 2916 
Q 2900 3119 2900 3481 
Q 2900 3844 2670 4047 
Q 2441 4250 2034 4250 
Q 1625 4250 1398 4047 
Q 1172 3844 1172 3481 
z
" transform="scale(0.015625)"/>
       </defs>
       <use xlink:href="#DejaVuSans-30"/>
       <use xlink:href="#DejaVuSans-2e" x="63.623047"/>
       <use xlink:href="#DejaVuSans-38" x="95.410156"/>
      </g>
     </g>
    </g>
    <g id="xtick_6">
     <g id="line2d_6">
      <g>
       <use xlink:href="#m26dd1a7492" x="398.812252" y="307.584" style="stroke: #000000; stroke-width: 0.8"/>
      </g>
     </g>
     <g id="text_6">
      <!-- 1.0 -->
      <g transform="translate(390.86069 322.182437)scale(0.1 -0.1)">
       <defs>
        <path id="DejaVuSans-31" d="M 794 531 
L 1825 531 
L 1825 4091 
L 703 3866 
L 703 4441 
L 1819 4666 
L 2450 4666 
L 2450 531 
L 3481 531 
L 3481 0 
L 794 0 
L 794 531 
z
" transform="scale(0.015625)"/>
       </defs>
       <use xlink:href="#DejaVuSans-31"/>
       <use xlink:href="#DejaVuSans-2e" x="63.623047"/>
       <use xlink:href="#DejaVuSans-30" x="95.410156"/>
      </g>
     </g>
    </g>
    <g id="text_7">
     <!-- Time (ns) -->
     <g transform="translate(212.662344 335.860562)scale(0.1 -0.1)">
      <defs>
       <path id="DejaVuSans-54" d="M -19 4666 
L 3928 4666 
L 3928 4134 
L 2272 4134 
L 2272 0 
L 1638 0 
L 1638 4134 
L -19 4134 
L -19 4666 
z
" transform="scale(0.015625)"/>
       <path id="DejaVuSans-69" d="M 603 3500 
L 1178 3500 
L 1178 0 
L 603 0 
L 603 3500 
z
M 603 4863 
L 1178 4863 
L 1178 4134 
L 603 4134 
L 603 4863 
z
" transform="scale(0.015625)"/>
       <path id="DejaVuSans-6d" d="M 3328 2828 
Q 3544 3216 3844 3400 
Q 4144 3584 4550 3584 
Q 5097 3584 5394 3201 
Q 5691 2819 5691 2113 
L 5691 0 
L 5113 0 
L 5113 2094 
Q 5113 2597 4934 2840 
Q 4756 3084 4391 3084 
Q 3944 3084 3684 2787 
Q 3425 2491 3425 1978 
L 3425 0 
L 2847 0 
L 2847 2094 
Q 2847 2600 2669 2842 
Q 2491 3084 2119 3084 
Q 1678 3084 1418 2786 
Q 1159 2488 1159 1978 
L 1159 0 
L 581 0 
L 581 3500 
L 1159 3500 
L 1159 2956 
Q 1356 3278 1631 3431 
Q 1906 3584 2284 3584 
Q 2666 3584 2933 3390 
Q 3200 3197 3328 2828 
z
" transform="scale(0.015625)"/>
       <path id="DejaVuSans-65" d="M 3597 1894 
L 3597 1613 
L 953 1613 
Q 991 1019 1311 708 
Q 1631 397 2203 397 
Q 2534 397 2845 478 
Q 3156 559 3463 722 
L 3463 178 
Q 3153 47 2828 -22 
Q 2503 -91 2169 -91 
Q 1331 -91 842 396 
Q 353 884 353 1716 
Q 353 2575 817 3079 
Q 1281 3584 2069 3584 
Q 2775 3584 3186 3129 
Q 3597 2675 3597 1894 
z
M 3022 2063 
Q 3016 2534 2758 2815 
Q 2500 3097 2075 3097 
Q 1594 3097 1305 2825 
Q 1016 2553 972 2059 
L 3022 2063 
z
" transform="scale(0.015625)"/>
       <path id="DejaVuSans-20" transform="scale(0.015625)"/>
       <path id="DejaVuSans-28" d="M 1984 4856 
Q 1566 4138 1362 3434 
Q 1159 2731 1159 2009 
Q 1159 1288 1364 580 
Q 1569 -128 1984 -844 
L 1484 -844 
Q 1016 -109 783 600 
Q 550 1309 550 2009 
Q 550 2706 781 3412 
Q 1013 4119 1484 4856 
L 1984 4856 
z
" transform="scale(0.015625)"/>
       <path id="DejaVuSans-6e" d="M 3513 2113 
L 3513 0 
L 2938 0 
L 2938 2094 
Q 2938 2591 2744 2837 
Q 2550 3084 2163 3084 
Q 1697 3084 1428 2787 
Q 1159 2491 1159 1978 
L 1159 0 
L 581 0 
L 581 3500 
L 1159 3500 
L 1159 2956 
Q 1366 3272 1645 3428 
Q 1925 3584 2291 3584 
Q 2894 3584 3203 3211 
Q 3513 2838 3513 2113 
z
" transform="scale(0.015625)"/>
       <path id="DejaVuSans-73" d="M 2834 3397 
L 2834 2853 
Q 2591 2978 2328 3040 
Q 2066 3103 1784 3103 
Q 1356 3103 1142 2972 
Q 928 2841 928 2578 
Q 928 2378 1081 2264 
Q 1234 2150 1697 2047 
L 1894 2003 
Q 2506 1872 2764 1633 
Q 3022 1394 3022 966 
Q 3022 478 2636 193 
Q 2250 -91 1575 -91 
Q 1294 -91 989 -36 
Q 684 19 347 128 
L 347 722 
Q 666 556 975 473 
Q 1284 391 1588 391 
Q 1994 391 2212 530 
Q 2431 669 2431 922 
Q 2431 1156 2273 1281 
Q 2116 1406 1581 1522 
L 1381 1569 
Q 847 1681 609 1914 
Q 372 2147 372 2553 
Q 372 3047 722 3315 
Q 1072 3584 1716 3584 
Q 2034 3584 2315 3537 
Q 2597 3491 2834 3397 
z
" transform="scale(0.015625)"/>
       <path id="DejaVuSans-29" d="M 513 4856 
L 1013 4856 
Q 1481 4119 1714 3412 
Q 1947 2706 1947 2009 
Q 1947 1309 1714 600 
Q 1481 -109 1013 -844 
L 513 -844 
Q 928 -128 1133 580 
Q 1338 1288 1338 2009 
Q 1338 2731 1133 3434 
Q 928 4138 513 4856 
z
" transform="scale(0.015625)"/>
      </defs>
      <use xlink:href="#DejaVuSans-54"/>
      <use xlink:href="#DejaVuSans-69" x="57.958984"/>
      <use xlink:href="#DejaVuSans-6d" x="85.742188"/>
      <use xlink:href="#DejaVuSans-65" x="183.154297"/>
      <use xlink:href="#DejaVuSans-20" x="244.677734"/>
      <use xlink:href="#DejaVuSans-28" x="276.464844"/>
      <use xlink:href="#DejaVuSans-6e" x="315.478516"/>
      <use xlink:href="#DejaVuSans-73" x="378.857422"/>
      <use xlink:href="#DejaVuSans-29" x="430.957031"/>
     </g>
    </g>
    <g id="text_8">
     <!-- 1e9 -->
     <g transform="translate(395.841875 334.860562)scale(0.1 -0.1)">
      <defs>
       <path id="DejaVuSans-39" d="M 703 97 
L 703 672 
Q 941 559 1184 500 
Q 1428 441 1663 441 
Q 2288 441 2617 861 
Q 2947 1281 2994 2138 
Q 2813 1869 2534 1725 
Q 2256 1581 1919 1581 
Q 1219 1581 811 2004 
Q 403 2428 403 3163 
Q 403 3881 828 4315 
Q 1253 4750 1959 4750 
Q 2769 4750 3195 4129 
Q 3622 3509 3622 2328 
Q 3622 1225 3098 567 
Q 2575 -91 1691 -91 
Q 1453 -91 1209 -44 
Q 966 3 703 97 
z
M 1959 2075 
Q 2384 2075 2632 2365 
Q 2881 2656 2881 3163 
Q 2881 3666 2632 3958 
Q 2384 4250 1959 4250 
Q 1534 4250 1286 3958 
Q 1038 3666 1038 3163 
Q 1038 2656 1286 2365 
Q 1534 2075 1959 2075 
z
" transform="scale(0.015625)"/>
      </defs>
      <use xlink:href="#DejaVuSans-31"/>
      <use xlink:href="#DejaVuSans-65" x="63.623047"/>
      <use xlink:href="#DejaVuSans-39" x="125.146484"/>
     </g>
    </g>
   </g>
   <g id="matplotlib.axis_2">
    <g id="ytick_1">
     <g id="line2d_7">
      <defs>
       <path id="m6c8365c31a" d="M 0 0 
L -3.5 0 
" style="stroke: #000000; stroke-width: 0.8"/>
      </defs>
      <g>
       <use xlink:href="#m6c8365c31a" x="57.6" y="284.31848" style="stroke: #000000; stroke-width: 0.8"/>
      </g>
     </g>
     <g id="text_9">
      <!-- 5000 -->
      <g transform="translate(25.15 288.117699)scale(0.1 -0.1)">
       <defs>
        <path id="DejaVuSans-35" d="M 691 4666 
L 3169 4666 
L 3169 4134 
L 1269 4134 
L 1269 2991 
Q 1406 3038 1543 3061 
Q 1681 3084 1819 3084 
Q 2600 3084 3056 2656 
Q 3513 2228 3513 1497 
Q 3513 744 3044 326 
Q 2575 -91 1722 -91 
Q 1428 -91 1123 -41 
Q 819 9 494 109 
L 494 744 
Q 775 591 1075 516 
Q 1375 441 1709 441 
Q 2250 441 2565 725 
Q 2881 1009 2881 1497 
Q 2881 1984 2565 2268 
Q 2250 2553 1709 2553 
Q 1456 2553 1204 2497 
Q 953 2441 691 2322 
L 691 4666 
z
" transform="scale(0.015625)"/>
       </defs>
       <use xlink:href="#DejaVuSans-35"/>
       <use xlink:href="#DejaVuSans-30" x="63.623047"/>
       <use xlink:href="#DejaVuSans-30" x="127.246094"/>
       <use xlink:href="#DejaVuSans-30" x="190.869141"/>
      </g>
     </g>
    </g>
    <g id="ytick_2">
     <g id="line2d_8">
      <g>
       <use xlink:href="#m6c8365c31a" x="57.6" y="254.22818" style="stroke: #000000; stroke-width: 0.8"/>
      </g>
     </g>
     <g id="text_10">
      <!-- 10000 -->
      <g transform="translate(18.7875 258.027398)scale(0.1 -0.1)">
       <use xlink:href="#DejaVuSans-31"/>
       <use xlink:href="#DejaVuSans-30" x="63.623047"/>
       <use xlink:href="#DejaVuSans-30" x="127.246094"/>
       <use xlink:href="#DejaVuSans-30" x="190.869141"/>
       <use xlink:href="#DejaVuSans-30" x="254.492188"/>
      </g>
     </g>
    </g>
    <g id="ytick_3">
     <g id="line2d_9">
      <g>
       <use xlink:href="#m6c8365c31a" x="57.6" y="224.137879" style="stroke: #000000; stroke-width: 0.8"/>
      </g>
     </g>
     <g id="text_11">
      <!-- 15000 -->
      <g transform="translate(18.7875 227.937098)scale(0.1 -0.1)">
       <use xlink:href="#DejaVuSans-31"/>
       <use xlink:href="#DejaVuSans-35" x="63.623047"/>
       <use xlink:href="#DejaVuSans-30" x="127.246094"/>
       <use xlink:href="#DejaVuSans-30" x="190.869141"/>
       <use xlink:href="#DejaVuSans-30" x="254.492188"/>
      </g>
     </g>
    </g>
    <g id="ytick_4">
     <g id="line2d_10">
      <g>
       <use xlink:href="#m6c8365c31a" x="57.6" y="194.047578" style="stroke: #000000; stroke-width: 0.8"/>
      </g>
     </g>
     <g id="text_12">
      <!-- 20000 -->
      <g transform="translate(18.7875 197.846797)scale(0.1 -0.1)">
       <use xlink:href="#DejaVuSans-32"/>
       <use xlink:href="#DejaVuSans-30" x="63.623047"/>
       <use xlink:href="#DejaVuSans-30" x="127.246094"/>
       <use xlink:href="#DejaVuSans-30" x="190.869141"/>
       <use xlink:href="#DejaVuSans-30" x="254.492188"/>
      </g>
     </g>
    </g>
    <g id="ytick_5">
     <g id="line2d_11">
      <g>
       <use xlink:href="#m6c8365c31a" x="57.6" y="163.957277" style="stroke: #000000; stroke-width: 0.8"/>
      </g>
     </g>
     <g id="text_13">
      <!-- 25000 -->
      <g transform="translate(18.7875 167.756496)scale(0.1 -0.1)">
       <use xlink:href="#DejaVuSans-32"/>
       <use xlink:href="#DejaVuSans-35" x="63.623047"/>
       <use xlink:href="#DejaVuSans-30" x="127.246094"/>
       <use xlink:href="#DejaVuSans-30" x="190.869141"/>
       <use xlink:href="#DejaVuSans-30" x="254.492188"/>
      </g>
     </g>
    </g>
    <g id="ytick_6">
     <g id="line2d_12">
      <g>
       <use xlink:href="#m6c8365c31a" x="57.6" y="133.866977" style="stroke: #000000; stroke-width: 0.8"/>
      </g>
     </g>
     <g id="text_14">
      <!-- 30000 -->
      <g transform="translate(18.7875 137.666195)scale(0.1 -0.1)">
       <defs>
        <path id="DejaVuSans-33" d="M 2597 2516 
Q 3050 2419 3304 2112 
Q 3559 1806 3559 1356 
Q 3559 666 3084 287 
Q 2609 -91 1734 -91 
Q 1441 -91 1130 -33 
Q 819 25 488 141 
L 488 750 
Q 750 597 1062 519 
Q 1375 441 1716 441 
Q 2309 441 2620 675 
Q 2931 909 2931 1356 
Q 2931 1769 2642 2001 
Q 2353 2234 1838 2234 
L 1294 2234 
L 1294 2753 
L 1863 2753 
Q 2328 2753 2575 2939 
Q 2822 3125 2822 3475 
Q 2822 3834 2567 4026 
Q 2313 4219 1838 4219 
Q 1578 4219 1281 4162 
Q 984 4106 628 3988 
L 628 4550 
Q 988 4650 1302 4700 
Q 1616 4750 1894 4750 
Q 2613 4750 3031 4423 
Q 3450 4097 3450 3541 
Q 3450 3153 3228 2886 
Q 3006 2619 2597 2516 
z
" transform="scale(0.015625)"/>
       </defs>
       <use xlink:href="#DejaVuSans-33"/>
       <use xlink:href="#DejaVuSans-30" x="63.623047"/>
       <use xlink:href="#DejaVuSans-30" x="127.246094"/>
       <use xlink:href="#DejaVuSans-30" x="190.869141"/>
       <use xlink:href="#DejaVuSans-30" x="254.492188"/>
      </g>
     </g>
    </g>
    <g id="ytick_7">
     <g id="line2d_13">
      <g>
       <use xlink:href="#m6c8365c31a" x="57.6" y="103.776676" style="stroke: #000000; stroke-width: 0.8"/>
      </g>
     </g>
     <g id="text_15">
      <!-- 35000 -->
      <g transform="translate(18.7875 107.575895)scale(0.1 -0.1)">
       <use xlink:href="#DejaVuSans-33"/>
       <use xlink:href="#DejaVuSans-35" x="63.623047"/>
       <use xlink:href="#DejaVuSans-30" x="127.246094"/>
       <use xlink:href="#DejaVuSans-30" x="190.869141"/>
       <use xlink:href="#DejaVuSans-30" x="254.492188"/>
      </g>
     </g>
    </g>
    <g id="ytick_8">
     <g id="line2d_14">
      <g>
       <use xlink:href="#m6c8365c31a" x="57.6" y="73.686375" style="stroke: #000000; stroke-width: 0.8"/>
      </g>
     </g>
     <g id="text_16">
      <!-- 40000 -->
      <g transform="translate(18.7875 77.485594)scale(0.1 -0.1)">
       <use xlink:href="#DejaVuSans-34"/>
       <use xlink:href="#DejaVuSans-30" x="63.623047"/>
       <use xlink:href="#DejaVuSans-30" x="127.246094"/>
       <use xlink:href="#DejaVuSans-30" x="190.869141"/>
       <use xlink:href="#DejaVuSans-30" x="254.492188"/>
      </g>
     </g>
    </g>
    <g id="ytick_9">
     <g id="line2d_15">
      <g>
       <use xlink:href="#m6c8365c31a" x="57.6" y="43.596074" style="stroke: #000000; stroke-width: 0.8"/>
      </g>
     </g>
     <g id="text_17">
      <!-- 45000 -->
      <g transform="translate(18.7875 47.395293)scale(0.1 -0.1)">
       <use xlink:href="#DejaVuSans-34"/>
       <use xlink:href="#DejaVuSans-35" x="63.623047"/>
       <use xlink:href="#DejaVuSans-30" x="127.246094"/>
       <use xlink:href="#DejaVuSans-30" x="190.869141"/>
       <use xlink:href="#DejaVuSans-30" x="254.492188"/>
      </g>
     </g>
    </g>
    <g id="text_18">
     <!-- Latency (ns) -->
     <g transform="translate(12.707812 205.556125)rotate(-90)scale(0.1 -0.1)">
      <defs>
       <path id="DejaVuSans-4c" d="M 628 4666 
L 1259 4666 
L 1259 531 
L 3531 531 
L 3531 0 
L 628 0 
L 628 4666 
z
" transform="scale(0.015625)"/>
       <path id="DejaVuSans-61" d="M 2194 1759 
Q 1497 1759 1228 1600 
Q 959 1441 959 1056 
Q 959 750 1161 570 
Q 1363 391 1709 391 
Q 2188 391 2477 730 
Q 2766 1069 2766 1631 
L 2766 1759 
L 2194 1759 
z
M 3341 1997 
L 3341 0 
L 2766 0 
L 2766 531 
Q 2569 213 2275 61 
Q 1981 -91 1556 -91 
Q 1019 -91 701 211 
Q 384 513 384 1019 
Q 384 1609 779 1909 
Q 1175 2209 1959 2209 
L 2766 2209 
L 2766 2266 
Q 2766 2663 2505 2880 
Q 2244 3097 1772 3097 
Q 1472 3097 1187 3025 
Q 903 2953 641 2809 
L 641 3341 
Q 956 3463 1253 3523 
Q 1550 3584 1831 3584 
Q 2591 3584 2966 3190 
Q 3341 2797 3341 1997 
z
" transform="scale(0.015625)"/>
       <path id="DejaVuSans-74" d="M 1172 4494 
L 1172 3500 
L 2356 3500 
L 2356 3053 
L 1172 3053 
L 1172 1153 
Q 1172 725 1289 603 
Q 1406 481 1766 481 
L 2356 481 
L 2356 0 
L 1766 0 
Q 1100 0 847 248 
Q 594 497 594 1153 
L 594 3053 
L 172 3053 
L 172 3500 
L 594 3500 
L 594 4494 
L 1172 4494 
z
" transform="scale(0.015625)"/>
       <path id="DejaVuSans-63" d="M 3122 3366 
L 3122 2828 
Q 2878 2963 2633 3030 
Q 2388 3097 2138 3097 
Q 1578 3097 1268 2742 
Q 959 2388 959 1747 
Q 959 1106 1268 751 
Q 1578 397 2138 397 
Q 2388 397 2633 464 
Q 2878 531 3122 666 
L 3122 134 
Q 2881 22 2623 -34 
Q 2366 -91 2075 -91 
Q 1284 -91 818 406 
Q 353 903 353 1747 
Q 353 2603 823 3093 
Q 1294 3584 2113 3584 
Q 2378 3584 2631 3529 
Q 2884 3475 3122 3366 
z
" transform="scale(0.015625)"/>
       <path id="DejaVuSans-79" d="M 2059 -325 
Q 1816 -950 1584 -1140 
Q 1353 -1331 966 -1331 
L 506 -1331 
L 506 -850 
L 844 -850 
Q 1081 -850 1212 -737 
Q 1344 -625 1503 -206 
L 1606 56 
L 191 3500 
L 800 3500 
L 1894 763 
L 2988 3500 
L 3597 3500 
L 2059 -325 
z
" transform="scale(0.015625)"/>
      </defs>
      <use xlink:href="#DejaVuSans-4c"/>
      <use xlink:href="#DejaVuSans-61" x="55.712891"/>
      <use xlink:href="#DejaVuSans-74" x="116.992188"/>
      <use xlink:href="#DejaVuSans-65" x="156.201172"/>
      <use xlink:href="#DejaVuSans-6e" x="217.724609"/>
      <use xlink:href="#DejaVuSans-63" x="281.103516"/>
      <use xlink:href="#DejaVuSans-79" x="336.083984"/>
      <use xlink:href="#DejaVuSans-20" x="395.263672"/>
      <use xlink:href="#DejaVuSans-28" x="427.050781"/>
      <use xlink:href="#DejaVuSans-6e" x="466.064453"/>
      <use xlink:href="#DejaVuSans-73" x="529.443359"/>
      <use xlink:href="#DejaVuSans-29" x="581.542969"/>
     </g>
    </g>
   </g>
   <g id="line2d_16">
    <path d="M 73.832727 223.88512 
L 74.157707 292.226211 
L 74.482686 287.128914 
L 74.807666 295.488 
L 75.132645 293.357607 
L 75.457625 65.754572 
L 75.782604 72.591088 
L 76.107584 67.337322 
L 76.432563 88.177864 
L 76.757543 62.270115 
L 77.082523 58.731496 
L 77.407502 71.989282 
L 77.732482 56.865897 
L 78.057461 67.945146 
L 78.382441 69.112649 
L 78.70742 60.39248 
L 79.0324 67.650261 
L 79.357379 58.815748 
L 79.682359 287.273348 
L 80.007338 277.644452 
L 80.332318 71.237025 
L 80.982277 68.619168 
L 81.307256 290.204143 
L 81.632236 71.646253 
L 81.957215 66.693389 
L 82.282195 58.12969 
L 82.607174 63.750558 
L 82.932154 53.568 
L 83.257133 63.919063 
L 83.582113 69.425588 
L 83.907093 57.088565 
L 84.232072 288.398725 
L 84.557052 285.323496 
L 84.882031 289.53012 
L 85.207011 290.685588 
L 85.53199 286.262314 
L 85.85697 287.971443 
L 86.181949 287.074752 
L 86.506929 286.665524 
L 86.831908 288.627411 
L 87.156888 287.399727 
L 87.481867 287.183077 
L 87.806847 286.599325 
L 88.131826 289.361615 
L 88.456806 287.911262 
L 89.106765 287.273348 
L 89.431744 289.397723 
L 89.756724 287.122896 
L 90.081704 286.846066 
L 90.406683 287.195113 
L 90.731663 289.403741 
L 91.056642 287.159005 
L 91.381622 287.020589 
L 91.706601 287.231221 
L 92.031581 289.542157 
L 92.35656 287.333528 
L 92.68154 287.116878 
L 93.006519 287.062716 
L 93.331499 288.982477 
L 93.656478 287.23724 
L 93.981458 286.599325 
L 94.306437 286.797921 
L 94.631417 289.06673 
L 94.956396 287.002535 
L 95.606355 287.634432 
L 95.931335 289.50003 
L 96.256314 287.074752 
L 96.906274 287.140951 
L 97.231253 290.071746 
L 97.556233 287.273348 
L 97.881212 286.719686 
L 98.206192 287.122896 
L 98.531171 289.361615 
L 98.856151 287.580269 
L 99.18113 287.399727 
L 99.50611 287.032625 
L 99.831089 289.211163 
L 100.156069 289.536139 
L 100.481048 286.605343 
L 100.806028 286.918282 
L 101.131007 289.229217 
L 101.455987 287.351583 
L 101.780966 287.165023 
L 102.105946 287.29742 
L 102.430925 289.481976 
L 102.755905 286.466928 
L 103.080885 287.152987 
L 103.405864 286.942355 
L 103.730844 289.945367 
L 104.055823 287.628413 
L 104.380803 287.068734 
L 104.705782 287.51407 
L 105.030762 289.433831 
L 105.355741 287.134933 
L 105.680721 287.195113 
L 106.0057 286.815975 
L 106.33068 287.279366 
L 106.980639 287.249276 
L 107.305618 287.104842 
L 107.630598 289.506048 
L 107.955577 287.520088 
L 108.280557 287.459908 
L 108.605536 287.243258 
L 108.930516 289.295416 
L 109.255495 287.291402 
L 109.580475 287.134933 
L 109.905455 287.51407 
L 110.230434 289.144965 
L 110.555414 287.056698 
L 110.880393 286.888192 
L 111.205373 272.733715 
L 111.855332 286.063718 
L 112.180311 286.918282 
L 112.505291 286.611361 
L 112.83027 288.380671 
L 113.15525 287.333528 
L 113.480229 287.002535 
L 113.805209 287.189095 
L 114.130188 290.011565 
L 114.455168 286.587289 
L 114.780147 286.779867 
L 115.105127 286.737741 
L 115.430106 288.982477 
L 115.755086 287.038644 
L 116.080066 286.67756 
L 116.405045 287.014571 
L 116.730025 289.187091 
L 117.055004 286.936337 
L 117.379984 286.701632 
L 117.704963 287.008553 
L 118.029943 289.451886 
L 118.354922 287.538143 
L 118.679902 286.930318 
L 119.004881 287.285384 
L 119.329861 288.862116 
L 119.65484 287.544161 
L 119.97982 287.207149 
L 120.304799 287.405745 
L 120.629779 289.385687 
L 120.954758 287.008553 
L 121.279738 286.563217 
L 121.604717 287.152987 
L 121.929697 289.157001 
L 122.254676 287.152987 
L 122.579656 287.249276 
L 122.904636 286.761813 
L 123.229615 289.445868 
L 123.554595 287.435836 
L 124.204554 286.954391 
L 124.529533 288.868134 
L 124.854513 287.748775 
L 125.179492 287.309456 
L 125.504472 287.32751 
L 125.829451 289.295416 
L 126.154431 287.339547 
L 126.47941 287.70063 
L 126.80439 287.285384 
L 127.129369 288.482978 
L 127.779328 287.032625 
L 128.104308 286.996517 
L 128.429287 288.537141 
L 128.754267 287.435836 
L 129.079247 286.89421 
L 129.404226 287.086788 
L 129.729206 289.187091 
L 130.054185 287.658504 
L 130.379165 286.984481 
L 130.704144 287.020589 
L 131.029124 289.355597 
L 131.354103 286.912264 
L 131.679083 287.044662 
L 132.004062 286.713668 
L 132.654021 292.141959 
L 132.979001 287.219185 
L 133.30398 286.996517 
L 133.62896 284.035632 
L 133.953939 286.190097 
L 134.278919 287.51407 
L 134.603898 286.599325 
L 134.928878 288.428815 
L 135.253857 287.965425 
L 135.578837 286.791903 
L 135.903817 286.767831 
L 136.228796 289.054694 
L 136.553776 286.870138 
L 136.878755 287.718684 
L 137.203735 287.243258 
L 137.528714 289.421795 
L 137.853694 287.423799 
L 138.178673 287.508052 
L 138.503653 287.351583 
L 138.828632 288.904242 
L 139.153612 287.026607 
L 139.478591 286.978463 
L 139.803571 287.219185 
L 140.12855 289.211163 
L 140.45353 286.821993 
L 140.778509 287.303438 
L 141.103489 286.539145 
L 141.428468 289.590301 
L 141.753448 286.996517 
L 142.078428 287.580269 
L 142.403407 287.05068 
L 142.728387 289.211163 
L 143.053366 287.652486 
L 143.378346 287.189095 
L 143.703325 287.183077 
L 144.028305 289.132928 
L 144.353284 287.159005 
L 145.003243 287.195113 
L 145.328223 289.205145 
L 145.653202 287.038644 
L 145.978182 287.261312 
L 146.303161 287.026607 
L 146.628141 289.409759 
L 146.95312 287.363619 
L 147.2781 287.243258 
L 147.603079 286.761813 
L 147.928059 289.397723 
L 148.253038 286.918282 
L 148.578018 287.465926 
L 148.902998 287.08077 
L 149.227977 289.060712 
L 149.552957 287.489998 
L 150.202916 286.936337 
L 150.527895 289.506048 
L 151.177854 287.05068 
L 151.502834 286.719686 
L 151.827813 288.946369 
L 152.802752 286.942355 
L 153.127731 288.868134 
L 153.452711 286.370639 
L 153.77769 287.309456 
L 154.10267 286.846066 
L 154.427649 289.271344 
L 154.752629 287.201131 
L 155.077609 287.002535 
L 155.402588 287.285384 
L 155.727568 289.415777 
L 156.052547 287.447872 
L 156.702506 286.870138 
L 157.027486 288.771845 
L 157.352465 287.441854 
L 157.677445 287.315474 
L 158.002424 287.477962 
L 158.327404 289.415777 
L 158.652383 288.091804 
L 158.977363 287.869136 
L 159.302342 286.605343 
L 159.627322 290.065728 
L 159.952301 287.45389 
L 160.60226 286.960409 
L 160.92724 288.862116 
L 161.252219 286.695614 
L 161.577199 287.91728 
L 161.902179 286.153989 
L 162.227158 290.294414 
L 162.552138 287.183077 
L 162.877117 287.243258 
L 163.202097 286.719686 
L 163.527076 289.295416 
L 163.852056 287.664522 
L 164.177035 286.89421 
L 164.502015 287.140951 
L 164.826994 288.940351 
L 165.151974 294.609363 
L 165.476953 287.508052 
L 165.801933 287.225203 
L 166.126912 289.512066 
L 166.451892 287.664522 
L 166.776871 286.942355 
L 167.101851 287.038644 
L 167.42683 289.379669 
L 167.75181 287.790901 
L 168.07679 288.200129 
L 168.401769 287.562215 
L 168.726749 289.030621 
L 169.051728 287.146969 
L 169.376708 287.098824 
L 169.701687 287.544161 
L 170.026667 289.578265 
L 170.351646 287.586287 
L 171.001605 287.339547 
L 171.326585 289.09682 
L 171.651564 286.978463 
L 171.976544 287.23724 
L 172.301523 287.243258 
L 172.626503 289.409759 
L 172.951482 287.195113 
L 173.276462 286.900228 
L 173.601441 286.767831 
L 173.926421 289.385687 
L 174.2514 287.465926 
L 174.57638 287.375655 
L 174.90136 286.9243 
L 175.226339 289.506048 
L 175.551319 287.658504 
L 175.876298 286.623397 
L 176.201278 287.128914 
L 176.526257 289.217181 
L 177.176216 286.725704 
L 177.501196 287.411763 
L 177.826175 288.934332 
L 178.476134 286.797921 
L 179.126093 289.87315 
L 179.451073 288.067732 
L 179.776052 287.610359 
L 180.101032 286.617379 
L 180.426011 289.307452 
L 180.750991 286.876156 
L 181.075971 287.971443 
L 181.40095 287.538143 
L 181.72593 288.801935 
L 182.050909 286.52109 
L 182.700868 287.134933 
L 183.025848 288.705646 
L 183.350827 287.893208 
L 184.000786 286.972445 
L 184.325766 289.50003 
L 184.650745 287.51407 
L 184.975725 287.51407 
L 185.300704 286.906246 
L 185.625684 288.537141 
L 186.275643 287.062716 
L 186.600622 286.882174 
L 186.925602 289.46994 
L 187.250581 287.393709 
L 187.575561 287.526106 
L 187.900541 287.11086 
L 188.22552 289.421795 
L 188.5505 287.062716 
L 188.875479 287.062716 
L 189.200459 287.676558 
L 189.525438 289.518084 
L 190.175397 286.972445 
L 190.500377 286.978463 
L 190.825356 288.964423 
L 191.150336 286.725704 
L 191.475315 286.635434 
L 191.800295 287.11086 
L 192.125274 288.627411 
L 192.450254 271.87915 
L 192.775233 274.882162 
L 193.100213 286.063718 
L 193.425192 289.385687 
L 193.750172 286.858102 
L 194.075152 287.502034 
L 194.400131 287.766829 
L 194.725111 288.416779 
L 195.05009 288.121894 
L 195.37507 287.477962 
L 195.700049 287.790901 
L 196.025029 290.24627 
L 196.350008 287.159005 
L 196.674988 286.930318 
L 196.999967 287.11086 
L 197.649926 290.571245 
L 197.974906 286.472946 
L 198.299885 286.689596 
L 198.624865 289.602337 
L 198.949844 286.984481 
L 199.274824 287.116878 
L 199.599803 286.900228 
L 199.924783 289.144965 
L 200.249762 287.056698 
L 200.574742 287.381673 
L 200.899722 287.405745 
L 201.224701 289.223199 
L 201.549681 287.471944 
L 202.19964 286.984481 
L 202.524619 289.187091 
L 202.849599 287.171041 
L 203.174578 287.315474 
L 203.499558 286.930318 
L 203.824537 289.391705 
L 204.149517 287.435836 
L 204.474496 287.08077 
L 205.124455 288.862116 
L 205.449435 286.882174 
L 206.099394 287.207149 
L 206.424373 289.578265 
L 206.749353 286.713668 
L 207.399312 286.83403 
L 207.724292 289.084784 
L 208.049271 287.393709 
L 208.374251 286.641452 
L 208.69923 286.846066 
L 209.02421 289.114874 
L 209.349189 287.339547 
L 209.674169 287.983479 
L 210.324128 286.039646 
L 210.649107 291.016581 
L 210.974087 291.245268 
L 211.299066 286.111862 
L 211.624046 288.332526 
L 211.949025 286.671542 
L 212.274005 286.785885 
L 212.598984 287.48398 
L 212.923964 289.28338 
L 213.248943 287.146969 
L 213.573923 286.906246 
L 213.898903 287.140951 
L 214.223882 289.235236 
L 214.548862 287.014571 
L 214.873841 286.719686 
L 215.198821 287.375655 
L 215.5238 289.897222 
L 215.84878 287.520088 
L 216.173759 288.019587 
L 216.498739 286.918282 
L 216.823718 289.048676 
L 217.473677 287.134933 
L 217.798657 286.984481 
L 218.123636 289.229217 
L 218.448616 286.912264 
L 218.773595 288.037642 
L 219.098575 287.429817 
L 219.423554 289.897222 
L 219.748534 287.32751 
L 220.073514 287.068734 
L 220.398493 286.418783 
L 220.723473 289.102838 
L 221.048452 287.068734 
L 221.373432 287.411763 
L 221.698411 287.502034 
L 222.023391 289.71668 
L 222.34837 287.977461 
L 222.67335 287.664522 
L 222.998329 287.784883 
L 223.323309 289.861114 
L 223.648288 287.965425 
L 223.973268 288.127912 
L 224.298247 287.249276 
L 224.623227 289.939349 
L 224.948206 287.038644 
L 225.273186 287.128914 
L 225.598165 286.978463 
L 225.923145 288.452888 
L 226.248124 286.370639 
L 226.573104 287.279366 
L 226.898084 287.134933 
L 227.223063 289.638446 
L 227.548043 287.171041 
L 227.873022 287.351583 
L 228.198002 287.08077 
L 228.522981 289.806951 
L 228.847961 287.628413 
L 229.17294 287.32751 
L 229.49792 287.243258 
L 229.822899 289.560211 
L 230.147879 287.556197 
L 230.472858 290.685588 
L 230.797838 286.942355 
L 231.122817 288.91026 
L 231.447797 287.189095 
L 231.772776 287.532124 
L 232.097756 286.954391 
L 232.422735 288.946369 
L 232.747715 286.918282 
L 233.072695 286.539145 
L 233.397674 287.207149 
L 233.722654 290.041656 
L 234.047633 287.899226 
L 234.372613 287.977461 
L 234.697592 286.852084 
L 235.022572 289.87315 
L 235.347551 288.230219 
L 235.672531 288.242256 
L 235.99751 287.195113 
L 236.32249 289.758807 
L 236.647469 287.977461 
L 237.297428 287.724702 
L 237.622408 289.072748 
L 237.947387 286.876156 
L 238.272367 287.303438 
L 238.597346 286.743759 
L 238.922326 288.964423 
L 239.247305 286.870138 
L 239.572285 287.038644 
L 239.897265 287.068734 
L 240.222244 289.415777 
L 240.547224 287.802937 
L 240.872203 284.601329 
L 241.197183 287.965425 
L 241.522162 289.301434 
L 241.847142 286.749777 
L 242.172121 286.803939 
L 242.497101 287.152987 
L 242.82208 289.409759 
L 243.472039 286.346567 
L 243.797019 287.333528 
L 244.121998 288.687592 
L 244.446978 286.67756 
L 244.771957 286.635434 
L 245.096937 286.972445 
L 245.421916 289.163019 
L 245.746896 286.539145 
L 246.071876 287.177059 
L 246.396855 286.972445 
L 246.721835 289.295416 
L 247.046814 287.489998 
L 247.371794 286.773849 
L 247.696773 287.598323 
L 248.021753 289.487994 
L 248.346732 286.936337 
L 248.671712 288.13393 
L 248.996691 286.755795 
L 249.321671 288.970441 
L 249.64665 287.544161 
L 249.97163 287.965425 
L 250.296609 287.369637 
L 250.621589 289.048676 
L 250.946568 287.411763 
L 251.271548 286.731722 
L 251.596527 286.870138 
L 251.921507 288.801935 
L 252.246486 287.526106 
L 252.571466 287.604341 
L 252.896446 287.977461 
L 253.221425 289.722698 
L 253.546405 287.965425 
L 254.196364 286.611361 
L 254.521343 289.93333 
L 254.846323 287.971443 
L 255.171302 286.737741 
L 255.496282 286.821993 
L 255.821261 289.114874 
L 256.146241 287.881172 
L 256.47122 288.061714 
L 256.7962 287.965425 
L 257.121179 289.409759 
L 257.446159 287.345565 
L 257.771138 286.129916 
L 258.096118 286.815975 
L 258.421097 288.868134 
L 258.746077 286.737741 
L 259.071057 287.586287 
L 259.396036 287.309456 
L 259.721016 289.644464 
L 260.045995 287.646468 
L 260.370975 286.930318 
L 260.695954 287.159005 
L 261.020934 288.904242 
L 261.345913 287.086788 
L 261.670893 287.91728 
L 261.995872 288.061714 
L 262.320852 289.181073 
L 262.645831 286.936337 
L 262.970811 291.040654 
L 263.29579 287.08077 
L 263.62077 288.976459 
L 263.945749 286.454892 
L 264.270729 286.870138 
L 264.595708 286.930318 
L 264.920688 289.102838 
L 265.245667 286.316476 
L 265.570647 286.918282 
L 265.895627 286.89421 
L 266.220606 289.349579 
L 266.545586 286.328512 
L 266.870565 287.279366 
L 267.195545 287.122896 
L 267.520524 289.614373 
L 267.845504 287.171041 
L 268.170483 286.936337 
L 268.495463 287.863118 
L 268.820442 289.674554 
L 269.145422 287.122896 
L 269.470401 286.948373 
L 269.795381 287.062716 
L 270.12036 288.651484 
L 270.44534 286.960409 
L 270.770319 286.821993 
L 271.095299 286.942355 
L 271.420278 289.343561 
L 271.745258 287.225203 
L 272.070238 288.04366 
L 272.395217 287.092806 
L 272.720197 289.536139 
L 273.370156 287.23724 
L 273.695135 277.620379 
L 274.020115 289.939349 
L 274.345094 286.527108 
L 274.670074 286.491 
L 274.995053 286.292404 
L 275.320033 289.806951 
L 275.645012 286.605343 
L 275.969992 287.195113 
L 276.294971 286.695614 
L 276.619951 289.885186 
L 276.94493 286.418783 
L 277.26991 286.587289 
L 277.594889 286.888192 
L 277.919869 289.704644 
L 278.244848 286.858102 
L 278.569828 286.587289 
L 278.894808 287.664522 
L 279.219787 289.361615 
L 279.544767 286.430819 
L 279.869746 287.796919 
L 280.194726 287.339547 
L 280.519705 288.789899 
L 280.844685 286.972445 
L 281.169664 287.207149 
L 281.494644 286.948373 
L 281.819623 289.704644 
L 282.144603 287.381673 
L 282.469582 287.712666 
L 282.794562 287.104842 
L 283.119541 289.048676 
L 283.444521 287.387691 
L 283.7695 287.020589 
L 284.09448 287.459908 
L 284.419459 289.608355 
L 284.744439 286.918282 
L 285.069419 287.351583 
L 285.394398 287.447872 
L 285.719378 289.43985 
L 286.044357 287.165023 
L 286.694316 286.89421 
L 287.019296 289.295416 
L 287.344275 287.171041 
L 287.669255 287.056698 
L 287.994234 287.11086 
L 288.319214 290.324504 
L 288.644193 287.851082 
L 288.969173 287.784883 
L 289.294152 286.665524 
L 289.619132 289.494012 
L 289.944111 286.749777 
L 290.59407 287.128914 
L 290.91905 289.620391 
L 291.244029 287.207149 
L 291.569009 287.122896 
L 291.893989 287.159005 
L 292.218968 289.193109 
L 292.543948 286.761813 
L 292.868927 287.026607 
L 293.193907 286.466928 
L 293.518886 289.427813 
L 293.843866 288.151985 
L 294.493825 287.23724 
L 294.818804 289.6565 
L 295.143784 288.013569 
L 295.468763 291.8892 
L 295.793743 287.423799 
L 296.118722 288.705646 
L 296.443702 286.749777 
L 297.093661 286.767831 
L 297.41864 289.163019 
L 297.74362 286.563217 
L 298.0686 287.140951 
L 298.393579 286.52109 
L 298.718559 289.427813 
L 299.043538 287.64045 
L 299.368518 287.171041 
L 299.693497 287.321492 
L 300.018477 289.054694 
L 300.668436 286.364621 
L 300.993415 286.659506 
L 301.318395 289.662518 
L 301.643374 287.285384 
L 301.968354 286.773849 
L 302.293333 287.51407 
L 302.618313 288.964423 
L 302.943292 286.906246 
L 303.268272 286.442856 
L 303.593251 287.140951 
L 303.918231 289.728716 
L 304.24321 287.273348 
L 304.56819 286.803939 
L 304.89317 287.249276 
L 305.218149 289.03664 
L 305.543129 287.171041 
L 305.868108 287.014571 
L 306.193088 287.664522 
L 306.518067 289.187091 
L 306.843047 286.593307 
L 307.168026 287.201131 
L 307.493006 286.984481 
L 307.817985 289.806951 
L 308.142965 286.683578 
L 308.467944 286.990499 
L 308.792924 287.646468 
L 309.117903 289.295416 
L 309.442883 286.623397 
L 309.767862 290.902238 
L 310.092842 286.791903 
L 310.417821 289.915276 
L 310.742801 287.008553 
L 311.067781 286.858102 
L 311.39276 286.454892 
L 311.71774 288.699628 
L 312.042719 286.89421 
L 312.367699 286.990499 
L 312.692678 286.340549 
L 313.017658 290.240252 
L 313.342637 288.176057 
L 313.667617 286.930318 
L 313.992596 286.725704 
L 314.317576 289.53012 
L 314.642555 286.731722 
L 314.967535 286.665524 
L 315.292514 287.496016 
L 315.617494 289.662518 
L 315.942473 287.941353 
L 316.267453 287.381673 
L 316.592432 287.116878 
L 316.917412 289.385687 
L 317.242391 286.605343 
L 317.567371 287.165023 
L 317.892351 286.9243 
L 318.21733 289.199127 
L 318.54231 287.309456 
L 318.867289 287.32751 
L 319.192269 286.86412 
L 319.517248 289.457904 
L 319.842228 287.538143 
L 320.167207 287.646468 
L 320.492187 287.11086 
L 320.817166 289.602337 
L 321.142146 287.375655 
L 321.467125 286.858102 
L 321.792105 286.828011 
L 322.117084 289.475958 
L 322.442064 287.471944 
L 322.767043 286.701632 
L 323.092023 287.146969 
L 323.417002 289.193109 
L 323.741982 286.791903 
L 324.066962 286.978463 
L 324.391941 287.002535 
L 324.716921 288.898224 
L 325.0419 287.020589 
L 325.36688 286.755795 
L 325.691859 286.803939 
L 326.016839 289.548175 
L 326.341818 287.67054 
L 326.666798 286.509054 
L 326.991777 286.900228 
L 327.316757 288.958405 
L 327.641736 287.399727 
L 327.966716 291.600333 
L 328.291695 287.104842 
L 328.616675 289.752789 
L 328.941654 287.429817 
L 329.266634 286.581271 
L 329.591613 286.797921 
L 329.916593 290.05971 
L 330.241572 287.863118 
L 330.566552 287.965425 
L 330.891532 286.671542 
L 331.216511 289.644464 
L 331.541491 287.989497 
L 331.86647 287.086788 
L 332.19145 287.32751 
L 332.516429 289.481976 
L 333.166388 286.515072 
L 333.491368 286.497018 
L 333.816347 289.668536 
L 334.141327 288.434834 
L 334.466306 288.061714 
L 334.791286 287.423799 
L 335.116265 289.536139 
L 335.766224 286.828011 
L 336.091204 287.279366 
L 336.416183 290.264324 
L 336.741163 287.086788 
L 337.066143 286.936337 
L 337.391122 287.291402 
L 337.716102 289.235236 
L 338.366061 286.815975 
L 339.01602 289.25329 
L 339.340999 287.381673 
L 339.665979 286.298422 
L 339.990958 287.45389 
L 340.315938 289.831023 
L 340.640917 286.906246 
L 341.290876 286.876156 
L 341.615856 288.795917 
L 341.940835 286.918282 
L 342.265815 286.190097 
L 342.590794 287.225203 
L 342.915774 289.692608 
L 343.240753 287.074752 
L 343.565733 287.51407 
L 343.890713 287.291402 
L 344.215692 289.481976 
L 344.540672 286.840048 
L 344.865651 287.273348 
L 345.190631 287.339547 
L 345.51561 289.668536 
L 346.165569 286.906246 
L 346.490549 287.171041 
L 346.815528 289.451886 
L 347.140508 287.851082 
L 347.465487 286.918282 
L 348.115446 289.746771 
L 348.440426 287.044662 
L 348.765405 287.128914 
L 349.090385 287.399727 
L 349.415364 289.487994 
L 349.740344 287.152987 
L 350.065324 287.508052 
L 350.390303 287.496016 
L 350.715283 289.945367 
L 351.040262 286.328512 
L 351.365242 287.393709 
L 351.690221 287.014571 
L 352.015201 289.307452 
L 352.66516 286.208151 
L 352.990139 287.122896 
L 353.315119 289.752789 
L 353.640098 287.146969 
L 353.965078 287.23724 
L 354.290057 287.134933 
L 354.615037 289.102838 
L 354.940016 277.295404 
L 355.264996 286.653488 
L 355.589975 287.417781 
L 355.914955 289.999529 
L 356.239934 286.484982 
L 356.564914 287.351583 
L 356.889894 286.900228 
L 357.214873 289.608355 
L 357.539853 287.189095 
L 357.864832 287.351583 
L 358.189812 286.689596 
L 358.514791 289.963421 
L 358.839771 286.954391 
L 359.16475 286.683578 
L 359.48973 288.711664 
L 359.814709 288.410761 
L 360.139689 287.459908 
L 360.464668 291.979471 
L 360.789648 287.285384 
L 361.114627 289.054694 
L 361.439607 287.092806 
L 361.764586 287.598323 
L 362.089566 287.231221 
L 362.414545 288.970441 
L 362.739525 286.797921 
L 363.064505 287.73072 
L 363.389484 287.652486 
L 363.714464 289.831023 
L 364.039443 287.381673 
L 364.364423 286.972445 
L 364.689402 286.996517 
L 365.014382 289.03664 
L 365.339361 287.032625 
L 365.664341 286.484982 
L 365.98932 287.140951 
L 366.3143 289.457904 
L 366.964259 286.081772 
L 367.614218 289.289398 
L 367.939197 286.653488 
L 368.264177 286.918282 
L 368.589156 286.701632 
L 368.914136 289.301434 
L 369.239115 286.942355 
L 369.564095 287.345565 
L 369.889075 286.870138 
L 370.214054 289.427813 
L 370.539034 287.207149 
L 370.864013 287.219185 
L 371.188993 287.911262 
L 371.513972 289.542157 
L 371.838952 286.828011 
L 372.163931 286.52109 
L 372.488911 286.785885 
L 372.81389 288.988495 
L 373.13887 286.828011 
L 373.463849 286.665524 
L 373.788829 287.104842 
L 374.113808 289.590301 
L 374.438788 287.074752 
L 374.763767 287.201131 
L 375.088747 286.737741 
L 375.413726 289.06673 
L 375.738706 286.767831 
L 376.063686 287.833027 
L 376.388665 286.906246 
L 376.713645 289.554193 
L 377.038624 286.815975 
L 377.363604 287.074752 
L 377.688583 287.796919 
L 378.013563 289.169037 
L 378.338542 286.30444 
L 378.663522 288.771845 
L 378.988501 287.225203 
L 379.313481 288.976459 
L 379.63846 286.966427 
L 379.96344 287.074752 
L 380.288419 286.882174 
L 380.613399 289.084784 
L 380.938378 287.171041 
L 381.263358 287.363619 
L 381.588337 287.026607 
L 381.913317 289.373651 
L 382.238296 287.104842 
L 382.563276 287.056698 
L 382.888256 287.712666 
L 383.213235 288.994513 
L 383.538215 287.309456 
L 383.863194 286.412765 
L 384.188174 286.382675 
L 384.513153 289.584283 
L 384.838133 288.242256 
L 385.488092 287.881172 
L 385.813071 289.993511 
L 386.138051 287.393709 
L 386.46303 287.387691 
L 386.78801 286.671542 
L 387.112989 289.915276 
L 387.437969 287.134933 
L 387.762948 286.785885 
L 388.087928 286.858102 
L 388.412907 289.205145 
L 388.737887 287.70063 
L 389.062867 288.121894 
L 389.387846 287.171041 
L 389.712826 289.680572 
L 390.037805 287.189095 
L 390.362785 287.411763 
L 390.687764 286.659506 
L 391.012744 289.626409 
L 391.337723 286.846066 
L 391.662703 287.29742 
L 391.987682 287.08077 
L 392.312662 290.11989 
L 392.637641 287.020589 
L 392.962621 291.51608 
L 393.2876 286.972445 
L 393.61258 289.199127 
L 393.937559 286.888192 
L 394.262539 287.116878 
L 394.587518 287.08077 
L 394.912498 289.433831 
L 395.237477 287.802937 
L 395.562457 286.870138 
L 395.887437 287.694612 
L 396.212416 289.144965 
L 396.537396 287.556197 
L 396.862375 287.128914 
L 397.187355 287.219185 
L 397.512334 289.90324 
L 397.837314 287.796919 
L 398.162293 287.08077 
L 398.487273 287.393709 
L 398.487273 287.393709 
" clip-path="url(#p9f00c499a4)" style="fill: none; stroke: #1f77b4; stroke-width: 1.5; stroke-linecap: square"/>
   </g>
   <g id="patch_3">
    <path d="M 57.6 307.584 
L 57.6 41.472 
" style="fill: none; stroke: #000000; stroke-width: 0.8; stroke-linejoin: miter; stroke-linecap: square"/>
   </g>
   <g id="patch_4">
    <path d="M 414.72 307.584 
L 414.72 41.472 
" style="fill: none; stroke: #000000; stroke-width: 0.8; stroke-linejoin: miter; stroke-linecap: square"/>
   </g>
   <g id="patch_5">
    <path d="M 57.6 307.584 
L 414.72 307.584 
" style="fill: none; stroke: #000000; stroke-width: 0.8; stroke-linejoin: miter; stroke-linecap: square"/>
   </g>
   <g id="patch_6">
    <path d="M 57.6 41.472 
L 414.72 41.472 
" style="fill: none; stroke: #000000; stroke-width: 0.8; stroke-linejoin: miter; stroke-linecap: square"/>
   </g>
   <g id="text_19">
    <!-- Scheduling latency vs. time for: /home/thomas/Desktop/ros2_pendulum_benchmark//2022-08-08_15:56:34/demo/2_stress/fifo/results.csv -->
    <g transform="translate(-176.30625 35.472)scale(0.12 -0.12)">
     <defs>
      <path id="DejaVuSans-53" d="M 3425 4513 
L 3425 3897 
Q 3066 4069 2747 4153 
Q 2428 4238 2131 4238 
Q 1616 4238 1336 4038 
Q 1056 3838 1056 3469 
Q 1056 3159 1242 3001 
Q 1428 2844 1947 2747 
L 2328 2669 
Q 3034 2534 3370 2195 
Q 3706 1856 3706 1288 
Q 3706 609 3251 259 
Q 2797 -91 1919 -91 
Q 1588 -91 1214 -16 
Q 841 59 441 206 
L 441 856 
Q 825 641 1194 531 
Q 1563 422 1919 422 
Q 2459 422 2753 634 
Q 3047 847 3047 1241 
Q 3047 1584 2836 1778 
Q 2625 1972 2144 2069 
L 1759 2144 
Q 1053 2284 737 2584 
Q 422 2884 422 3419 
Q 422 4038 858 4394 
Q 1294 4750 2059 4750 
Q 2388 4750 2728 4690 
Q 3069 4631 3425 4513 
z
" transform="scale(0.015625)"/>
      <path id="DejaVuSans-68" d="M 3513 2113 
L 3513 0 
L 2938 0 
L 2938 2094 
Q 2938 2591 2744 2837 
Q 2550 3084 2163 3084 
Q 1697 3084 1428 2787 
Q 1159 2491 1159 1978 
L 1159 0 
L 581 0 
L 581 4863 
L 1159 4863 
L 1159 2956 
Q 1366 3272 1645 3428 
Q 1925 3584 2291 3584 
Q 2894 3584 3203 3211 
Q 3513 2838 3513 2113 
z
" transform="scale(0.015625)"/>
      <path id="DejaVuSans-64" d="M 2906 2969 
L 2906 4863 
L 3481 4863 
L 3481 0 
L 2906 0 
L 2906 525 
Q 2725 213 2448 61 
Q 2172 -91 1784 -91 
Q 1150 -91 751 415 
Q 353 922 353 1747 
Q 353 2572 751 3078 
Q 1150 3584 1784 3584 
Q 2172 3584 2448 3432 
Q 2725 3281 2906 2969 
z
M 947 1747 
Q 947 1113 1208 752 
Q 1469 391 1925 391 
Q 2381 391 2643 752 
Q 2906 1113 2906 1747 
Q 2906 2381 2643 2742 
Q 2381 3103 1925 3103 
Q 1469 3103 1208 2742 
Q 947 2381 947 1747 
z
" transform="scale(0.015625)"/>
      <path id="DejaVuSans-75" d="M 544 1381 
L 544 3500 
L 1119 3500 
L 1119 1403 
Q 1119 906 1312 657 
Q 1506 409 1894 409 
Q 2359 409 2629 706 
Q 2900 1003 2900 1516 
L 2900 3500 
L 3475 3500 
L 3475 0 
L 2900 0 
L 2900 538 
Q 2691 219 2414 64 
Q 2138 -91 1772 -91 
Q 1169 -91 856 284 
Q 544 659 544 1381 
z
M 1991 3584 
L 1991 3584 
z
" transform="scale(0.015625)"/>
      <path id="DejaVuSans-6c" d="M 603 4863 
L 1178 4863 
L 1178 0 
L 603 0 
L 603 4863 
z
" transform="scale(0.015625)"/>
      <path id="DejaVuSans-67" d="M 2906 1791 
Q 2906 2416 2648 2759 
Q 2391 3103 1925 3103 
Q 1463 3103 1205 2759 
Q 947 2416 947 1791 
Q 947 1169 1205 825 
Q 1463 481 1925 481 
Q 2391 481 2648 825 
Q 2906 1169 2906 1791 
z
M 3481 434 
Q 3481 -459 3084 -895 
Q 2688 -1331 1869 -1331 
Q 1566 -1331 1297 -1286 
Q 1028 -1241 775 -1147 
L 775 -588 
Q 1028 -725 1275 -790 
Q 1522 -856 1778 -856 
Q 2344 -856 2625 -561 
Q 2906 -266 2906 331 
L 2906 616 
Q 2728 306 2450 153 
Q 2172 0 1784 0 
Q 1141 0 747 490 
Q 353 981 353 1791 
Q 353 2603 747 3093 
Q 1141 3584 1784 3584 
Q 2172 3584 2450 3431 
Q 2728 3278 2906 2969 
L 2906 3500 
L 3481 3500 
L 3481 434 
z
" transform="scale(0.015625)"/>
      <path id="DejaVuSans-76" d="M 191 3500 
L 800 3500 
L 1894 563 
L 2988 3500 
L 3597 3500 
L 2284 0 
L 1503 0 
L 191 3500 
z
" transform="scale(0.015625)"/>
      <path id="DejaVuSans-66" d="M 2375 4863 
L 2375 4384 
L 1825 4384 
Q 1516 4384 1395 4259 
Q 1275 4134 1275 3809 
L 1275 3500 
L 2222 3500 
L 2222 3053 
L 1275 3053 
L 1275 0 
L 697 0 
L 697 3053 
L 147 3053 
L 147 3500 
L 697 3500 
L 697 3744 
Q 697 4328 969 4595 
Q 1241 4863 1831 4863 
L 2375 4863 
z
" transform="scale(0.015625)"/>
      <path id="DejaVuSans-6f" d="M 1959 3097 
Q 1497 3097 1228 2736 
Q 959 2375 959 1747 
Q 959 1119 1226 758 
Q 1494 397 1959 397 
Q 2419 397 2687 759 
Q 2956 1122 2956 1747 
Q 2956 2369 2687 2733 
Q 2419 3097 1959 3097 
z
M 1959 3584 
Q 2709 3584 3137 3096 
Q 3566 2609 3566 1747 
Q 3566 888 3137 398 
Q 2709 -91 1959 -91 
Q 1206 -91 779 398 
Q 353 888 353 1747 
Q 353 2609 779 3096 
Q 1206 3584 1959 3584 
z
" transform="scale(0.015625)"/>
      <path id="DejaVuSans-72" d="M 2631 2963 
Q 2534 3019 2420 3045 
Q 2306 3072 2169 3072 
Q 1681 3072 1420 2755 
Q 1159 2438 1159 1844 
L 1159 0 
L 581 0 
L 581 3500 
L 1159 3500 
L 1159 2956 
Q 1341 3275 1631 3429 
Q 1922 3584 2338 3584 
Q 2397 3584 2469 3576 
Q 2541 3569 2628 3553 
L 2631 2963 
z
" transform="scale(0.015625)"/>
      <path id="DejaVuSans-3a" d="M 750 794 
L 1409 794 
L 1409 0 
L 750 0 
L 750 794 
z
M 750 3309 
L 1409 3309 
L 1409 2516 
L 750 2516 
L 750 3309 
z
" transform="scale(0.015625)"/>
      <path id="DejaVuSans-2f" d="M 1625 4666 
L 2156 4666 
L 531 -594 
L 0 -594 
L 1625 4666 
z
" transform="scale(0.015625)"/>
      <path id="DejaVuSans-44" d="M 1259 4147 
L 1259 519 
L 2022 519 
Q 2988 519 3436 956 
Q 3884 1394 3884 2338 
Q 3884 3275 3436 3711 
Q 2988 4147 2022 4147 
L 1259 4147 
z
M 628 4666 
L 1925 4666 
Q 3281 4666 3915 4102 
Q 4550 3538 4550 2338 
Q 4550 1131 3912 565 
Q 3275 0 1925 0 
L 628 0 
L 628 4666 
z
" transform="scale(0.015625)"/>
      <path id="DejaVuSans-6b" d="M 581 4863 
L 1159 4863 
L 1159 1991 
L 2875 3500 
L 3609 3500 
L 1753 1863 
L 3688 0 
L 2938 0 
L 1159 1709 
L 1159 0 
L 581 0 
L 581 4863 
z
" transform="scale(0.015625)"/>
      <path id="DejaVuSans-70" d="M 1159 525 
L 1159 -1331 
L 581 -1331 
L 581 3500 
L 1159 3500 
L 1159 2969 
Q 1341 3281 1617 3432 
Q 1894 3584 2278 3584 
Q 2916 3584 3314 3078 
Q 3713 2572 3713 1747 
Q 3713 922 3314 415 
Q 2916 -91 2278 -91 
Q 1894 -91 1617 61 
Q 1341 213 1159 525 
z
M 3116 1747 
Q 3116 2381 2855 2742 
Q 2594 3103 2138 3103 
Q 1681 3103 1420 2742 
Q 1159 2381 1159 1747 
Q 1159 1113 1420 752 
Q 1681 391 2138 391 
Q 2594 391 2855 752 
Q 3116 1113 3116 1747 
z
" transform="scale(0.015625)"/>
      <path id="DejaVuSans-5f" d="M 3263 -1063 
L 3263 -1509 
L -63 -1509 
L -63 -1063 
L 3263 -1063 
z
" transform="scale(0.015625)"/>
      <path id="DejaVuSans-62" d="M 3116 1747 
Q 3116 2381 2855 2742 
Q 2594 3103 2138 3103 
Q 1681 3103 1420 2742 
Q 1159 2381 1159 1747 
Q 1159 1113 1420 752 
Q 1681 391 2138 391 
Q 2594 391 2855 752 
Q 3116 1113 3116 1747 
z
M 1159 2969 
Q 1341 3281 1617 3432 
Q 1894 3584 2278 3584 
Q 2916 3584 3314 3078 
Q 3713 2572 3713 1747 
Q 3713 922 3314 415 
Q 2916 -91 2278 -91 
Q 1894 -91 1617 61 
Q 1341 213 1159 525 
L 1159 0 
L 581 0 
L 581 4863 
L 1159 4863 
L 1159 2969 
z
" transform="scale(0.015625)"/>
      <path id="DejaVuSans-2d" d="M 313 2009 
L 1997 2009 
L 1997 1497 
L 313 1497 
L 313 2009 
z
" transform="scale(0.015625)"/>
     </defs>
     <use xlink:href="#DejaVuSans-53"/>
     <use xlink:href="#DejaVuSans-63" x="63.476562"/>
     <use xlink:href="#DejaVuSans-68" x="118.457031"/>
     <use xlink:href="#DejaVuSans-65" x="181.835938"/>
     <use xlink:href="#DejaVuSans-64" x="243.359375"/>
     <use xlink:href="#DejaVuSans-75" x="306.835938"/>
     <use xlink:href="#DejaVuSans-6c" x="370.214844"/>
     <use xlink:href="#DejaVuSans-69" x="397.998047"/>
     <use xlink:href="#DejaVuSans-6e" x="425.78125"/>
     <use xlink:href="#DejaVuSans-67" x="489.160156"/>
     <use xlink:href="#DejaVuSans-20" x="552.636719"/>
     <use xlink:href="#DejaVuSans-6c" x="584.423828"/>
     <use xlink:href="#DejaVuSans-61" x="612.207031"/>
     <use xlink:href="#DejaVuSans-74" x="673.486328"/>
     <use xlink:href="#DejaVuSans-65" x="712.695312"/>
     <use xlink:href="#DejaVuSans-6e" x="774.21875"/>
     <use xlink:href="#DejaVuSans-63" x="837.597656"/>
     <use xlink:href="#DejaVuSans-79" x="892.578125"/>
     <use xlink:href="#DejaVuSans-20" x="951.757812"/>
     <use xlink:href="#DejaVuSans-76" x="983.544922"/>
     <use xlink:href="#DejaVuSans-73" x="1042.724609"/>
     <use xlink:href="#DejaVuSans-2e" x="1094.824219"/>
     <use xlink:href="#DejaVuSans-20" x="1126.611328"/>
     <use xlink:href="#DejaVuSans-74" x="1158.398438"/>
     <use xlink:href="#DejaVuSans-69" x="1197.607422"/>
     <use xlink:href="#DejaVuSans-6d" x="1225.390625"/>
     <use xlink:href="#DejaVuSans-65" x="1322.802734"/>
     <use xlink:href="#DejaVuSans-20" x="1384.326172"/>
     <use xlink:href="#DejaVuSans-66" x="1416.113281"/>
     <use xlink:href="#DejaVuSans-6f" x="1451.318359"/>
     <use xlink:href="#DejaVuSans-72" x="1512.5"/>
     <use xlink:href="#DejaVuSans-3a" x="1551.863281"/>
     <use xlink:href="#DejaVuSans-20" x="1585.554688"/>
     <use xlink:href="#DejaVuSans-2f" x="1617.341797"/>
     <use xlink:href="#DejaVuSans-68" x="1651.033203"/>
     <use xlink:href="#DejaVuSans-6f" x="1714.412109"/>
     <use xlink:href="#DejaVuSans-6d" x="1775.59375"/>
     <use xlink:href="#DejaVuSans-65" x="1873.005859"/>
     <use xlink:href="#DejaVuSans-2f" x="1934.529297"/>
     <use xlink:href="#DejaVuSans-74" x="1968.220703"/>
     <use xlink:href="#DejaVuSans-68" x="2007.429688"/>
     <use xlink:href="#DejaVuSans-6f" x="2070.808594"/>
     <use xlink:href="#DejaVuSans-6d" x="2131.990234"/>
     <use xlink:href="#DejaVuSans-61" x="2229.402344"/>
     <use xlink:href="#DejaVuSans-73" x="2290.681641"/>
     <use xlink:href="#DejaVuSans-2f" x="2342.78125"/>
     <use xlink:href="#DejaVuSans-44" x="2376.472656"/>
     <use xlink:href="#DejaVuSans-65" x="2453.474609"/>
     <use xlink:href="#DejaVuSans-73" x="2514.998047"/>
     <use xlink:href="#DejaVuSans-6b" x="2567.097656"/>
     <use xlink:href="#DejaVuSans-74" x="2625.007812"/>
     <use xlink:href="#DejaVuSans-6f" x="2664.216797"/>
     <use xlink:href="#DejaVuSans-70" x="2725.398438"/>
     <use xlink:href="#DejaVuSans-2f" x="2788.875"/>
     <use xlink:href="#DejaVuSans-72" x="2822.566406"/>
     <use xlink:href="#DejaVuSans-6f" x="2861.429688"/>
     <use xlink:href="#DejaVuSans-73" x="2922.611328"/>
     <use xlink:href="#DejaVuSans-32" x="2974.710938"/>
     <use xlink:href="#DejaVuSans-5f" x="3038.333984"/>
     <use xlink:href="#DejaVuSans-70" x="3088.333984"/>
     <use xlink:href="#DejaVuSans-65" x="3151.810547"/>
     <use xlink:href="#DejaVuSans-6e" x="3213.333984"/>
     <use xlink:href="#DejaVuSans-64" x="3276.712891"/>
     <use xlink:href="#DejaVuSans-75" x="3340.189453"/>
     <use xlink:href="#DejaVuSans-6c" x="3403.568359"/>
     <use xlink:href="#DejaVuSans-75" x="3431.351562"/>
     <use xlink:href="#DejaVuSans-6d" x="3494.730469"/>
     <use xlink:href="#DejaVuSans-5f" x="3592.142578"/>
     <use xlink:href="#DejaVuSans-62" x="3642.142578"/>
     <use xlink:href="#DejaVuSans-65" x="3705.619141"/>
     <use xlink:href="#DejaVuSans-6e" x="3767.142578"/>
     <use xlink:href="#DejaVuSans-63" x="3830.521484"/>
     <use xlink:href="#DejaVuSans-68" x="3885.501953"/>
     <use xlink:href="#DejaVuSans-6d" x="3948.880859"/>
     <use xlink:href="#DejaVuSans-61" x="4046.292969"/>
     <use xlink:href="#DejaVuSans-72" x="4107.572266"/>
     <use xlink:href="#DejaVuSans-6b" x="4148.685547"/>
     <use xlink:href="#DejaVuSans-2f" x="4206.595703"/>
     <use xlink:href="#DejaVuSans-2f" x="4240.287109"/>
     <use xlink:href="#DejaVuSans-32" x="4273.978516"/>
     <use xlink:href="#DejaVuSans-30" x="4337.601562"/>
     <use xlink:href="#DejaVuSans-32" x="4401.224609"/>
     <use xlink:href="#DejaVuSans-32" x="4464.847656"/>
     <use xlink:href="#DejaVuSans-2d" x="4528.470703"/>
     <use xlink:href="#DejaVuSans-30" x="4564.554688"/>
     <use xlink:href="#DejaVuSans-38" x="4628.177734"/>
     <use xlink:href="#DejaVuSans-2d" x="4691.800781"/>
     <use xlink:href="#DejaVuSans-30" x="4727.884766"/>
     <use xlink:href="#DejaVuSans-38" x="4791.507812"/>
     <use xlink:href="#DejaVuSans-5f" x="4855.130859"/>
     <use xlink:href="#DejaVuSans-31" x="4905.130859"/>
     <use xlink:href="#DejaVuSans-35" x="4968.753906"/>
     <use xlink:href="#DejaVuSans-3a" x="5032.376953"/>
     <use xlink:href="#DejaVuSans-35" x="5066.068359"/>
     <use xlink:href="#DejaVuSans-36" x="5129.691406"/>
     <use xlink:href="#DejaVuSans-3a" x="5193.314453"/>
     <use xlink:href="#DejaVuSans-33" x="5227.005859"/>
     <use xlink:href="#DejaVuSans-34" x="5290.628906"/>
     <use xlink:href="#DejaVuSans-2f" x="5354.251953"/>
     <use xlink:href="#DejaVuSans-64" x="5387.943359"/>
     <use xlink:href="#DejaVuSans-65" x="5451.419922"/>
     <use xlink:href="#DejaVuSans-6d" x="5512.943359"/>
     <use xlink:href="#DejaVuSans-6f" x="5610.355469"/>
     <use xlink:href="#DejaVuSans-2f" x="5671.537109"/>
     <use xlink:href="#DejaVuSans-32" x="5705.228516"/>
     <use xlink:href="#DejaVuSans-5f" x="5768.851562"/>
     <use xlink:href="#DejaVuSans-73" x="5818.851562"/>
     <use xlink:href="#DejaVuSans-74" x="5870.951172"/>
     <use xlink:href="#DejaVuSans-72" x="5910.160156"/>
     <use xlink:href="#DejaVuSans-65" x="5949.023438"/>
     <use xlink:href="#DejaVuSans-73" x="6010.546875"/>
     <use xlink:href="#DejaVuSans-73" x="6062.646484"/>
     <use xlink:href="#DejaVuSans-2f" x="6114.746094"/>
     <use xlink:href="#DejaVuSans-66" x="6148.4375"/>
     <use xlink:href="#DejaVuSans-69" x="6183.642578"/>
     <use xlink:href="#DejaVuSans-66" x="6211.425781"/>
     <use xlink:href="#DejaVuSans-6f" x="6246.630859"/>
     <use xlink:href="#DejaVuSans-2f" x="6307.8125"/>
     <use xlink:href="#DejaVuSans-72" x="6341.503906"/>
     <use xlink:href="#DejaVuSans-65" x="6380.367188"/>
     <use xlink:href="#DejaVuSans-73" x="6441.890625"/>
     <use xlink:href="#DejaVuSans-75" x="6493.990234"/>
     <use xlink:href="#DejaVuSans-6c" x="6557.369141"/>
     <use xlink:href="#DejaVuSans-74" x="6585.152344"/>
     <use xlink:href="#DejaVuSans-73" x="6624.361328"/>
     <use xlink:href="#DejaVuSans-2e" x="6676.460938"/>
     <use xlink:href="#DejaVuSans-63" x="6708.248047"/>
     <use xlink:href="#DejaVuSans-73" x="6763.228516"/>
     <use xlink:href="#DejaVuSans-76" x="6815.328125"/>
    </g>
   </g>
  </g>
 </g>
 <defs>
  <clipPath id="p9f00c499a4">
   <rect x="57.6" y="41.472" width="357.12" height="266.112"/>
  </clipPath>
 </defs>
</svg>
